<?xml version="1.0" encoding="utf-8"?>
<!-- Generator: Adobe Illustrator 23.1.1, SVG Export Plug-In . SVG Version: 6.00 Build 0)  -->
<svg version="1.1" id="Capa_1" xmlns="http://www.w3.org/2000/svg" xmlns:xlink="http://www.w3.org/1999/xlink" x="0px" y="0px"
	 viewBox="0 0 512 512" style="enable-background:new 0 0 512 512;" xml:space="preserve">
<style type="text/css">
	.st0{fill:#09A1E5;}
	.st1{fill:#3EC3FF;}
	.st2{fill:#962B7C;}
	.st3{fill:#CB2E81;}
	.st4{fill:#FF3187;}
	.st5{fill:#FF9259;}
	.st6{fill:#FFB24A;}
	.st7{fill:#FFD23B;}
</style>
<g>
	<path class="st0" d="M128.5,69.6h187.2v356.8H128.5V69.6z"/>
	<path class="st1" d="M256,1.8L128.5,69.6L256,137.5h127.5V69.6L256,1.8z"/>
	<path class="st2" d="M323.8,137.5l59.8,374.2L511,443.8V137.5L323.8,137.5z"/>
	<path class="st3" d="M256,137.5v135.7l-49.8,85.3l49.8,85.3l127.5,67.9V137.5L256,137.5z"/>
	<path class="st4" d="M511,137.5L383.5,69.6L256,137.5l127.5,67.9L511,137.5z"/>
	<path class="st5" d="M68.8,273.2l59.8,238.5L256,443.8V273.2H68.8z"/>
	<path class="st6" d="M1.1,273.2v170.6l127.5,67.9V273.2L1.1,273.2z"/>
	<path class="st7" d="M128.5,205.4L1.1,273.2l127.5,67.9L256,273.2L128.5,205.4z"/>
</g>
</svg>
