<?xml version="1.0" encoding="utf-8"?>
<!-- Generator: Adobe Illustrator 23.1.1, SVG Export Plug-In . SVG Version: 6.00 Build 0)  -->
<svg version="1.1" id="Capa_1" xmlns="http://www.w3.org/2000/svg" xmlns:xlink="http://www.w3.org/1999/xlink" x="0px" y="0px"
	 viewBox="0 0 512 512" style="enable-background:new 0 0 512 512;" xml:space="preserve">
<style type="text/css">
	.st0{fill:#555A66;}
	.st1{fill:url(#SVGID_1_);}
	.st2{fill:url(#SVGID_2_);}
	.st3{fill:url(#SVGID_3_);}
	.st4{fill:url(#SVGID_4_);}
	.st5{fill:url(#SVGID_5_);}
	.st6{fill:url(#SVGID_6_);}
	.st7{fill:url(#SVGID_7_);}
	.st8{fill:url(#SVGID_8_);}
	.st9{fill:url(#SVGID_9_);}
	.st10{fill:url(#SVGID_10_);}
	.st11{fill:url(#SVGID_11_);}
	.st12{fill:url(#SVGID_12_);}
	.st13{fill:url(#SVGID_13_);}
	.st14{fill:url(#SVGID_14_);}
	.st15{fill:url(#SVGID_15_);}
	.st16{fill:url(#SVGID_16_);}
	.st17{fill:url(#SVGID_17_);}
	.st18{fill:url(#SVGID_18_);}
	.st19{fill:url(#SVGID_19_);}
	.st20{fill:url(#SVGID_20_);}
	.st21{fill:url(#SVGID_21_);}
	.st22{fill:url(#SVGID_22_);}
	.st23{fill:url(#SVGID_23_);}
	.st24{fill:url(#SVGID_24_);}
	.st25{fill:url(#SVGID_25_);}
	.st26{fill:url(#SVGID_26_);}
	.st27{fill:url(#SVGID_27_);}
	.st28{fill:url(#SVGID_28_);}
	.st29{fill:url(#SVGID_29_);}
	.st30{fill:url(#SVGID_30_);}
	.st31{fill:url(#SVGID_31_);}
	.st32{fill:url(#SVGID_32_);}
	.st33{fill:url(#SVGID_33_);}
	.st34{fill:url(#SVGID_34_);}
	.st35{fill:url(#SVGID_35_);}
	.st36{fill:url(#SVGID_36_);}
	.st37{fill:url(#SVGID_37_);}
	.st38{fill:url(#SVGID_38_);}
	.st39{fill:url(#SVGID_39_);}
	.st40{fill:url(#SVGID_40_);}
	.st41{fill:url(#SVGID_41_);}
	.st42{fill:url(#SVGID_42_);}
	.st43{fill:url(#SVGID_43_);}
	.st44{fill:url(#SVGID_44_);}
	.st45{fill:url(#SVGID_45_);}
	.st46{fill:url(#SVGID_46_);}
	.st47{fill:url(#SVGID_47_);}
	.st48{fill:url(#SVGID_48_);}
	.st49{fill:url(#SVGID_49_);}
	.st50{fill:url(#SVGID_50_);}
	.st51{fill:url(#SVGID_51_);}
	.st52{fill:url(#SVGID_52_);}
	.st53{fill:url(#SVGID_53_);}
	.st54{fill:url(#SVGID_54_);}
</style>
<g>
	<g>
		<path class="st0" d="M114.1,422.6c-4.8,0-8.7-3.9-8.7-8.7V97c0-4.8,3.9-8.7,8.7-8.7c4.8,0,8.7,3.9,8.7,8.7v316.9
			C122.7,418.7,118.9,422.6,114.1,422.6z"/>
		<path class="st0" d="M209.2,422.6c-4.8,0-8.7-3.9-8.7-8.7V97c0-4.8,3.9-8.7,8.7-8.7c4.8,0,8.7,3.9,8.7,8.7v316.9
			C217.8,418.7,214,422.6,209.2,422.6z"/>
		<path class="st0" d="M304.3,422.6c-4.8,0-8.7-3.9-8.7-8.7V97c0-4.8,3.9-8.7,8.7-8.7s8.7,3.9,8.7,8.7v316.9
			C313,418.7,309.1,422.6,304.3,422.6z"/>
		<path class="st0" d="M399.4,422.6c-4.8,0-8.7-3.9-8.7-8.7V97c0-4.8,3.9-8.7,8.7-8.7c4.8,0,8.7,3.9,8.7,8.7v316.9
			C408.1,418.7,404.2,422.6,399.4,422.6z"/>
	</g>
	
		<linearGradient id="SVGID_1_" gradientUnits="userSpaceOnUse" x1="113.4471" y1="303.1023" x2="113.4471" y2="320.1945" gradientTransform="matrix(1.0039 0 0 -1.0039 0.1647 512.7612)">
		<stop  offset="0" style="stop-color:#555A66;stop-opacity:0"/>
		<stop  offset="1" style="stop-color:#333333"/>
	</linearGradient>
	<path class="st1" d="M105.4,178.2h17.4v35.9h-17.4V178.2z"/>
	
		<linearGradient id="SVGID_2_" gradientUnits="userSpaceOnUse" x1="208.185" y1="303.1023" x2="208.185" y2="320.1945" gradientTransform="matrix(1.0039 0 0 -1.0039 0.1647 512.7612)">
		<stop  offset="0" style="stop-color:#555A66;stop-opacity:0"/>
		<stop  offset="1" style="stop-color:#333333"/>
	</linearGradient>
	<path class="st2" d="M200.5,178.2h17.4v35.9h-17.4L200.5,178.2z"/>
	
		<linearGradient id="SVGID_3_" gradientUnits="userSpaceOnUse" x1="302.9119" y1="303.1023" x2="302.9119" y2="320.1945" gradientTransform="matrix(1.0039 0 0 -1.0039 0.1647 512.7612)">
		<stop  offset="0" style="stop-color:#555A66;stop-opacity:0"/>
		<stop  offset="1" style="stop-color:#333333"/>
	</linearGradient>
	<path class="st3" d="M295.6,178.2h17.4v35.9h-17.4V178.2z"/>
	
		<linearGradient id="SVGID_4_" gradientUnits="userSpaceOnUse" x1="397.6498" y1="303.1023" x2="397.6498" y2="320.1945" gradientTransform="matrix(1.0039 0 0 -1.0039 0.1647 512.7612)">
		<stop  offset="0" style="stop-color:#555A66;stop-opacity:0"/>
		<stop  offset="1" style="stop-color:#333333"/>
	</linearGradient>
	<path class="st4" d="M390.7,178.2h17.4v35.9h-17.4V178.2z"/>
	
		<linearGradient id="SVGID_5_" gradientUnits="userSpaceOnUse" x1="113.4471" y1="181.2712" x2="113.4471" y2="198.3634" gradientTransform="matrix(1.0039 0 0 -1.0039 0.1647 512.7612)">
		<stop  offset="0" style="stop-color:#555A66;stop-opacity:0"/>
		<stop  offset="1" style="stop-color:#333333"/>
	</linearGradient>
	<path class="st5" d="M105.4,300.5h17.4v35.9h-17.4V300.5z"/>
	
		<linearGradient id="SVGID_6_" gradientUnits="userSpaceOnUse" x1="208.185" y1="181.2712" x2="208.185" y2="198.3634" gradientTransform="matrix(1.0039 0 0 -1.0039 0.1647 512.7612)">
		<stop  offset="0" style="stop-color:#555A66;stop-opacity:0"/>
		<stop  offset="1" style="stop-color:#333333"/>
	</linearGradient>
	<path class="st6" d="M200.5,300.5h17.4v35.9h-17.4L200.5,300.5z"/>
	
		<linearGradient id="SVGID_7_" gradientUnits="userSpaceOnUse" x1="302.9119" y1="181.2712" x2="302.9119" y2="198.3634" gradientTransform="matrix(1.0039 0 0 -1.0039 0.1647 512.7612)">
		<stop  offset="0" style="stop-color:#555A66;stop-opacity:0"/>
		<stop  offset="1" style="stop-color:#333333"/>
	</linearGradient>
	<path class="st7" d="M295.6,300.5h17.4v35.9h-17.4V300.5z"/>
	
		<linearGradient id="SVGID_8_" gradientUnits="userSpaceOnUse" x1="397.6498" y1="181.2712" x2="397.6498" y2="198.3634" gradientTransform="matrix(1.0039 0 0 -1.0039 0.1647 512.7612)">
		<stop  offset="0" style="stop-color:#555A66;stop-opacity:0"/>
		<stop  offset="1" style="stop-color:#333333"/>
	</linearGradient>
	<path class="st8" d="M390.7,300.5h17.4v35.9h-17.4V300.5z"/>
	
		<linearGradient id="SVGID_9_" gradientUnits="userSpaceOnUse" x1="113.4471" y1="112.2933" x2="113.4471" y2="129.3844" gradientTransform="matrix(1.0039 0 0 -1.0039 0.1647 512.7612)">
		<stop  offset="0" style="stop-color:#555A66;stop-opacity:0"/>
		<stop  offset="1" style="stop-color:#333333"/>
	</linearGradient>
	<path class="st9" d="M105.4,369.8h17.4v35.9h-17.4V369.8z"/>
	
		<linearGradient id="SVGID_10_" gradientUnits="userSpaceOnUse" x1="208.185" y1="237.7412" x2="208.185" y2="254.8334" gradientTransform="matrix(1.0039 0 0 -1.0039 0.1647 512.7612)">
		<stop  offset="0" style="stop-color:#555A66;stop-opacity:0"/>
		<stop  offset="1" style="stop-color:#333333"/>
	</linearGradient>
	<path class="st10" d="M200.5,243.9h17.4v35.9h-17.4L200.5,243.9z"/>
	
		<linearGradient id="SVGID_11_" gradientUnits="userSpaceOnUse" x1="302.9119" y1="112.2933" x2="302.9119" y2="129.3844" gradientTransform="matrix(1.0039 0 0 -1.0039 0.1647 512.7612)">
		<stop  offset="0" style="stop-color:#555A66;stop-opacity:0"/>
		<stop  offset="1" style="stop-color:#333333"/>
	</linearGradient>
	<path class="st11" d="M295.6,369.8h17.4v35.9h-17.4V369.8z"/>
	
		<linearGradient id="SVGID_12_" gradientUnits="userSpaceOnUse" x1="397.6498" y1="237.7412" x2="397.6498" y2="254.8334" gradientTransform="matrix(1.0039 0 0 -1.0039 0.1647 512.7612)">
		<stop  offset="0" style="stop-color:#555A66;stop-opacity:0"/>
		<stop  offset="1" style="stop-color:#333333"/>
	</linearGradient>
	<path class="st12" d="M390.7,243.9h17.4v35.9h-17.4V243.9z"/>
	
		<linearGradient id="SVGID_13_" gradientUnits="userSpaceOnUse" x1="113.4471" y1="330.2593" x2="113.4471" y2="347.3515" gradientTransform="matrix(1.0039 0 0 -1.0039 0.1647 512.7612)">
		<stop  offset="0" style="stop-color:#555A66;stop-opacity:0"/>
		<stop  offset="1" style="stop-color:#333333"/>
	</linearGradient>
	<path class="st13" d="M105.4,151h17.4v35.9h-17.4V151z"/>
	
		<linearGradient id="SVGID_14_" gradientUnits="userSpaceOnUse" x1="208.185" y1="330.2593" x2="208.185" y2="347.3515" gradientTransform="matrix(1.0039 0 0 -1.0039 0.1647 512.7612)">
		<stop  offset="0" style="stop-color:#555A66;stop-opacity:0"/>
		<stop  offset="1" style="stop-color:#333333"/>
	</linearGradient>
	<path class="st14" d="M200.5,151h17.4v35.9h-17.4L200.5,151z"/>
	
		<linearGradient id="SVGID_15_" gradientUnits="userSpaceOnUse" x1="302.9119" y1="330.2593" x2="302.9119" y2="347.3515" gradientTransform="matrix(1.0039 0 0 -1.0039 0.1647 512.7612)">
		<stop  offset="0" style="stop-color:#555A66;stop-opacity:0"/>
		<stop  offset="1" style="stop-color:#333333"/>
	</linearGradient>
	<path class="st15" d="M295.6,151h17.4v35.9h-17.4V151z"/>
	
		<linearGradient id="SVGID_16_" gradientUnits="userSpaceOnUse" x1="397.6498" y1="330.2593" x2="397.6498" y2="347.3515" gradientTransform="matrix(1.0039 0 0 -1.0039 0.1647 512.7612)">
		<stop  offset="0" style="stop-color:#555A66;stop-opacity:0"/>
		<stop  offset="1" style="stop-color:#333333"/>
	</linearGradient>
	<path class="st16" d="M390.7,151h17.4v35.9h-17.4V151z"/>
	<path class="st0" d="M15.4,178.6v-0.6c0-4.6,3.7-8.4,8.4-8.4h465.9c4.6,0,8.4,3.7,8.4,8.4v0.6c0,4.6-3.7,8.4-8.4,8.4H23.8
		C19.1,186.9,15.4,183.2,15.4,178.6z"/>
	
		<linearGradient id="SVGID_17_" gradientUnits="userSpaceOnUse" x1="123.6102" y1="479.0068" x2="442.0292" y2="-58.4662" gradientTransform="matrix(1.0039 0 0 -1.0039 0.1647 512.7612)">
		<stop  offset="0" style="stop-color:#FF7044"/>
		<stop  offset="1" style="stop-color:#F92814"/>
	</linearGradient>
	<path class="st17" d="M493,45.9H20.4c-10.5,0-19,9.6-19,21.5v376c0,11.9,8.5,21.5,19,21.5H493c10.5,0,19-9.6,19-21.5v-376
		C512,55.6,503.5,45.9,493,45.9L493,45.9z M460.7,398.6c0,9.8-7,17.7-15.6,17.7H68.3c-8.6,0-15.6-7.9-15.6-17.7V112.3
		c0-9.8,7-17.7,15.6-17.7h376.9c8.6,0,15.6,7.9,15.6,17.7L460.7,398.6L460.7,398.6z"/>
	
		<linearGradient id="SVGID_18_" gradientUnits="userSpaceOnUse" x1="-2077.5596" y1="2916.2678" x2="-1787.9249" y2="2427.3831" gradientTransform="matrix(-1.0039 0 0 1.0039 -1708.5099 -2468.886)">
		<stop  offset="0" style="stop-color:#FF7044"/>
		<stop  offset="1" style="stop-color:#F92814"/>
	</linearGradient>
	<path class="st18" d="M40.1,445.1h433.1c9.6,0,17.3-8.8,17.3-19.6v-340c0-10.8-7.8-19.6-17.3-19.6H40.1c-9.6,0-17.3,8.8-17.3,19.6
		v340C22.8,436.3,30.6,445.1,40.1,445.1L40.1,445.1z M52.7,112.3c0-9.8,7-17.7,15.6-17.7h376.9c8.6,0,15.6,7.9,15.6,17.7v286.4
		c0,9.8-7,17.7-15.6,17.7H68.3c-8.6,0-15.6-7.9-15.6-17.7L52.7,112.3z"/>
	
		<linearGradient id="SVGID_19_" gradientUnits="userSpaceOnUse" x1="103.2377" y1="386.2496" x2="138.5898" y2="350.8976" gradientTransform="matrix(1.0039 0 0 -1.0039 0.1647 512.7612)">
		<stop  offset="0" style="stop-color:#FF7044"/>
		<stop  offset="1" style="stop-color:#F92814"/>
	</linearGradient>
	<ellipse class="st19" cx="114.1" cy="135.2" rx="32.2" ry="21.5"/>
	
		<linearGradient id="SVGID_20_" gradientUnits="userSpaceOnUse" x1="116.5056" y1="371.7054" x2="100.7915" y2="393.984" gradientTransform="matrix(1.0039 0 0 -1.0039 0.1647 512.7612)">
		<stop  offset="0" style="stop-color:#FF7044;stop-opacity:0"/>
		<stop  offset="1" style="stop-color:#FFA425"/>
	</linearGradient>
	<ellipse class="st20" cx="114.1" cy="135.2" rx="26.9" ry="17.9"/>
	
		<linearGradient id="SVGID_21_" gradientUnits="userSpaceOnUse" x1="113.8579" y1="366.9876" x2="147.1517" y2="428.9103" gradientTransform="matrix(1.0039 0 0 -1.0039 0.1647 512.7612)">
		<stop  offset="0" style="stop-color:#F92814;stop-opacity:0"/>
		<stop  offset="1" style="stop-color:#C1272D"/>
	</linearGradient>
	<path class="st21" d="M128.5,116c2.2,2.9,3.4,6.2,3.4,9.6c0,11.9-14.4,21.5-32.2,21.5c-5.2,0-10.1-0.8-14.4-2.3
		c5.3,7,16.2,11.9,28.8,11.9c17.8,0,32.2-9.6,32.2-21.5C146.3,126.8,139,119.6,128.5,116z"/>
	
		<linearGradient id="SVGID_22_" gradientUnits="userSpaceOnUse" x1="103.2377" y1="232.5079" x2="138.5898" y2="197.1558" gradientTransform="matrix(1.0039 0 0 -1.0039 0.1647 512.7612)">
		<stop  offset="0" style="stop-color:#FF7044"/>
		<stop  offset="1" style="stop-color:#F92814"/>
	</linearGradient>
	<ellipse class="st22" cx="114.1" cy="289.6" rx="32.2" ry="21.5"/>
	
		<linearGradient id="SVGID_23_" gradientUnits="userSpaceOnUse" x1="116.506" y1="217.9629" x2="100.792" y2="240.2416" gradientTransform="matrix(1.0039 0 0 -1.0039 0.1647 512.7612)">
		<stop  offset="0" style="stop-color:#FF7044;stop-opacity:0"/>
		<stop  offset="1" style="stop-color:#FFA425"/>
	</linearGradient>
	<ellipse class="st23" cx="114.1" cy="289.6" rx="26.9" ry="17.9"/>
	
		<linearGradient id="SVGID_24_" gradientUnits="userSpaceOnUse" x1="113.8583" y1="213.2456" x2="147.1522" y2="275.1683" gradientTransform="matrix(1.0039 0 0 -1.0039 0.1647 512.7612)">
		<stop  offset="0" style="stop-color:#F92814;stop-opacity:0"/>
		<stop  offset="1" style="stop-color:#C1272D"/>
	</linearGradient>
	<path class="st24" d="M128.5,270.4c2.2,2.9,3.4,6.2,3.4,9.6c0,11.9-14.4,21.5-32.2,21.5c-5.2,0-10.1-0.8-14.4-2.3
		c5.3,7,16.2,11.9,28.8,11.9c17.8,0,32.2-9.6,32.2-21.5C146.3,281.2,139,273.9,128.5,270.4z"/>
	
		<linearGradient id="SVGID_25_" gradientUnits="userSpaceOnUse" x1="103.2373" y1="164.1398" x2="138.5894" y2="128.7868" gradientTransform="matrix(1.0039 0 0 -1.0039 0.1647 512.7612)">
		<stop  offset="0" style="stop-color:#FF7044"/>
		<stop  offset="1" style="stop-color:#F92814"/>
	</linearGradient>
	<ellipse class="st25" cx="114.1" cy="358.2" rx="32.2" ry="21.5"/>
	
		<linearGradient id="SVGID_26_" gradientUnits="userSpaceOnUse" x1="116.5056" y1="149.5949" x2="100.7915" y2="171.8736" gradientTransform="matrix(1.0039 0 0 -1.0039 0.1647 512.7612)">
		<stop  offset="0" style="stop-color:#FF7044;stop-opacity:0"/>
		<stop  offset="1" style="stop-color:#FFA425"/>
	</linearGradient>
	<ellipse class="st26" cx="114.1" cy="358.2" rx="26.9" ry="17.9"/>
	
		<linearGradient id="SVGID_27_" gradientUnits="userSpaceOnUse" x1="113.8579" y1="144.8771" x2="147.1517" y2="206.7998" gradientTransform="matrix(1.0039 0 0 -1.0039 0.1647 512.7612)">
		<stop  offset="0" style="stop-color:#F92814;stop-opacity:0"/>
		<stop  offset="1" style="stop-color:#C1272D"/>
	</linearGradient>
	<path class="st27" d="M128.5,339c2.2,2.9,3.4,6.2,3.4,9.6c0,11.9-14.4,21.5-32.2,21.5c-5.2,0-10.1-0.8-14.4-2.3
		c5.3,7,16.2,11.9,28.8,11.9c17.8,0,32.2-9.6,32.2-21.5C146.3,349.8,139,342.5,128.5,339z"/>
	
		<linearGradient id="SVGID_28_" gradientUnits="userSpaceOnUse" x1="197.9696" y1="386.2497" x2="233.3217" y2="350.8976" gradientTransform="matrix(1.0039 0 0 -1.0039 0.1647 512.7612)">
		<stop  offset="0" style="stop-color:#FFDA45"/>
		<stop  offset="1" style="stop-color:#FFA425"/>
	</linearGradient>
	<ellipse class="st28" cx="209.2" cy="135.2" rx="32.2" ry="21.5"/>
	
		<linearGradient id="SVGID_29_" gradientUnits="userSpaceOnUse" x1="211.2379" y1="371.705" x2="195.5229" y2="393.9836" gradientTransform="matrix(1.0039 0 0 -1.0039 0.1647 512.7612)">
		<stop  offset="0" style="stop-color:#FFDA45;stop-opacity:0"/>
		<stop  offset="1" style="stop-color:#FCEE21"/>
	</linearGradient>
	<ellipse class="st29" cx="209.2" cy="135.2" rx="26.9" ry="17.9"/>
	
		<linearGradient id="SVGID_30_" gradientUnits="userSpaceOnUse" x1="208.5891" y1="366.988" x2="241.8829" y2="428.9107" gradientTransform="matrix(1.0039 0 0 -1.0039 0.1647 512.7612)">
		<stop  offset="0" style="stop-color:#FFDA45;stop-opacity:0"/>
		<stop  offset="1" style="stop-color:#B53759"/>
	</linearGradient>
	<path class="st30" d="M223.6,116c2.2,2.9,3.4,6.2,3.4,9.6c0,11.9-14.4,21.5-32.2,21.5c-5.2,0-10.1-0.8-14.4-2.3
		c5.3,7,16.2,11.9,28.8,11.9c17.8,0,32.2-9.6,32.2-21.5C241.4,126.8,234.2,119.6,223.6,116L223.6,116z"/>
	
		<linearGradient id="SVGID_31_" gradientUnits="userSpaceOnUse" x1="197.9697" y1="232.508" x2="233.3218" y2="197.155" gradientTransform="matrix(1.0039 0 0 -1.0039 0.1647 512.7612)">
		<stop  offset="0" style="stop-color:#FFDA45"/>
		<stop  offset="1" style="stop-color:#FFA425"/>
	</linearGradient>
	<ellipse class="st31" cx="209.2" cy="289.6" rx="32.2" ry="21.5"/>
	
		<linearGradient id="SVGID_32_" gradientUnits="userSpaceOnUse" x1="211.2384" y1="217.9625" x2="195.5234" y2="240.2412" gradientTransform="matrix(1.0039 0 0 -1.0039 0.1647 512.7612)">
		<stop  offset="0" style="stop-color:#FFDA45;stop-opacity:0"/>
		<stop  offset="1" style="stop-color:#FCEE21"/>
	</linearGradient>
	<ellipse class="st32" cx="209.2" cy="289.6" rx="26.9" ry="17.9"/>
	
		<linearGradient id="SVGID_33_" gradientUnits="userSpaceOnUse" x1="208.5895" y1="213.246" x2="241.8833" y2="275.1687" gradientTransform="matrix(1.0039 0 0 -1.0039 0.1647 512.7612)">
		<stop  offset="0" style="stop-color:#FFDA45;stop-opacity:0"/>
		<stop  offset="1" style="stop-color:#B53759"/>
	</linearGradient>
	<path class="st33" d="M223.6,270.4c2.2,2.9,3.4,6.2,3.4,9.6c0,11.9-14.4,21.5-32.2,21.5c-5.2,0-10.1-0.8-14.4-2.3
		c5.3,7,16.2,11.9,28.8,11.9c17.8,0,32.2-9.6,32.2-21.5C241.4,281.2,234.2,273.9,223.6,270.4L223.6,270.4z"/>
	
		<linearGradient id="SVGID_34_" gradientUnits="userSpaceOnUse" x1="197.9693" y1="294.3484" x2="233.3213" y2="258.9954" gradientTransform="matrix(1.0039 0 0 -1.0039 0.1647 512.7612)">
		<stop  offset="0" style="stop-color:#FFDA45"/>
		<stop  offset="1" style="stop-color:#FFA425"/>
	</linearGradient>
	<ellipse class="st34" cx="209.2" cy="227.5" rx="32.2" ry="21.5"/>
	
		<linearGradient id="SVGID_35_" gradientUnits="userSpaceOnUse" x1="211.2379" y1="279.8031" x2="195.5229" y2="302.0818" gradientTransform="matrix(1.0039 0 0 -1.0039 0.1647 512.7612)">
		<stop  offset="0" style="stop-color:#FFDA45;stop-opacity:0"/>
		<stop  offset="1" style="stop-color:#FCEE21"/>
	</linearGradient>
	<ellipse class="st35" cx="209.2" cy="227.5" rx="26.9" ry="17.9"/>
	
		<linearGradient id="SVGID_36_" gradientUnits="userSpaceOnUse" x1="208.5891" y1="275.0862" x2="241.8839" y2="337.0089" gradientTransform="matrix(1.0039 0 0 -1.0039 0.1647 512.7612)">
		<stop  offset="0" style="stop-color:#FFDA45;stop-opacity:0"/>
		<stop  offset="1" style="stop-color:#B53759"/>
	</linearGradient>
	<path class="st36" d="M223.6,208.3c2.2,2.9,3.4,6.2,3.4,9.6c0,11.9-14.4,21.5-32.2,21.5c-5.2,0-10.1-0.8-14.4-2.3
		c5.3,7,16.2,11.9,28.8,11.9c17.8,0,32.2-9.6,32.2-21.5C241.4,219.1,234.2,211.8,223.6,208.3L223.6,208.3z"/>
	
		<linearGradient id="SVGID_37_" gradientUnits="userSpaceOnUse" x1="292.7019" y1="386.25" x2="328.055" y2="350.8979" gradientTransform="matrix(1.0039 0 0 -1.0039 0.1647 512.7612)">
		<stop  offset="0" style="stop-color:#92F37F"/>
		<stop  offset="1" style="stop-color:#4AB272"/>
	</linearGradient>
	<ellipse class="st37" cx="304.3" cy="135.2" rx="32.2" ry="21.5"/>
	
		<linearGradient id="SVGID_38_" gradientUnits="userSpaceOnUse" x1="305.9704" y1="371.7054" x2="290.2563" y2="393.984" gradientTransform="matrix(1.0039 0 0 -1.0039 0.1647 512.7612)">
		<stop  offset="0" style="stop-color:#92F37F;stop-opacity:0"/>
		<stop  offset="1" style="stop-color:#FFEE83"/>
	</linearGradient>
	<ellipse class="st38" cx="304.3" cy="135.2" rx="26.9" ry="17.9"/>
	
		<linearGradient id="SVGID_39_" gradientUnits="userSpaceOnUse" x1="303.3217" y1="366.9876" x2="336.6165" y2="428.9103" gradientTransform="matrix(1.0039 0 0 -1.0039 0.1647 512.7612)">
		<stop  offset="0" style="stop-color:#4AB272;stop-opacity:0"/>
		<stop  offset="1" style="stop-color:#009245"/>
	</linearGradient>
	<path class="st39" d="M318.7,116c2.2,2.9,3.4,6.2,3.4,9.6c0,11.9-14.4,21.5-32.2,21.5c-5.2,0-10.1-0.8-14.4-2.3
		c5.3,7,16.2,11.9,28.8,11.9c17.8,0,32.2-9.6,32.2-21.5C336.5,126.8,329.3,119.6,318.7,116L318.7,116z"/>
	
		<linearGradient id="SVGID_40_" gradientUnits="userSpaceOnUse" x1="292.702" y1="232.5084" x2="328.0551" y2="197.1553" gradientTransform="matrix(1.0039 0 0 -1.0039 0.1647 512.7612)">
		<stop  offset="0" style="stop-color:#92F37F"/>
		<stop  offset="1" style="stop-color:#4AB272"/>
	</linearGradient>
	<ellipse class="st40" cx="304.3" cy="289.6" rx="32.2" ry="21.5"/>
	
		<linearGradient id="SVGID_41_" gradientUnits="userSpaceOnUse" x1="305.9709" y1="217.9629" x2="290.2568" y2="240.2416" gradientTransform="matrix(1.0039 0 0 -1.0039 0.1647 512.7612)">
		<stop  offset="0" style="stop-color:#92F37F;stop-opacity:0"/>
		<stop  offset="1" style="stop-color:#FFEE83"/>
	</linearGradient>
	<ellipse class="st41" cx="304.3" cy="289.6" rx="26.9" ry="17.9"/>
	
		<linearGradient id="SVGID_42_" gradientUnits="userSpaceOnUse" x1="303.3221" y1="213.2456" x2="336.617" y2="275.1683" gradientTransform="matrix(1.0039 0 0 -1.0039 0.1647 512.7612)">
		<stop  offset="0" style="stop-color:#4AB272;stop-opacity:0"/>
		<stop  offset="1" style="stop-color:#009245"/>
	</linearGradient>
	<path class="st42" d="M318.7,270.4c2.2,2.9,3.4,6.2,3.4,9.6c0,11.9-14.4,21.5-32.2,21.5c-5.2,0-10.1-0.8-14.4-2.3
		c5.3,7,16.2,11.9,28.8,11.9c17.8,0,32.2-9.6,32.2-21.5C336.5,281.2,329.3,273.9,318.7,270.4L318.7,270.4z"/>
	
		<linearGradient id="SVGID_43_" gradientUnits="userSpaceOnUse" x1="292.7015" y1="164.1402" x2="328.0546" y2="128.7871" gradientTransform="matrix(1.0039 0 0 -1.0039 0.1647 512.7612)">
		<stop  offset="0" style="stop-color:#92F37F"/>
		<stop  offset="1" style="stop-color:#4AB272"/>
	</linearGradient>
	<ellipse class="st43" cx="304.3" cy="358.2" rx="32.2" ry="21.5"/>
	
		<linearGradient id="SVGID_44_" gradientUnits="userSpaceOnUse" x1="305.9704" y1="149.5949" x2="290.2563" y2="171.8736" gradientTransform="matrix(1.0039 0 0 -1.0039 0.1647 512.7612)">
		<stop  offset="0" style="stop-color:#92F37F;stop-opacity:0"/>
		<stop  offset="1" style="stop-color:#FFEE83"/>
	</linearGradient>
	<ellipse class="st44" cx="304.3" cy="358.2" rx="26.9" ry="17.9"/>
	
		<linearGradient id="SVGID_45_" gradientUnits="userSpaceOnUse" x1="303.3217" y1="144.8771" x2="336.6165" y2="206.7999" gradientTransform="matrix(1.0039 0 0 -1.0039 0.1647 512.7612)">
		<stop  offset="0" style="stop-color:#4AB272;stop-opacity:0"/>
		<stop  offset="1" style="stop-color:#009245"/>
	</linearGradient>
	<path class="st45" d="M318.7,339c2.2,2.9,3.4,6.2,3.4,9.6c0,11.9-14.4,21.5-32.2,21.5c-5.2,0-10.1-0.8-14.4-2.3
		c5.3,7,16.2,11.9,28.8,11.9c17.8,0,32.2-9.6,32.2-21.5C336.5,349.8,329.3,342.5,318.7,339L318.7,339z"/>
	
		<linearGradient id="SVGID_46_" gradientUnits="userSpaceOnUse" x1="387.4344" y1="386.2496" x2="422.7865" y2="350.8976" gradientTransform="matrix(1.0039 0 0 -1.0039 0.1647 512.7612)">
		<stop  offset="0" style="stop-color:#18CFFC"/>
		<stop  offset="1" style="stop-color:#4A98F7"/>
	</linearGradient>
	<ellipse class="st46" cx="399.4" cy="135.2" rx="32.2" ry="21.5"/>
	
		<linearGradient id="SVGID_47_" gradientUnits="userSpaceOnUse" x1="400.7023" y1="371.7054" x2="384.9883" y2="393.984" gradientTransform="matrix(1.0039 0 0 -1.0039 0.1647 512.7612)">
		<stop  offset="0" style="stop-color:#18CFFC;stop-opacity:0"/>
		<stop  offset="1" style="stop-color:#65E1DC"/>
	</linearGradient>
	<ellipse class="st47" cx="399.4" cy="135.2" rx="26.9" ry="17.9"/>
	
		<linearGradient id="SVGID_48_" gradientUnits="userSpaceOnUse" x1="398.0539" y1="366.988" x2="431.3477" y2="428.9107" gradientTransform="matrix(1.0039 0 0 -1.0039 0.1647 512.7612)">
		<stop  offset="0" style="stop-color:#0469BC;stop-opacity:0"/>
		<stop  offset="1" style="stop-color:#0469BC"/>
	</linearGradient>
	<path class="st48" d="M413.8,116c2.2,2.9,3.4,6.2,3.4,9.6c0,11.9-14.4,21.5-32.2,21.5c-5.2,0-10.1-0.8-14.4-2.3
		c5.3,7,16.2,11.9,28.8,11.9c17.8,0,32.2-9.6,32.2-21.5C431.6,126.8,424.4,119.6,413.8,116L413.8,116z"/>
	
		<linearGradient id="SVGID_49_" gradientUnits="userSpaceOnUse" x1="387.4344" y1="232.5079" x2="422.7865" y2="197.1558" gradientTransform="matrix(1.0039 0 0 -1.0039 0.1647 512.7612)">
		<stop  offset="0" style="stop-color:#18CFFC"/>
		<stop  offset="1" style="stop-color:#4A98F7"/>
	</linearGradient>
	<ellipse class="st49" cx="399.4" cy="289.6" rx="32.2" ry="21.5"/>
	
		<linearGradient id="SVGID_50_" gradientUnits="userSpaceOnUse" x1="400.7028" y1="217.9629" x2="384.9887" y2="240.2416" gradientTransform="matrix(1.0039 0 0 -1.0039 0.1647 512.7612)">
		<stop  offset="0" style="stop-color:#18CFFC;stop-opacity:0"/>
		<stop  offset="1" style="stop-color:#65E1DC"/>
	</linearGradient>
	<ellipse class="st50" cx="399.4" cy="289.6" rx="26.9" ry="17.9"/>
	
		<linearGradient id="SVGID_51_" gradientUnits="userSpaceOnUse" x1="398.0543" y1="213.246" x2="431.3481" y2="275.1687" gradientTransform="matrix(1.0039 0 0 -1.0039 0.1647 512.7612)">
		<stop  offset="0" style="stop-color:#0469BC;stop-opacity:0"/>
		<stop  offset="1" style="stop-color:#0469BC"/>
	</linearGradient>
	<path class="st51" d="M413.8,270.4c2.2,2.9,3.4,6.2,3.4,9.6c0,11.9-14.4,21.5-32.2,21.5c-5.2,0-10.1-0.8-14.4-2.3
		c5.3,7,16.2,11.9,28.8,11.9c17.8,0,32.2-9.6,32.2-21.5C431.6,281.2,424.4,273.9,413.8,270.4L413.8,270.4z"/>
	
		<linearGradient id="SVGID_52_" gradientUnits="userSpaceOnUse" x1="387.4344" y1="293.219" x2="422.7865" y2="257.8669" gradientTransform="matrix(1.0039 0 0 -1.0039 0.1647 512.7612)">
		<stop  offset="0" style="stop-color:#18CFFC"/>
		<stop  offset="1" style="stop-color:#4A98F7"/>
	</linearGradient>
	<ellipse class="st52" cx="399.4" cy="228.6" rx="32.2" ry="21.5"/>
	
		<linearGradient id="SVGID_53_" gradientUnits="userSpaceOnUse" x1="400.7023" y1="278.6747" x2="384.9883" y2="300.9533" gradientTransform="matrix(1.0039 0 0 -1.0039 0.1647 512.7612)">
		<stop  offset="0" style="stop-color:#18CFFC;stop-opacity:0"/>
		<stop  offset="1" style="stop-color:#65E1DC"/>
	</linearGradient>
	<ellipse class="st53" cx="399.4" cy="228.6" rx="26.9" ry="17.9"/>
	
		<linearGradient id="SVGID_54_" gradientUnits="userSpaceOnUse" x1="398.0539" y1="273.9573" x2="431.3477" y2="335.88" gradientTransform="matrix(1.0039 0 0 -1.0039 0.1647 512.7612)">
		<stop  offset="0" style="stop-color:#0469BC;stop-opacity:0"/>
		<stop  offset="1" style="stop-color:#0469BC"/>
	</linearGradient>
	<path class="st54" d="M413.8,209.4c2.2,2.9,3.4,6.2,3.4,9.6c0,11.9-14.4,21.5-32.2,21.5c-5.2,0-10.1-0.8-14.4-2.3
		c5.3,7,16.2,11.9,28.8,11.9c17.8,0,32.2-9.6,32.2-21.5C431.6,220.2,424.4,212.9,413.8,209.4L413.8,209.4z"/>
</g>
</svg>
