<?xml version="1.0" encoding="utf-8"?>
<!-- Generator: Adobe Illustrator 23.1.1, SVG Export Plug-In . SVG Version: 6.00 Build 0)  -->
<svg version="1.1" id="Capa_1" xmlns="http://www.w3.org/2000/svg" xmlns:xlink="http://www.w3.org/1999/xlink" x="0px" y="0px"
	 viewBox="0 0 512 512" style="enable-background:new 0 0 512 512;" xml:space="preserve">
<style type="text/css">
	.st0{fill:#288EB8;}
	.st1{fill:url(#SVGID_1_);}
	.st2{fill:url(#SVGID_2_);}
	.st3{fill:#156D85;}
	.st4{fill:#FBC91A;}
	.st5{fill:#F4A11D;}
	.st6{fill:url(#SVGID_3_);}
	.st7{fill:url(#SVGID_4_);}
	.st8{fill:#7DC4B2;}
	.st9{fill:url(#SVGID_5_);}
	.st10{fill:url(#SVGID_6_);}
	.st11{fill:#4C8C7B;}
	.st12{fill:#E04443;}
	.st13{fill:url(#SVGID_7_);}
	.st14{fill:url(#SVGID_8_);}
	.st15{fill:#D9212B;}
	.st16{fill:url(#SVGID_9_);}
	.st17{fill:url(#SVGID_10_);}
	.st18{fill:url(#SVGID_11_);}
	.st19{fill:url(#SVGID_12_);}
	.st20{fill:url(#SVGID_13_);}
	.st21{fill:url(#SVGID_14_);}
	.st22{fill:url(#SVGID_15_);}
	.st23{fill:url(#SVGID_16_);}
</style>
<g>
	<g>
		<path class="st0" d="M474.5,127.3l-7.5-1.3l0.1-0.6c0,0,0.2-8.1-10.7-10C445.6,113.5,186.3,71,186.3,71s-11-1.5-15,11.1
			c-0.3,0.6-0.6,1.3-0.7,2l-61.6,349c-0.8,4.3,4.7,28.4,9.1,29.1l289,48.5c4.4,0.7,8.5-2.1,9.3-6.4l64.8-368
			C481.8,132.1,478.9,128,474.5,127.3z"/>
		<g>
			<linearGradient id="SVGID_1_" gradientUnits="userSpaceOnUse" x1="404.5025" y1="319.1083" x2="476.1548" y2="319.1083">
				<stop  offset="0" style="stop-color:#F9F7FC"/>
				<stop  offset="1" style="stop-color:#F0DDFC"/>
			</linearGradient>
			<path class="st1" d="M475.6,134.6l-8-4.6c-0.3,0.1-0.8,0.8-0.9,1.6l-62.2,354.1c1.5,3.2,5.5,19.3,7,22.5c0.8-0.7,1.2-2.9,1.6-8.3
				l63-363.4C476.3,135.4,476.1,134.5,475.6,134.6z"/>
			<linearGradient id="SVGID_2_" gradientUnits="userSpaceOnUse" x1="116.9369" y1="472.9639" x2="411.4905" y2="472.9639">
				<stop  offset="0" style="stop-color:#F9F7FC"/>
				<stop  offset="1" style="stop-color:#F0DDFC"/>
			</linearGradient>
			<path class="st2" d="M404.1,485.5l-287.2-48.1l8.5,22.2L409,508.3c0.6,0.1,1.2,0.3,1.6,0.3l0,0l0,0c0.3,0,0.6-0.1,0.9-0.3
				c-1.5-3.2-5.6-20.8-7.1-24L404.1,485.5z"/>
		</g>
		<g>
			<polygon class="st3" points="134.8,436.1 133.9,435.9 199.2,75.2 200.2,75.4 			"/>
		</g>
	</g>
	<g>
		<path class="st4" d="M396.9,484.6l-286.8-2.1c-4.2,0-7.7-3.4-7.6-7.6l2.7-358.2c0-4.2,3.5-7.5,7.7-7.5l286.8,2.1
			c4.2,0,7.7,3.4,7.6,7.6l-2.7,358.2C404.6,481.3,401.1,484.6,396.9,484.6z"/>
		<g>
			
				<rect x="-50" y="295.3" transform="matrix(1.137541e-02 -0.9999 0.9999 1.137541e-02 -167.5616 422.0134)" class="st5" width="359.3" height="0.9"/>
		</g>
		<linearGradient id="SVGID_3_" gradientUnits="userSpaceOnUse" x1="395.0098" y1="299.5052" x2="402.6375" y2="299.5052">
			<stop  offset="0" style="stop-color:#F9F7FC"/>
			<stop  offset="1" style="stop-color:#F0DDFC"/>
		</linearGradient>
		<path class="st6" d="M401.9,118.2l-4.7-0.6c-0.3,0.2-0.6,0.9-0.6,1.7L395,473.1c1.9,2.8,3.7,5.6,5.7,8.4c0.6-0.8,0.7-2.9,0.2-8.1
			l1.8-353.5C402.6,118.8,402.3,117.9,401.9,118.2z"/>
		<linearGradient id="SVGID_4_" gradientUnits="userSpaceOnUse" x1="115.5498" y1="477.242" x2="400.6852" y2="477.242">
			<stop  offset="0" style="stop-color:#F9F7FC"/>
			<stop  offset="1" style="stop-color:#F0DDFC"/>
		</linearGradient>
		<path class="st7" d="M395,474.3l-279.5-1.8l2.1,6.8l280.7,2.6c0.6,0,1.1,0.1,1.6,0h0l0,0c0.3-0.1,0.6-0.2,0.8-0.5
			c-1.9-2.8-3.7-5.6-5.7-8.4L395,474.3z"/>
	</g>
	<g>
		<path class="st8" d="M370.3,61.3l-7.6,0.3l0-0.6c0,0-1.6-7.9-12.6-7.5c-11,0.4-273.2,13.4-273.2,13.4s-11,0.9-12.1,14
			c-0.2,0.7-0.3,1.4-0.2,2.1l16.6,353.2c0.2,4.3,10.9,26.7,15.3,26.5l292.3-13.4c4.4-0.2,7.8-3.9,7.6-8.2L378.6,68.7
			C378.4,64.4,374.7,61.1,370.3,61.3z"/>
		<g>
			<linearGradient id="SVGID_5_" gradientUnits="userSpaceOnUse" x1="363.6091" y1="255.5691" x2="392.8712" y2="255.5691">
				<stop  offset="0" style="stop-color:#F9F7FC"/>
				<stop  offset="1" style="stop-color:#F0DDFC"/>
			</linearGradient>
			<path class="st9" d="M373,68.2l-8.8-2.8c-0.3,0.2-0.6,0.9-0.5,1.8l17.1,358.2c2.2,2.8,9.6,17.7,11.7,20.4
				c0.6-0.9,0.5-3.1-0.3-8.5L373.8,69.9C373.8,68.7,373.3,67.9,373,68.2z"/>
			<linearGradient id="SVGID_6_" gradientUnits="userSpaceOnUse" x1="89.7931" y1="441.1977" x2="392.4773" y2="441.1977">
				<stop  offset="0" style="stop-color:#F9F7FC"/>
				<stop  offset="1" style="stop-color:#F0DDFC"/>
			</linearGradient>
			<path class="st10" d="M380.3,425.2L89.8,438.6l13.1,19.8L390,446.4c0.7,0,1.2,0,1.6-0.1l0,0l0,0c0.3-0.1,0.6-0.2,0.8-0.5
				c-2.2-2.8-10.1-19.1-12.2-21.9L380.3,425.2z"/>
		</g>
		<g>
			
				<rect x="98.2" y="68.1" transform="matrix(0.9991 -4.303614e-02 4.303614e-02 0.9991 -10.7086 4.4812)" class="st11" width="1" height="365.6"/>
		</g>
	</g>
	<g>
		<path class="st12" d="M433.2,30.8l-8.1-0.6l0.1-0.6c0,0-0.7-8.6-12.3-9.5c-11.7-1-290.5-20-290.5-20s-11.8-0.5-14.7,13.3
			c-0.3,0.7-0.5,1.4-0.5,2.2L78.5,390.9c-0.3,4.6,8,29.5,12.7,29.9L402,443.3c4.7,0.3,8.8-3.1,9.1-7.7l30-395.9
			C441.4,35.1,437.9,31.1,433.2,30.8z"/>
		<g>
			<linearGradient id="SVGID_7_" gradientUnits="userSpaceOnUse" x1="396.6307" y1="237.1992" x2="435.837" y2="237.1992">
				<stop  offset="0" style="stop-color:#F9F7FC"/>
				<stop  offset="1" style="stop-color:#F0DDFC"/>
			</linearGradient>
			<path class="st13" d="M435.2,38.4l-9-4.1c-0.3,0.2-0.7,0.9-0.8,1.8L396.6,417c1.9,3.2,7.8,19.9,9.7,23.1c0.8-0.9,0.9-3.2,0.8-9
				l28.6-390.8C435.9,39.1,435.6,38.2,435.2,38.4z"/>
			<linearGradient id="SVGID_8_" gradientUnits="userSpaceOnUse" x1="87.3323" y1="417.5745" x2="406.3745" y2="417.5745">
				<stop  offset="0" style="stop-color:#F9F7FC"/>
				<stop  offset="1" style="stop-color:#F0DDFC"/>
			</linearGradient>
			<path class="st14" d="M396.2,416.8L87.3,394.6l11.3,22.6l305.1,23.2c0.7,0.1,1.3,0.2,1.7,0.1l0,0l0,0c0.4,0,0.7-0.2,0.9-0.4
				c-1.9-3.2-8.1-21.5-10.1-24.7L396.2,416.8z"/>
		</g>
		<g>
			<polygon class="st15" points="106.1,391.4 105.1,391.3 136.5,3.2 137.6,3.3 			"/>
		</g>
	</g>
</g>
<g>
	
		<linearGradient id="SVGID_9_" gradientUnits="userSpaceOnUse" x1="313.0908" y1="529.1624" x2="383.379" y2="529.1624" gradientTransform="matrix(0.8818 -0.4799 -0.4799 -0.8818 273.1008 815.9187)">
		<stop  offset="0" style="stop-color:#FFE548"/>
		<stop  offset="1" style="stop-color:#FFB211"/>
	</linearGradient>
	<path class="st16" d="M305.8,144.2c-10.6,5.8-13.5,14.7-6.9,26.8l21.9,40.2c6.6,12.1,15.6,14.6,26.5,8.6
		c14.1-7.7,10.1-17.9,7.4-24.2c-1.7-3.7,0.5-6.6,4.5-8.7c5.1-2.8,8.3-2.5,11.6,3.5c8.3,15.2,1.5,32.6-17.4,42.9
		c-16.7,9.1-35.1,8.2-47.3-14.2L284.3,179c-12.2-22.4-2.8-38.4,13.9-47.5c18.9-10.3,37-6.7,44.9,7.9c3.4,6.2,1.8,8.9-3.2,11.6
		c-4.4,2.4-8,2.4-9.9-0.8C327.1,145.5,320.1,136.4,305.8,144.2z"/>
	
		<linearGradient id="SVGID_10_" gradientUnits="userSpaceOnUse" x1="247.2109" y1="576.1281" x2="198.0568" y2="625.2823" gradientTransform="matrix(0.9756 0.2197 0.2197 -0.9756 -52.9209 719.756)">
		<stop  offset="0" style="stop-color:#FFB211;stop-opacity:0"/>
		<stop  offset="0.2281" style="stop-color:#FF9F19;stop-opacity:0.2275"/>
		<stop  offset="0.6863" style="stop-color:#FF6F2E;stop-opacity:0.6863"/>
		<stop  offset="1" style="stop-color:#FF4B3E"/>
	</linearGradient>
	<path class="st17" d="M334.9,222.8c-5.5-0.7-10.2-4.5-14.1-11.6L299,171c-2.1-3.9-3.2-7.4-3.5-10.6l-11-17.5
		c-6.8,9.1-8.2,21.1-0.1,36l21.9,40.2c9.9,18.2,24,22.2,37.9,18.1L334.9,222.8z"/>
	
		<linearGradient id="SVGID_11_" gradientUnits="userSpaceOnUse" x1="251.3037" y1="562.2344" x2="229.5282" y2="584.0099" gradientTransform="matrix(0.9756 0.2197 0.2197 -0.9756 -52.9209 719.756)">
		<stop  offset="0" style="stop-color:#FFB211;stop-opacity:0"/>
		<stop  offset="0.2281" style="stop-color:#FF9F19;stop-opacity:0.2275"/>
		<stop  offset="0.6863" style="stop-color:#FF6F2E;stop-opacity:0.6863"/>
		<stop  offset="1" style="stop-color:#FF4B3E"/>
	</linearGradient>
	<path class="st18" d="M301.8,196.4l-6,3.7l10.4,19.1c6.1,11.2,13.7,17,22,18.9L301.8,196.4z"/>
	
		<linearGradient id="SVGID_12_" gradientUnits="userSpaceOnUse" x1="197.915" y1="277.4471" x2="268.2004" y2="277.4471" gradientTransform="matrix(0.9602 -0.2932 -0.2932 -0.9602 127.5297 521.4191)">
		<stop  offset="0" style="stop-color:#46CC8D"/>
		<stop  offset="0.5484" style="stop-color:#0AB69F"/>
		<stop  offset="1" style="stop-color:#01998D"/>
	</linearGradient>
	<path class="st19" d="M221,147.3c-1.1-3.5,1.8-6.3,5.5-7.4l27.4-8.4c16.1-4.9,31.8-4.5,38.3,16.7c3.8,12.5,1.4,22.4-5.3,28.2
		c10.4,0.8,18.5,5,23.1,20.4l0.9,2.9c7.1,23.3-3.4,35.6-20.3,40.7l-30.5,9.3c-4.4,1.3-7.8-0.2-8.6-3L221,147.3z M248.7,181.3
		l17.9-5.5c10.2-3.1,13.6-9.9,10.5-20.1c-3.1-10.1-10.4-12.6-19.9-9.7l-17.6,5.4L248.7,181.3z M283.2,227.2
		c10.7-3.3,15.2-10.9,11.3-23.8l-0.7-2.4c-4-13.2-11.8-16.1-22.5-12.8l-18.8,5.7l11.9,39.1L283.2,227.2z"/>
	
		<linearGradient id="SVGID_13_" gradientUnits="userSpaceOnUse" x1="233.0577" y1="248.4214" x2="233.0577" y2="214.9049" gradientTransform="matrix(0.9602 -0.2932 -0.2932 -0.9602 127.5297 521.4191)">
		<stop  offset="0" style="stop-color:#972E07;stop-opacity:0"/>
		<stop  offset="1" style="stop-color:#582707"/>
	</linearGradient>
	<path class="st20" d="M293.8,201l0.7,2.4c3.9,12.9-0.6,20.6-11.3,23.8l-18.8,5.7l-7.3-24l-15.8,4.8l10.1,33c0.8,2.7,4.3,4.3,8.6,3
		l30.5-9.3c16.8-5.1,27.4-17.4,20.3-40.7l-0.9-2.9c-0.4-1.3-0.8-2.5-1.3-3.6l-15.9,4.9C293.1,199,293.5,200,293.8,201z"/>
	
		<linearGradient id="SVGID_14_" gradientUnits="userSpaceOnUse" x1="308.4009" y1="247.6872" x2="160.297" y2="395.791" gradientTransform="matrix(1 0 0 -1 0 510.1109)">
		<stop  offset="0" style="stop-color:#46CC8D"/>
		<stop  offset="0.5484" style="stop-color:#0AB69F"/>
		<stop  offset="1" style="stop-color:#01998D"/>
	</linearGradient>
	<path class="st21" d="M253.9,249.6c0.3,0.2,0.7,0.3,1.1,0.4c0.4,0.1,0.8,0.2,1.3,0.2c0.2,0,0.5,0,0.7,0c0.5,0,1,0,1.5-0.1
		s1-0.2,1.6-0.4l30.5-9.3c3.9-1.2,7.5-2.8,10.7-4.8c0.4-0.3,0.8-0.6,1.2-0.8c2.4-1.7,4.4-3.7,6.1-6.1c0.3-0.4,0.5-0.8,0.8-1.2
		c0.3-0.4,0.5-0.8,0.7-1.2c0.3-0.6,0.7-1.3,0.9-2c0-0.1,0.1-0.2,0.1-0.2l-15.4-15.6c0.1,0.5,0.1,1,0.2,1.4c0,0.1,0,0.2,0,0.3
		c0.4,6.1-1.6,10.6-5.8,13.7c-1.9,1.4-4.2,2.5-6.8,3.3l-18.8,5.7l-7.3-24l-4.6-15.1l18.8-5.7c1.2-0.4,2.3-0.6,3.5-0.9l-10.6-10.8
		l-15.5,4.7l-9-29.6l-12-12.2l-1.1,0.3c-3.6,1.1-6.5,4-5.5,7.4l30.4,99.5C251.8,248,252.6,249,253.9,249.6z"/>
	
		<linearGradient id="SVGID_15_" gradientUnits="userSpaceOnUse" x1="105.1322" y1="108.2036" x2="188.3909" y2="108.2036" gradientTransform="matrix(0.9983 5.845632e-02 -5.845632e-02 0.9983 49.7261 79.574)">
		<stop  offset="0" style="stop-color:#A3FFFF"/>
		<stop  offset="1" style="stop-color:#1CCBF7"/>
	</linearGradient>
	<path class="st22" d="M145.9,235.8c0.1-0.5,0.2-0.9,0.4-1.4l51.3-93.4c2-3.4,6.8-4.4,11.5-3.4c4.6,1,8.9,3.8,9.3,7.7l9.8,106
		c0.1,0.5,0.1,1,0,1.4c-0.8,3.8-7.1,5.6-11.7,4.6c-2.6-0.5-4.6-1.9-4.8-4.5l-1.8-23.2l-38-7.9l-10.8,20.5c-1.3,2.3-3.6,2.8-6.4,2.2
		C150.2,243.7,145.1,239.8,145.9,235.8z M208.9,215.9l-4.5-56l-26.3,49.6L208.9,215.9z"/>
	
		<linearGradient id="SVGID_16_" gradientUnits="userSpaceOnUse" x1="125.908" y1="405.0363" x2="125.908" y2="373.4832" gradientTransform="matrix(0.9831 0.2035 0.2035 -0.9831 -15.0892 597.5225)">
		<stop  offset="0" style="stop-color:#1CCBF7;stop-opacity:0"/>
		<stop  offset="1" style="stop-color:#00A5E8"/>
	</linearGradient>
	<path class="st23" d="M208.9,215.9l-30.8-6.4l0.3-0.6l-16.3-3.4l-15.9,28.9c-0.3,0.4-0.3,0.9-0.4,1.4c-0.8,4,4.3,8,8.8,8.9
		c2.8,0.6,5.1,0.1,6.4-2.2l10.8-20.5l38,7.9l1.8,23.2c0.3,2.6,2.2,4,4.8,4.5c4.6,1,10.9-0.8,11.7-4.6c0.1-0.5,0-1,0-1.4l-3-32.8
		l-16.3-3.4L208.9,215.9z"/>
</g>
</svg>
