<?xml version="1.0" encoding="utf-8"?>
<!-- Generator: Adobe Illustrator 23.1.1, SVG Export Plug-In . SVG Version: 6.00 Build 0)  -->
<svg version="1.1" id="Capa_1" xmlns="http://www.w3.org/2000/svg" xmlns:xlink="http://www.w3.org/1999/xlink" x="0px" y="0px"
	 viewBox="0 0 512 512" style="enable-background:new 0 0 512 512;" xml:space="preserve">
<style type="text/css">
	.st0{fill:url(#SVGID_1_);}
	.st1{fill:#00658F;}
	.st2{fill:url(#SVGID_2_);}
	.st3{fill:url(#SVGID_3_);}
	.st4{fill:url(#SVGID_4_);}
	.st5{fill:url(#SVGID_5_);}
	.st6{fill:url(#SVGID_6_);}
</style>
<g>
	<g>
		<linearGradient id="SVGID_1_" gradientUnits="userSpaceOnUse" x1="-460.2104" y1="255.8799" x2="1523.7996" y2="255.8799">
			<stop  offset="0" style="stop-color:#18CFFC"/>
			<stop  offset="2.515472e-02" style="stop-color:#29D3FC"/>
			<stop  offset="0.1965" style="stop-color:#9BEAFE"/>
			<stop  offset="0.3146" style="stop-color:#E3F9FF"/>
			<stop  offset="0.3691" style="stop-color:#FFFFFF"/>
			<stop  offset="0.4216" style="stop-color:#F0FCFF"/>
			<stop  offset="0.6098" style="stop-color:#C0F2FE"/>
			<stop  offset="0.7758" style="stop-color:#9DEBFD"/>
			<stop  offset="0.9115" style="stop-color:#88E7FD"/>
			<stop  offset="1" style="stop-color:#80E5FD"/>
		</linearGradient>
		<rect x="58.7" y="0.7" class="st0" width="405.1" height="510.4"/>
		<g>
			<rect x="190.6" y="66.1" class="st1" width="214.2" height="10.4"/>
			<rect x="117.8" y="118.9" class="st1" width="287" height="10.4"/>
			<rect x="117.8" y="171.6" class="st1" width="287" height="10.4"/>
			<rect x="117.8" y="224.3" class="st1" width="287" height="10.4"/>
			<rect x="190.6" y="277" class="st1" width="214.2" height="10.4"/>
			<rect x="117.8" y="329.8" class="st1" width="287" height="10.4"/>
			<rect x="117.8" y="382.5" class="st1" width="287" height="10.4"/>
			<rect x="117.8" y="435.2" class="st1" width="183" height="10.4"/>
		</g>
		<g>
			<linearGradient id="SVGID_2_" gradientUnits="userSpaceOnUse" x1="-496.3833" y1="283.0198" x2="1269.8163" y2="283.0198">
				<stop  offset="0" style="stop-color:#18CFFC"/>
				<stop  offset="2.515472e-02" style="stop-color:#29D3FC"/>
				<stop  offset="0.1965" style="stop-color:#9BEAFE"/>
				<stop  offset="0.3146" style="stop-color:#E3F9FF"/>
				<stop  offset="0.3691" style="stop-color:#FFFFFF"/>
				<stop  offset="0.4216" style="stop-color:#F0FCFF"/>
				<stop  offset="0.6098" style="stop-color:#C0F2FE"/>
				<stop  offset="0.7758" style="stop-color:#9DEBFD"/>
				<stop  offset="0.9115" style="stop-color:#88E7FD"/>
				<stop  offset="1" style="stop-color:#80E5FD"/>
			</linearGradient>
			<path class="st2" d="M294.8,346c-34.8,34.8-91.2,34.8-125.9,0c-34.8-34.7-34.8-91.1,0-125.9c34.8-34.8,91.2-34.8,125.9,0
				C329.5,254.8,329.5,311.2,294.8,346z"/>
			<linearGradient id="SVGID_3_" gradientUnits="userSpaceOnUse" x1="118.9667" y1="291.0758" x2="328.5325" y2="291.0758">
				<stop  offset="0" style="stop-color:#FF4C54"/>
				<stop  offset="0.3958" style="stop-color:#FD4C53"/>
				<stop  offset="0.5964" style="stop-color:#F54A52"/>
				<stop  offset="0.7531" style="stop-color:#E8474F"/>
				<stop  offset="0.8862" style="stop-color:#D5444A"/>
				<stop  offset="1" style="stop-color:#BE3F45"/>
			</linearGradient>
			<path class="st3" d="M300.2,351.4c37.7-37.7,37.7-99.1,0-136.8c-37.8-37.7-99.1-37.7-136.9,0c-34,34-37.2,87.2-10,125L119,374
				l21.8,21.8l34.5-34.4C213.1,388.7,266.2,385.5,300.2,351.4z M174.3,340.5c-31.7-31.7-31.7-83.3,0-115c31.7-31.7,83.3-31.7,115,0
				c31.7,31.7,31.7,83.3,0,115C257.6,372.2,206,372.2,174.3,340.5z"/>
			<g>
				<linearGradient id="SVGID_4_" gradientUnits="userSpaceOnUse" x1="4.9416" y1="439.013" x2="146.6582" y2="439.013">
					<stop  offset="0" style="stop-color:#9E9797"/>
					<stop  offset="1" style="stop-color:#5B5555"/>
				</linearGradient>
				<path class="st4" d="M55.8,505.4c-6,6-15.8,6-21.8,0L9.5,480.9c-6-6-6-15.8,0-21.9l86.4-86.3c6-6,15.8-6,21.9,0l24.5,24.5
					c6,6,6,15.8,0,21.8L55.8,505.4z"/>
			</g>
			<g>
				<linearGradient id="SVGID_5_" gradientUnits="userSpaceOnUse" x1="9.4619" y1="439.0133" x2="142.1379" y2="439.0133">
					<stop  offset="0" style="stop-color:#FF9102"/>
					<stop  offset="1" style="stop-color:#FFC200"/>
				</linearGradient>
				<polygon class="st5" points="9.5,459 55.8,505.4 142.1,419 95.8,372.7 				"/>
			</g>
		</g>
	</g>
	<g>
		<linearGradient id="SVGID_6_" gradientUnits="userSpaceOnUse" x1="189.8793" y1="281.8304" x2="273.7487" y2="281.8304">
			<stop  offset="0" style="stop-color:#18CFFC"/>
			<stop  offset="1" style="stop-color:#4A98F7"/>
		</linearGradient>
		<path class="st6" d="M220.8,232.8c1.9-0.3,3.7-0.5,5.4-0.6c1.7-0.1,3.6-0.2,5.7-0.2c1.8,0,3.6,0.1,5.3,0.2
			c1.7,0.1,3.6,0.4,5.7,0.6l30.7,98c-3.7,0.6-7.4,0.8-10.9,0.8c-3.5,0-6.8-0.3-10.1-0.8l-5.4-19.6h-32.5l-5.6,19.6
			c-3.3,0.6-6.4,0.8-9.4,0.8c-3.4,0-6.7-0.3-10-0.8L220.8,232.8z M242.6,294.7l-11.3-41.2l-11.9,41.2H242.6z"/>
	</g>
</g>
</svg>
