<?xml version="1.0" encoding="utf-8"?>
<!-- Generator: Adobe Illustrator 23.1.1, SVG Export Plug-In . SVG Version: 6.00 Build 0)  -->
<svg version="1.1" id="Capa_1" xmlns="http://www.w3.org/2000/svg" xmlns:xlink="http://www.w3.org/1999/xlink" x="0px" y="0px"
	 viewBox="0 0 512 512" style="enable-background:new 0 0 512 512;" xml:space="preserve">
<style type="text/css">
	.st0{fill:url(#SVGID_1_);}
	.st1{fill:url(#SVGID_2_);}
	.st2{fill:url(#SVGID_3_);}
	.st3{fill:url(#SVGID_4_);}
	.st4{fill:url(#SVGID_5_);}
	.st5{fill:#FFF2E8;}
	.st6{fill:url(#SVGID_6_);}
	.st7{fill:url(#SVGID_7_);}
	.st8{fill:url(#SVGID_8_);}
	.st9{fill:url(#SVGID_9_);}
	.st10{fill:url(#SVGID_10_);}
	.st11{fill:url(#SVGID_11_);}
</style>
<linearGradient id="SVGID_1_" gradientUnits="userSpaceOnUse" x1="223.2109" y1="580.8331" x2="299.4893" y2="580.8331" gradientTransform="matrix(1.0039 0 0 1.0039 0.356 -327.9655)">
	<stop  offset="0" style="stop-color:#FFCF42"/>
	<stop  offset="1" style="stop-color:#FFB500"/>
</linearGradient>
<path class="st0" d="M279.5,509.9H246c-11.9,0-21.6-9.7-21.6-21.6V22c0-11.9,9.7-21.6,21.6-21.6h33.5c11.9,0,21.6,9.7,21.6,21.6
	v466.4C301,500.2,291.4,509.9,279.5,509.9z"/>
<linearGradient id="SVGID_2_" gradientUnits="userSpaceOnUse" x1="292.8111" y1="549.6808" x2="217.8531" y2="474.723" gradientTransform="matrix(1.0039 0 0 1.0039 0.356 -327.9655)">
	<stop  offset="0" style="stop-color:#FFB500;stop-opacity:0"/>
	<stop  offset="1" style="stop-color:#FF7000"/>
</linearGradient>
<polygon class="st1" points="224.4,192.3 260.5,228.3 301,228.3 301,192.3 "/>
<linearGradient id="SVGID_3_" gradientUnits="userSpaceOnUse" x1="310.9814" y1="729.7266" x2="209.0673" y2="627.8026" gradientTransform="matrix(1.0039 0 0 1.0039 0.356 -327.9655)">
	<stop  offset="0" style="stop-color:#FFB500;stop-opacity:0"/>
	<stop  offset="1" style="stop-color:#FF7000"/>
</linearGradient>
<polygon class="st2" points="224.4,354.8 301,431.4 301,354.8 "/>
<linearGradient id="SVGID_4_" gradientUnits="userSpaceOnUse" x1="202.656" y1="452.3481" x2="566.6392" y2="452.3481" gradientTransform="matrix(1.0039 0 0 1.0039 0.356 -327.9655)">
	<stop  offset="0" style="stop-color:#FF4C4A"/>
	<stop  offset="1" style="stop-color:#FF001C"/>
</linearGradient>
<path class="st3" d="M121.3,192.3h241.3c6.4,0,12.5-2.6,17-7.1l41.7-42.2c9.2-9.3,9.2-24.3,0-33.6l-41.7-42.2
	c-4.5-4.6-10.6-7.1-17-7.1H121.3c-13.2,0-23.9,10.7-23.9,23.9v84.5C97.4,181.6,108.1,192.3,121.3,192.3z"/>
<linearGradient id="SVGID_5_" gradientUnits="userSpaceOnUse" x1="258.0147" y1="475.3723" x2="258.0147" y2="546.7082" gradientTransform="matrix(1.0039 0 0 1.0039 0.356 -327.9655)">
	<stop  offset="0" style="stop-color:#FF001C;stop-opacity:0"/>
	<stop  offset="1" style="stop-color:#C1001C"/>
</linearGradient>
<path class="st4" d="M421.4,142.7c-0.1,0.1-0.1,0.1-0.2,0.2l-41.7,42.2c-4.5,4.6-10.6,7.1-17,7.1H121.3c-13.2,0-23.9-10.7-23.9-23.9
	v-25.7H421.4L421.4,142.7z"/>
<g>
	<path class="st5" d="M165.9,157.6v-63c0-1,0.4-1.8,1.3-2.4c0.9-0.6,1.9-0.9,3.1-0.9h34c1.1,0,1.9,0.4,2.5,1.3
		c0.6,0.9,0.9,1.9,0.9,3.1c0,1.3-0.3,2.4-0.9,3.2c-0.6,0.9-1.4,1.3-2.4,1.3H176V122h14.7c1,0,1.8,0.4,2.4,1.2
		c0.6,0.8,0.9,1.8,0.9,2.9c0,1-0.3,1.9-0.9,2.7c-0.6,0.8-1.4,1.2-2.5,1.2H176v21.9h28.3c1,0,1.8,0.4,2.4,1.3c0.6,0.9,0.9,2,0.9,3.2
		c0,1.1-0.3,2.2-0.9,3.1c-0.6,0.9-1.4,1.3-2.5,1.3h-34c-1.2,0-2.3-0.3-3.1-0.9C166.4,159.4,165.9,158.6,165.9,157.6z"/>
	<path class="st5" d="M210.9,156.7c0-0.4,0-0.7,0.1-0.9L229.9,94c0.8-2.3,3.1-3.4,6.8-3.4c3.8,0,6.1,1.1,6.9,3.2l18.9,61.8
		c0.1,0.4,0.2,0.7,0.2,0.9c0,1.2-0.7,2.2-2.2,3.1c-1.5,0.9-3.1,1.3-4.7,1.3c-2,0-3.3-0.7-3.7-2.1l-3.9-13.7h-23.4l-3.9,13.6
		c-0.4,1.4-1.6,2.1-3.5,2.1c-1.5,0-3-0.4-4.3-1.2C211.5,158.9,210.9,157.9,210.9,156.7z M226.9,137.2h18.9l-9.6-32.7L226.9,137.2z"
		/>
	<path class="st5" d="M265.9,150.4c0-1.2,0.4-2.4,1.3-3.6c0.9-1.2,1.9-1.8,3.1-1.8c0.7,0,1.5,0.4,2.5,1.2c1,0.8,2,1.7,2.9,2.6
		s2.4,1.8,4.3,2.6c1.9,0.8,4.1,1.2,6.5,1.2c3.6,0,6.5-0.9,8.7-2.6c2.2-1.7,3.3-4.3,3.3-7.6c0-3.1-1.1-5.6-3.2-7.7
		c-2.1-2-4.7-3.7-7.7-4.9c-3-1.2-6.1-2.5-9.1-3.9c-3.1-1.4-5.6-3.5-7.8-6.3c-2.1-2.8-3.2-6.3-3.2-10.5c0-3.4,0.7-6.3,2-8.8
		c1.3-2.5,3.1-4.4,5.3-5.7c2.2-1.3,4.6-2.3,7-2.9c2.4-0.6,5-0.9,7.8-0.9c1.7,0,3.5,0.1,5.4,0.3c1.9,0.2,3.7,0.6,5.6,1.1
		s3.4,1.2,4.6,2.2c1.2,0.9,1.8,2,1.8,3.2c0,1.2-0.4,2.4-1.1,3.6c-0.8,1.2-1.8,1.8-3.1,1.8c-0.6,0-1.5-0.3-2.6-0.9
		c-1.1-0.6-2.5-1.2-4.3-1.8c-1.8-0.6-3.9-0.9-6.2-0.9c-3.6,0-6.5,0.7-8.7,2.2c-2.2,1.4-3.2,3.6-3.2,6.6c0,1.9,0.6,3.6,1.7,4.9
		c1.1,1.4,2.6,2.5,4.4,3.4c1.8,0.9,3.8,1.8,6.1,2.6c2.2,0.9,4.4,1.9,6.6,3c2.2,1.2,4.2,2.5,6,4c1.8,1.5,3.3,3.6,4.4,6.2
		c1.1,2.6,1.7,5.7,1.7,9.1c0,6.6-2,11.6-6,15c-4,3.4-9.2,5.2-15.8,5.2c-5.9,0-10.8-1.2-14.9-3.7C267.9,155.6,265.9,153,265.9,150.4z
		"/>
	<path class="st5" d="M313.3,95.8c0-1.2,0.3-2.3,0.9-3.2c0.6-0.9,1.4-1.4,2.5-1.4h39.6c1.1,0,1.9,0.5,2.5,1.3c0.6,0.9,0.9,2,0.9,3.2
		c0,1.3-0.3,2.5-0.9,3.4c-0.6,0.9-1.4,1.4-2.4,1.4h-14.7v57c0,1-0.5,1.8-1.5,2.4c-1,0.6-2.2,0.9-3.5,0.9c-1.4,0-2.6-0.3-3.6-0.9
		c-1-0.6-1.5-1.4-1.5-2.4v-57h-14.8c-1,0-1.8-0.5-2.4-1.4C313.6,98.2,313.3,97.1,313.3,95.8z"/>
</g>
<linearGradient id="SVGID_6_" gradientUnits="userSpaceOnUse" x1="289.7736" y1="614.2195" x2="505.0648" y2="614.2195" gradientTransform="matrix(1.0039 0 0 1.0039 0.356 -327.9655)">
	<stop  offset="0" style="stop-color:#B3E800"/>
	<stop  offset="1" style="stop-color:#98BC00"/>
</linearGradient>
<path class="st6" d="M404.2,354.8H162.9c-6.4,0-12.5-2.6-17-7.1l-41.7-42.2c-9.2-9.3-9.2-24.3,0-33.6l41.7-42.2
	c4.5-4.6,10.6-7.1,17-7.1h241.3c13.2,0,23.9,10.7,23.9,23.9v84.5C428.1,344.1,417.4,354.8,404.2,354.8z"/>
<linearGradient id="SVGID_7_" gradientUnits="userSpaceOnUse" x1="264.6859" y1="637.2388" x2="264.6859" y2="708.5747" gradientTransform="matrix(1.0039 0 0 1.0039 0.356 -327.9655)">
	<stop  offset="0" style="stop-color:#98BC00;stop-opacity:0"/>
	<stop  offset="1" style="stop-color:#5E6D03"/>
</linearGradient>
<path class="st7" d="M104.1,305.2c0.1,0.1,0.1,0.1,0.2,0.2l41.7,42.2c4.5,4.6,10.6,7.1,17,7.1h241.3c13.2,0,23.9-10.7,23.9-23.9
	v-25.7H104.1L104.1,305.2z"/>
<linearGradient id="SVGID_8_" gradientUnits="userSpaceOnUse" x1="148.907" y1="614.2672" x2="226.4719" y2="614.2672" gradientTransform="matrix(1.0039 0 0 1.0039 0.356 -327.9655)">
	<stop  offset="0" style="stop-color:#FF4C4A"/>
	<stop  offset="1" style="stop-color:#FF001C"/>
</linearGradient>
<path class="st8" d="M149.8,257.7c0-1.1,0.7-2.1,2-2.9c1.3-0.8,2.8-1.2,4.3-1.2c2,0,3.1,0.7,3.5,2.1l15.6,54.4l8.6-34.1
	c0.4-2,2.1-3,4.9-3c2.7,0,4.3,1,4.8,3l8.7,34.1l15.6-54.5c0.4-1.4,1.5-2,3.5-2c1.5,0,2.9,0.4,4.3,1.2s2,1.7,2,2.9
	c0,0.4,0,0.8-0.1,0.9l-18.9,61.8c-0.4,1.1-1.2,2-2.4,2.6c-1.2,0.6-2.6,0.9-4,0.9c-1.4,0-2.8-0.3-4-0.9c-1.2-0.6-2-1.4-2.2-2.5
	l-7.3-28.9l-7.2,28.8c-0.2,1.1-1,1.9-2.2,2.6c-1.2,0.6-2.6,0.9-4.1,0.9c-1.5,0-2.9-0.3-4.1-0.9c-1.2-0.6-2-1.4-2.3-2.5l-19-61.8
	C149.9,258.4,149.8,258.1,149.8,257.7z"/>
<linearGradient id="SVGID_9_" gradientUnits="userSpaceOnUse" x1="234.3192" y1="613.9802" x2="275.9325" y2="613.9802" gradientTransform="matrix(1.0039 0 0 1.0039 0.356 -327.9655)">
	<stop  offset="0" style="stop-color:#FF4C4A"/>
	<stop  offset="1" style="stop-color:#FF001C"/>
</linearGradient>
<path class="st9" d="M235.6,319.9v-63c0-1,0.4-1.8,1.3-2.4c0.9-0.6,1.9-0.9,3.1-0.9h34c1.1,0,1.9,0.4,2.5,1.3
	c0.6,0.9,0.9,1.9,0.9,3.1c0,1.3-0.3,2.4-0.9,3.2c-0.6,0.9-1.4,1.3-2.4,1.3h-28.3v21.8h14.7c1,0,1.8,0.4,2.4,1.2
	c0.6,0.8,0.9,1.8,0.9,2.9c0,1-0.3,1.9-0.9,2.7c-0.6,0.8-1.4,1.2-2.5,1.2h-14.7v21.9H274c1,0,1.8,0.4,2.4,1.3c0.6,0.9,0.9,2,0.9,3.2
	c0,1.1-0.3,2.2-0.9,3.1c-0.6,0.9-1.4,1.3-2.5,1.3h-34c-1.2,0-2.3-0.3-3.1-0.9C236,321.8,235.6,321,235.6,319.9z"/>
<linearGradient id="SVGID_10_" gradientUnits="userSpaceOnUse" x1="280.494" y1="614.2195" x2="323.155" y2="614.2195" gradientTransform="matrix(1.0039 0 0 1.0039 0.356 -327.9655)">
	<stop  offset="0" style="stop-color:#FF4C4A"/>
	<stop  offset="1" style="stop-color:#FF001C"/>
</linearGradient>
<path class="st10" d="M281.9,312.8c0-1.2,0.4-2.4,1.3-3.6c0.9-1.2,1.9-1.8,3.1-1.8c0.7,0,1.5,0.4,2.5,1.2c1,0.8,2,1.7,2.9,2.6
	c1,0.9,2.4,1.8,4.3,2.6c1.9,0.8,4.1,1.2,6.5,1.2c3.6,0,6.5-0.9,8.7-2.6s3.3-4.3,3.3-7.6c0-3.1-1.1-5.6-3.2-7.7
	c-2.1-2-4.7-3.7-7.7-4.9c-3-1.2-6.1-2.5-9.1-3.9c-3.1-1.4-5.6-3.5-7.8-6.3c-2.1-2.8-3.2-6.3-3.2-10.5c0-3.4,0.7-6.3,2-8.8
	c1.3-2.5,3.1-4.4,5.3-5.7c2.2-1.3,4.6-2.3,7-2.9c2.4-0.6,5-0.9,7.8-0.9c1.7,0,3.5,0.1,5.4,0.3c1.9,0.2,3.7,0.6,5.6,1.1
	c1.8,0.5,3.4,1.2,4.6,2.2c1.2,0.9,1.8,2,1.8,3.2c0,1.2-0.4,2.4-1.1,3.6s-1.8,1.8-3.1,1.8c-0.6,0-1.5-0.3-2.6-0.9
	c-1.1-0.6-2.5-1.2-4.3-1.8s-3.9-0.9-6.2-0.9c-3.6,0-6.5,0.7-8.7,2.2c-2.2,1.4-3.2,3.6-3.2,6.6c0,1.9,0.6,3.6,1.7,4.9
	c1.1,1.4,2.6,2.5,4.4,3.4c1.8,0.9,3.8,1.8,6.1,2.6c2.2,0.9,4.4,1.9,6.6,3c2.2,1.2,4.2,2.5,6,4c1.8,1.5,3.3,3.6,4.4,6.2
	c1.1,2.6,1.7,5.7,1.7,9.1c0,6.6-2,11.6-6,15c-4,3.4-9.2,5.2-15.8,5.2c-5.9,0-10.8-1.2-14.9-3.7C284,317.9,281.9,315.4,281.9,312.8z"
	/>
<linearGradient id="SVGID_11_" gradientUnits="userSpaceOnUse" x1="327.7145" y1="613.9832" x2="373.7922" y2="613.9832" gradientTransform="matrix(1.0039 0 0 1.0039 0.356 -327.9655)">
	<stop  offset="0" style="stop-color:#FF4C4A"/>
	<stop  offset="1" style="stop-color:#FF001C"/>
</linearGradient>
<path class="st11" d="M329.3,258.2c0-1.2,0.3-2.3,0.9-3.2c0.6-0.9,1.4-1.4,2.5-1.4h39.6c1.1,0,1.9,0.5,2.5,1.3
	c0.6,0.9,0.9,2,0.9,3.2c0,1.3-0.3,2.5-0.9,3.4c-0.6,0.9-1.4,1.4-2.4,1.4h-14.7v57c0,1-0.5,1.8-1.5,2.4c-1,0.6-2.2,0.9-3.5,0.9
	c-1.4,0-2.6-0.3-3.6-0.9c-1-0.6-1.5-1.4-1.5-2.4v-57h-14.8c-1,0-1.8-0.5-2.4-1.4C329.6,260.6,329.3,259.5,329.3,258.2z"/>
</svg>
