<?xml version="1.0" encoding="utf-8"?>
<!-- Generator: Adobe Illustrator 24.2.3, SVG Export Plug-In . SVG Version: 6.00 Build 0)  -->
<svg version="1.1" id="Capa_1" xmlns="http://www.w3.org/2000/svg" xmlns:xlink="http://www.w3.org/1999/xlink" x="0px" y="0px"
	 viewBox="0 0 512 512" style="enable-background:new 0 0 512 512;" xml:space="preserve">
<style type="text/css">
	.st0{fill:url(#SVGID_1_);}
	.st1{fill:url(#SVGID_2_);}
	.st2{fill:url(#SVGID_3_);}
	.st3{fill:url(#SVGID_4_);}
	.st4{fill:url(#SVGID_5_);}
	.st5{fill:url(#SVGID_6_);}
	.st6{fill:url(#SVGID_7_);}
	.st7{fill:#FFFFFF;}
	.st8{fill:url(#SVGID_8_);}
	.st9{fill:url(#SVGID_9_);}
	.st10{fill:url(#SVGID_10_);}
	.st11{fill:url(#SVGID_11_);}
	.st12{fill:url(#SVGID_12_);}
</style>
<g id="katman_2_1_">
</g>
<g>
	<g>
		
			<linearGradient id="SVGID_1_" gradientUnits="userSpaceOnUse" x1="93.3763" y1="374.2725" x2="226.8903" y2="507.7865" gradientTransform="matrix(1.0039 0 0 1.0039 -0.7344 -281.4643)">
			<stop  offset="0" style="stop-color:#7ACBFF"/>
			<stop  offset="1" style="stop-color:#45A2E0"/>
		</linearGradient>
		<path class="st0" d="M236.2,146c-16.4,17.5-16.4,45.1,0,62.6c10.7,11.4,25.8,16.1,40.1,14c6.2-0.9,11.7,4,11.7,10.3v33.5
			c0,12.7-10.3,22.9-22.9,22.9h-33.5c-6.3,0-11.2-5.5-10.3-11.7c2.1-14.3-2.6-29.4-14-40.1c-17.5-16.4-45.1-16.4-62.6,0
			c-11.4,10.7-16.1,25.8-14,40.1c0.9,6.2-4,11.7-10.3,11.7H87c-12.7,0-22.9-10.3-22.9-22.9v-33.5c0-6.3-5.5-11.2-11.7-10.3
			c-14.3,2.1-29.4-2.6-40.1-14c-16.4-17.5-16.4-45.1,0-62.6c10.7-11.4,25.8-16.1,40.1-14c6.2,0.9,11.7-4,11.7-10.3V88.3
			c0-12.7,10.3-22.9,22.9-22.9h33.5c6.3,0,11.2-5.5,10.3-11.7c-2.1-14.3,2.6-29.4,14-40.1c17.5-16.4,45.1-16.4,62.6,0
			c11.4,10.7,16.1,25.8,14,40.1c-0.9,6.2,4,11.7,10.3,11.7h33.5c12.7,0,22.9,10.3,22.9,22.9v33.5c0,6.3-5.5,11.2-11.7,10.3
			C262,129.9,246.9,134.6,236.2,146L236.2,146z"/>
		
			<linearGradient id="SVGID_2_" gradientUnits="userSpaceOnUse" x1="145.0188" y1="492.5899" x2="145.0188" y2="570.8139" gradientTransform="matrix(1.0039 0 0 1.0039 -0.7344 -281.4643)">
			<stop  offset="0" style="stop-color:#2F73A0;stop-opacity:0"/>
			<stop  offset="1" style="stop-color:#2F73A0"/>
		</linearGradient>
		<path class="st1" d="M12.2,208.6c10.7,11.4,25.8,16.1,40.1,14c6.2-0.9,11.7,4,11.7,10.3v33.5c0,12.7,10.3,22.9,22.9,22.9h33.5
			c6.3,0,11.2-5.5,10.3-11.7c-2.1-14.3,2.6-29.4,14-40.1c17.5-16.4,45.1-16.4,62.6,0c11.4,10.7,16.1,25.8,14,40.1
			c-0.9,6.2,4,11.7,10.3,11.7h33.5c12.7,0,22.9-10.3,22.9-22.9v-33.5c0-6.3-5.5-11.2-11.7-10.3c-14.3,2.1-29.4-2.6-40.1-14
			c-5.1-5.4-8.6-11.8-10.5-18.5H1.7C3.6,196.8,7.1,203.2,12.2,208.6L12.2,208.6z"/>
		
			<linearGradient id="SVGID_3_" gradientUnits="userSpaceOnUse" x1="93.408" y1="597.2838" x2="226.922" y2="730.7989" gradientTransform="matrix(1.0039 0 0 1.0039 -0.7344 -281.4643)">
			<stop  offset="0" style="stop-color:#FFCE47"/>
			<stop  offset="1" style="stop-color:#FF9356"/>
		</linearGradient>
		<path class="st2" d="M236.2,369.9c-16.4,17.5-16.4,45.1,0,62.6c10.7,11.4,25.8,16.1,40.1,14c6.2-0.9,11.7,4,11.7,10.3v33.4
			c0,12.7-10.3,22.9-22.9,22.9h-33.5c-6.3,0-11.2-5.5-10.3-11.7c2.1-14.3-2.6-29.4-14-40.1c-17.5-16.4-45.1-16.4-62.6,0
			c-11.4,10.7-16.1,25.8-14,40.1c0.9,6.2-4,11.7-10.3,11.7H87c-12.7,0-22.9-10.3-22.9-22.9v-33.5c0-6.3-5.5-11.2-11.7-10.3
			c-14.3,2.1-29.4-2.6-40.1-14c-16.4-17.5-16.4-45.1,0-62.6c10.7-11.4,25.8-16.1,40.1-14c6.2,0.9,11.7-4,11.7-10.3v-33.3
			c0-12.7,10.3-22.9,22.9-22.9h33.5c6.3,0,11.2-5.5,10.3-11.7c-2.1-14.3,2.6-29.4,14-40.1c17.5-16.4,45.1-16.4,62.6,0
			c11.4,10.7,16.1,25.8,14,40.1c-0.9,6.2,4,11.7,10.3,11.7h33.5c12.7,0,22.9,10.3,22.9,22.9v33.5c0,6.3-5.5,11.2-11.7,10.3
			C262,353.8,246.9,358.5,236.2,369.9L236.2,369.9z"/>
		
			<linearGradient id="SVGID_4_" gradientUnits="userSpaceOnUse" x1="274.3302" y1="555.1766" x2="423.7722" y2="704.6186" gradientTransform="matrix(1.0039 0 0 1.0039 -0.7344 -281.4643)">
			<stop  offset="0" style="stop-color:#FF755C"/>
			<stop  offset="1" style="stop-color:#FF4181"/>
		</linearGradient>
		<path class="st3" d="M460.1,369.9c-16.4,17.5-16.4,45.1,0,62.6c10.7,11.4,25.8,16.1,40.1,14c6.2-0.9,11.7,4,11.7,10.3v33.4
			c0,12.7-10.3,22.9-22.9,22.9h-33.5c-6.3,0-11.2-5.5-10.3-11.7c2.1-14.3-2.6-29.4-14-40.1c-17.5-16.4-45.1-16.4-62.6,0
			c-11.4,10.7-16.1,25.8-14,40.1c0.9,6.2-4,11.7-10.3,11.7h-33.4c-12.7,0-22.9-10.3-22.9-22.9v-33.5c0-6.3-5.5-11.2-11.7-10.3
			c-14.3,2.1-29.4-2.6-40.1-14c-16.4-17.5-16.4-45.1,0-62.6c10.7-11.4,25.8-16.1,40.1-14c6.2,0.9,11.7-4,11.7-10.3v-33.3
			c0-12.7,10.3-22.9,22.9-22.9h33.5c6.3,0,11.2-5.5,10.3-11.7c-2.1-14.3,2.6-29.4,14-40.1c17.5-16.4,45.1-16.4,62.6,0
			c11.4,10.7,16.1,25.8,14,40.1c-0.9,6.2,4,11.7,10.3,11.7h33.5c12.7,0,22.9,10.3,22.9,22.9v33.5c0,6.3-5.5,11.2-11.7,10.3
			C485.9,353.8,470.8,358.5,460.1,369.9z"/>
	</g>
	
		<linearGradient id="SVGID_5_" gradientUnits="userSpaceOnUse" x1="358.5729" y1="709.64" x2="278.3439" y2="629.4109" gradientTransform="matrix(1.0039 0 0 1.0039 -0.7344 -281.4643)">
		<stop  offset="0" style="stop-color:#FF9356;stop-opacity:0"/>
		<stop  offset="1" style="stop-color:#FF755C"/>
	</linearGradient>
	<path class="st4" d="M276.2,355.9c6.2,0.9,11.7-4,11.7-10.3v-33.4c0-12.7-10.3-22.9-22.9-22.9h-33.5c-6.3,0-11.2-5.5-10.3-11.7
		c2.1-14.3-2.6-29.4-14-40.1c-8.7-8.2-19.9-12.3-31.1-12.3c-3.6,9.8-5.6,20.6-5.6,32.2c0,26.8,7.2,50.8,25.8,67.3l42.6,42.6
		C249.4,357.8,263.2,354,276.2,355.9L276.2,355.9z"/>
	
		<linearGradient id="SVGID_6_" gradientUnits="userSpaceOnUse" x1="376.1832" y1="657.0295" x2="248.7122" y2="529.5587" gradientTransform="matrix(1.0039 0 0 1.0039 -0.7344 -281.4643)">
		<stop  offset="0" style="stop-color:#843561;stop-opacity:0"/>
		<stop  offset="1" style="stop-color:#3A2F4D"/>
	</linearGradient>
	<path class="st5" d="M455.5,513.2H489c12.7,0,22.9-10.3,22.9-22.9v-33.5c0-6.3-5.5-11.2-11.7-10.3c-14.3,2.1-29.4-2.6-40.1-14
		c-16.4-17.5-16.4-45.1,0-62.6c6.3-6.7,14.1-11.1,22.4-13.1L365.9,240.2c-9.4,10.5-13.2,24.2-11.3,37.3c0.9,6.2-4,11.7-10.3,11.7
		h-33.4c-12.7,0-22.9,10.3-22.9,22.9v33.5c0,6.3-5.5,11.2-11.7,10.3c-13.1-1.9-26.8,1.8-37.3,11.2l116.6,116.6
		c2-8.3,6.4-16.1,13.1-22.4c17.5-16.4,45.1-16.4,62.6,0c11.4,10.7,16.1,25.8,14,40.1C444.3,507.7,449.2,513.2,455.5,513.2
		L455.5,513.2z"/>
	<g>
		<g>
			
				<linearGradient id="SVGID_7_" gradientUnits="userSpaceOnUse" x1="217.2175" y1="498.1634" x2="302.4395" y2="583.3854" gradientTransform="matrix(1.0039 0 0 1.0039 -0.7344 -281.4643)">
				<stop  offset="0" style="stop-color:#E4E08E"/>
				<stop  offset="1" style="stop-color:#6FA953"/>
			</linearGradient>
			<circle class="st6" cx="255.9" cy="257.2" r="90"/>
			<path class="st7" d="M241.2,299.9c-7.8,0-15.1-3-20.7-8.6l-24.8-24.8c-5.2-5.2-5.2-13.6,0-18.8s13.6-5.2,18.8,0l24.8,24.8
				c0.6,0.6,1.4,0.8,1.8,0.8c0.5,0,1.2-0.1,1.8-0.8l54.2-54.2c5.2-5.2,13.6-5.2,18.8,0c5.2,5.2,5.2,13.6,0,18.8l-54,54.3
				C256.4,296.9,249,299.9,241.2,299.9z"/>
		</g>
	</g>
	
		<linearGradient id="SVGID_8_" gradientUnits="userSpaceOnUse" x1="145.0188" y1="717.5719" x2="145.0188" y2="779.067" gradientTransform="matrix(1.0039 0 0 1.0039 -0.7344 -281.4643)">
		<stop  offset="0" style="stop-color:#FF9356;stop-opacity:0"/>
		<stop  offset="1" style="stop-color:#FF755C"/>
	</linearGradient>
	<path class="st8" d="M12.2,432.5c10.7,11.4,25.8,16.1,40.1,14c6.2-0.9,11.7,4,11.7,10.3v33.4c0,12.7,10.3,22.9,22.9,22.9h33.5
		c6.3,0,11.2-5.5,10.3-11.7c-2.1-14.3,2.6-29.4,14-40.1c17.5-16.4,45.1-16.4,62.6,0c11.4,10.7,16.1,25.8,14,40.1
		c-0.9,6.2,4,11.7,10.3,11.7h33.5c12.7,0,22.9-10.3,22.9-22.9v-33.5c0-6.3-5.5-11.2-11.7-10.3c-14.3,2.1-29.4-2.6-40.1-14
		c-5.1-5.4-8.6-11.8-10.5-18.5H1.7C3.6,420.8,7.1,427.1,12.2,432.5L12.2,432.5z"/>
	
		<linearGradient id="SVGID_9_" gradientUnits="userSpaceOnUse" x1="366.256" y1="740.0699" x2="366.256" y2="816.7979" gradientTransform="matrix(1.0039 0 0 1.0039 -0.7344 -281.4643)">
		<stop  offset="0" style="stop-color:#843561;stop-opacity:0"/>
		<stop  offset="1" style="stop-color:#3A2F4D"/>
	</linearGradient>
	<path class="st9" d="M234.3,432.5c10.7,11.4,25.8,16.1,40.1,14c6.2-0.9,11.7,4,11.7,10.3v33.4c0,12.7,10.3,22.9,22.9,22.9h33.5
		c6.3,0,11.2-5.5,10.3-11.7c-2.1-14.3,2.6-29.4,14-40.1c17.5-16.4,45.1-16.4,62.6,0c11.4,10.7,16.1,25.8,14,40.1
		c-0.9,6.2,4,11.7,10.3,11.7h33.5c12.7,0,22.9-10.3,22.9-22.9v-33.5c0-6.3-5.5-11.2-11.7-10.3c-14.3,2.1-29.4-2.6-40.1-14
		c-5.1-5.4-8.6-11.8-10.5-18.5h-224C225.8,420.8,229.3,427.1,234.3,432.5z"/>
	<g>
		<g>
			
				<linearGradient id="SVGID_10_" gradientUnits="userSpaceOnUse" x1="1649.543" y1="-1745.6306" x2="1630.783" y2="-1745.6306" gradientTransform="matrix(0.7098 0.7098 -0.7098 0.7098 -1976.451 152.3578)">
				<stop  offset="0" style="stop-color:#6FA953"/>
				<stop  offset="1" style="stop-color:#43765A"/>
			</linearGradient>
			<path class="st10" d="M399.3,113.8c-7.5-7.5-7.5-19.6,0-27.1L436,50c7.5-7.5,19.6-7.5,27.1,0s7.5,19.6,0,27.1l-36.7,36.7
				C418.9,121.3,406.8,121.3,399.3,113.8z"/>
		</g>
		<g>
			
				<linearGradient id="SVGID_11_" gradientUnits="userSpaceOnUse" x1="325.4189" y1="340.8965" x2="306.659" y2="340.8965" gradientTransform="matrix(1.0039 0 0 1.0039 -0.7344 -281.4643)">
				<stop  offset="0" style="stop-color:#FFCE47"/>
				<stop  offset="1" style="stop-color:#FF9356"/>
			</linearGradient>
			<path class="st11" d="M322.6,105.8c-10.6,0-19.1-8.6-19.1-19.1V34.8c0-10.6,8.6-19.1,19.1-19.1s19.1,8.6,19.1,19.1v51.9
				C341.7,97.2,333.2,105.8,322.6,105.8z"/>
			
				<linearGradient id="SVGID_12_" gradientUnits="userSpaceOnUse" x1="711.1108" y1="-2771.345" x2="692.351" y2="-2771.345" gradientTransform="matrix(0 1.0039 -1.0039 0 -2329.8035 -520.0193)">
				<stop  offset="0" style="stop-color:#7ACBFF"/>
				<stop  offset="1" style="stop-color:#45A2E0"/>
			</linearGradient>
			<path class="st12" d="M407.3,190.5c0-10.6,8.6-19.1,19.1-19.1h51.9c10.6,0,19.1,8.6,19.1,19.1c0,10.6-8.6,19.1-19.1,19.1h-51.9
				C415.9,209.6,407.3,201.1,407.3,190.5z"/>
		</g>
	</g>
</g>
</svg>
