<?xml version="1.0" encoding="utf-8"?>
<!-- Generator: Adobe Illustrator 23.1.1, SVG Export Plug-In . SVG Version: 6.00 Build 0)  -->
<svg version="1.1" id="Capa_1" xmlns="http://www.w3.org/2000/svg" xmlns:xlink="http://www.w3.org/1999/xlink" x="0px" y="0px"
	 viewBox="0 0 512 512" style="enable-background:new 0 0 512 512;" xml:space="preserve">
<style type="text/css">
	.st0{fill:url(#SVGID_1_);}
	.st1{fill:url(#SVGID_2_);}
	.st2{fill:url(#SVGID_3_);}
	.st3{fill:url(#SVGID_4_);}
	.st4{fill:#FFF2EB;}
</style>
<linearGradient id="SVGID_1_" gradientUnits="userSpaceOnUse" x1="338.577" y1="620.2573" x2="662.4868" y2="858.2773" gradientTransform="matrix(1.0039 0 0 1.0039 0.356 -327.9659)">
	<stop  offset="0" style="stop-color:#B8DE6F"/>
	<stop  offset="1" style="stop-color:#8AA753"/>
</linearGradient>
<path class="st0" d="M453.4,19.2l58.4,381.6c1.9,12.3-6.6,23.9-18.9,25.8L111.1,485c-12.3,1.9-23.9-6.6-25.8-18.9L27,84.4
	C25.1,72.1,33.6,60.5,46,58.6L427.6,0.3C439.9-1.6,451.5,6.9,453.4,19.2z"/>
<linearGradient id="SVGID_2_" gradientUnits="userSpaceOnUse" x1="322.1648" y1="641.2637" x2="627.1146" y2="903.1237" gradientTransform="matrix(1.0039 0 0 1.0039 0.356 -327.9659)">
	<stop  offset="0" style="stop-color:#FE7695"/>
	<stop  offset="1" style="stop-color:#FE547B"/>
</linearGradient>
<path class="st1" d="M457.5,49.7l29.3,385c0.9,12.5-8.4,23.3-20.8,24.3l-385,29.3c-12.5,0.9-23.3-8.4-24.3-20.8l-29.3-385
	C26.4,69.9,35.8,59,48.2,58.1l385-29.3C445.6,27.9,456.5,37.2,457.5,49.7z"/>
<linearGradient id="SVGID_3_" gradientUnits="userSpaceOnUse" x1="304.2107" y1="660.9778" x2="588.4404" y2="945.2076" gradientTransform="matrix(1.0039 0 0 1.0039 0.356 -327.9659)">
	<stop  offset="0" style="stop-color:#67DCDC"/>
	<stop  offset="1" style="stop-color:#019394"/>
</linearGradient>
<path class="st2" d="M459.2,80.3v386.1c0,12.5-10.1,22.6-22.6,22.6H50.5c-12.5,0-22.6-10.1-22.6-22.6V80.3
	c0-12.5,10.1-22.6,22.6-22.6h386.1C449.1,57.7,459.2,67.9,459.2,80.3z"/>
<linearGradient id="SVGID_4_" gradientUnits="userSpaceOnUse" x1="228.3569" y1="555.4131" x2="228.3569" y2="1043.4127" gradientTransform="matrix(1.0039 0 0 1.0039 0.356 -327.9659)">
	<stop  offset="0" style="stop-color:#FCC344"/>
	<stop  offset="1" style="stop-color:#F7AE3D"/>
</linearGradient>
<path class="st3" d="M314.9,509.3l-294-22.1C8.5,486.3-0.9,475.4,0.1,463L29,78C30,65.5,40.8,56.2,53.3,57.1l385,29
	c12.5,0.9,21.8,11.8,20.9,24.3l-22.6,299.9c-0.3,3.5-1.9,6.7-4.5,8.9l-94.7,82.7C331.2,507.2,323.1,509.9,314.9,509.3z"/>
<g>
	
		<rect x="229.6" y="45.7" transform="matrix(7.560288e-02 -0.9971 0.9971 7.560288e-02 11.4861 438.3285)" class="st4" width="25.1" height="334.6"/>
	
		<rect x="224.8" y="109.4" transform="matrix(7.560288e-02 -0.9971 0.9971 7.560288e-02 -56.496 492.3983)" class="st4" width="25.1" height="334.6"/>
	
		<rect x="176.6" y="213.3" transform="matrix(7.560288e-02 -0.9971 0.9971 7.560288e-02 -161.2672 500.1925)" class="st4" width="25.1" height="247.6"/>
</g>
</svg>
