<?xml version="1.0" encoding="utf-8"?>
<!-- Generator: Adobe Illustrator 24.2.3, SVG Export Plug-In . SVG Version: 6.00 Build 0)  -->
<svg version="1.1" id="Capa_1" xmlns="http://www.w3.org/2000/svg" xmlns:xlink="http://www.w3.org/1999/xlink" x="0px" y="0px"
	 viewBox="0 0 512 512" style="enable-background:new 0 0 512 512;" xml:space="preserve">
<style type="text/css">
	.st0{fill:url(#SVGID_1_);}
	.st1{fill:url(#SVGID_2_);}
	.st2{fill:url(#SVGID_3_);}
	.st3{fill:url(#SVGID_4_);}
	.st4{fill:url(#SVGID_5_);}
	.st5{fill:url(#SVGID_6_);}
	.st6{fill:url(#SVGID_7_);}
	.st7{fill:url(#SVGID_8_);}
	.st8{fill:url(#SVGID_9_);}
	.st9{fill:url(#SVGID_10_);}
	.st10{fill:url(#SVGID_11_);}
	.st11{fill:url(#SVGID_12_);}
	.st12{fill:url(#SVGID_13_);}
	.st13{fill:url(#SVGID_14_);}
	.st14{fill:url(#SVGID_15_);}
	.st15{fill:url(#SVGID_16_);}
	.st16{fill:url(#SVGID_17_);}
	.st17{fill:url(#SVGID_18_);}
</style>
<linearGradient id="SVGID_1_" gradientUnits="userSpaceOnUse" x1="44.8833" y1="395.5099" x2="134.7343" y2="305.6599" gradientTransform="matrix(1.0039 0 0 -1.0039 0.1922 516.5609)">
	<stop  offset="0" style="stop-color:#FF7044"/>
	<stop  offset="1" style="stop-color:#F92814"/>
</linearGradient>
<circle class="st0" cx="71.3" cy="145.6" r="69.6"/>
<linearGradient id="SVGID_2_" gradientUnits="userSpaceOnUse" x1="79.1636" y1="357.7531" x2="36.3596" y2="418.4371" gradientTransform="matrix(1.0039 0 0 -1.0039 0.1922 516.5609)">
	<stop  offset="0" style="stop-color:#FF7044;stop-opacity:0"/>
	<stop  offset="1" style="stop-color:#FFA425"/>
</linearGradient>
<circle class="st1" cx="71.3" cy="145.6" r="58.1"/>
<linearGradient id="SVGID_3_" gradientUnits="userSpaceOnUse" x1="73.2498" y1="342.9658" x2="168.6078" y2="520.3178" gradientTransform="matrix(1.0039 0 0 -1.0039 0.1922 516.5609)">
	<stop  offset="0" style="stop-color:#F92814;stop-opacity:0"/>
	<stop  offset="1" style="stop-color:#C1272D"/>
</linearGradient>
<path class="st2" d="M102.5,83.3c4.7,9.4,7.3,20,7.3,31.2c0,38.5-31.2,69.6-69.6,69.6c-11.2,0-21.8-2.6-31.2-7.3
	c11.4,22.8,35,38.5,62.3,38.5c38.5,0,69.6-31.2,69.6-69.6C141,118.3,125.3,94.7,102.5,83.3z"/>
<linearGradient id="SVGID_4_" gradientUnits="userSpaceOnUse" x1="129.0851" y1="311.5378" x2="116.9801" y2="331.9498" gradientTransform="matrix(1.0039 0 0 -1.0039 0.1922 516.5609)">
	<stop  offset="0" style="stop-color:#F92814;stop-opacity:0"/>
	<stop  offset="1" style="stop-color:#C1272D"/>
</linearGradient>
<path class="st3" d="M129,184.6l-26.5-8.7l18.5,18.5C124,191.3,126.7,188.1,129,184.6L129,184.6z"/>
<linearGradient id="SVGID_5_" gradientUnits="userSpaceOnUse" x1="141.2909" y1="344.0432" x2="133.4579" y2="326.2422" gradientTransform="matrix(1.0039 0 0 -1.0039 0.1922 516.5609)">
	<stop  offset="0" style="stop-color:#7E8595"/>
	<stop  offset="1" style="stop-color:#555A66"/>
</linearGradient>
<path class="st4" d="M95.6,152.4c4-10.1,15.5-15.1,25.6-11l56.3,22.4c10.1,4,15.1,15.5,11,25.6c-4,10.1-15.5,15.1-25.6,11
	l-56.3-22.4C96.5,174,91.6,162.6,95.6,152.4z"/>
<linearGradient id="SVGID_6_" gradientUnits="userSpaceOnUse" x1="233.5645" y1="339.951" x2="403.1855" y2="170.33" gradientTransform="matrix(1.0039 0 0 -1.0039 0.1922 516.5609)">
	<stop  offset="0" style="stop-color:#92F37F"/>
	<stop  offset="1" style="stop-color:#4AB272"/>
</linearGradient>
<circle class="st5" cx="283.9" cy="224.5" r="131.5"/>
<linearGradient id="SVGID_7_" gradientUnits="userSpaceOnUse" x1="298.2787" y1="268.6732" x2="217.4727" y2="383.2331" gradientTransform="matrix(1.0039 0 0 -1.0039 0.1922 516.5609)">
	<stop  offset="0" style="stop-color:#92F37F;stop-opacity:0"/>
	<stop  offset="1" style="stop-color:#FFEE83"/>
</linearGradient>
<circle class="st6" cx="283.9" cy="224.5" r="109.7"/>
<linearGradient id="SVGID_8_" gradientUnits="userSpaceOnUse" x1="287.1138" y1="240.7574" x2="467.1308" y2="575.5654" gradientTransform="matrix(1.0039 0 0 -1.0039 0.1922 516.5609)">
	<stop  offset="0" style="stop-color:#4AB272;stop-opacity:0"/>
	<stop  offset="1" style="stop-color:#009245"/>
</linearGradient>
<path class="st7" d="M342.7,106.9c8.9,17.7,13.9,37.7,13.9,58.8c0,72.6-58.9,131.5-131.5,131.5c-21.1,0-41.1-5-58.8-13.9
	c21.6,43.1,66.1,72.7,117.6,72.7c72.6,0,131.5-58.9,131.5-131.5C415.3,173,385.8,128.4,342.7,106.9L342.7,106.9z"/>
<linearGradient id="SVGID_9_" gradientUnits="userSpaceOnUse" x1="425.6869" y1="303.9174" x2="346.8219" y2="382.7815" gradientTransform="matrix(1.0039 0 0 -1.0039 0.1922 516.5609)">
	<stop  offset="0" style="stop-color:#4AB272;stop-opacity:0"/>
	<stop  offset="1" style="stop-color:#009245"/>
</linearGradient>
<path class="st8" d="M415.3,228.4c0-1.3,0.1-2.6,0.1-3.9c0-36-14.5-68.7-38-92.4l-29.8,28.7L415.3,228.4z"/>
<linearGradient id="SVGID_10_" gradientUnits="userSpaceOnUse" x1="363.9254" y1="164.114" x2="328.7964" y2="194.0209" gradientTransform="matrix(1.0039 0 0 -1.0039 0.1922 516.5609)">
	<stop  offset="0" style="stop-color:#4AB272;stop-opacity:0"/>
	<stop  offset="1" style="stop-color:#009245"/>
</linearGradient>
<path class="st9" d="M331.4,309.9l9,33.3c5.4-2.6,10.6-5.5,15.5-8.7L331.4,309.9z"/>
<linearGradient id="SVGID_11_" gradientUnits="userSpaceOnUse" x1="717.8699" y1="3608.5549" x2="757.2083" y2="3608.5549" gradientTransform="matrix(-0.9517 0.3192 0.3192 0.9517 -124.1245 -3319.2913)">
	<stop  offset="0" style="stop-color:#7E8595"/>
	<stop  offset="1" style="stop-color:#555A66"/>
</linearGradient>
<path class="st10" d="M309.5,303.2c10.3-3.5,21.5,2.1,25,12.4l19.3,57.5c3.5,10.3-2.1,21.5-12.4,25c-10.3,3.5-21.5-2.1-25-12.4
	L297,328.2C293.6,317.9,299.1,306.7,309.5,303.2z"/>
<linearGradient id="SVGID_12_" gradientUnits="userSpaceOnUse" x1="1506.6562" y1="942.3461" x2="1545.9858" y2="942.3461" gradientTransform="matrix(0.7098 0.7098 0.7098 -0.7098 -1359.6086 -299.0432)">
	<stop  offset="0" style="stop-color:#7E8595"/>
	<stop  offset="1" style="stop-color:#555A66"/>
</linearGradient>
<path class="st11" d="M347.6,160.7c-7.7-7.7-7.7-20.2,0-27.9L410,70.5c7.7-7.7,20.2-7.7,27.9,0c7.7,7.7,7.7,20.2,0,27.9l-62.4,62.4
	C367.8,168.4,355.3,168.4,347.6,160.7z"/>
<linearGradient id="SVGID_13_" gradientUnits="userSpaceOnUse" x1="410.8281" y1="471.1256" x2="500.6781" y2="381.2746" gradientTransform="matrix(1.0039 0 0 -1.0039 0.1922 516.5609)">
	<stop  offset="0" style="stop-color:#18CFFC"/>
	<stop  offset="1" style="stop-color:#4A98F7"/>
</linearGradient>
<circle class="st12" cx="438.7" cy="69.6" r="69.6"/>
<linearGradient id="SVGID_14_" gradientUnits="userSpaceOnUse" x1="445.1079" y1="433.3687" x2="402.304" y2="494.0526" gradientTransform="matrix(1.0039 0 0 -1.0039 0.1922 516.5609)">
	<stop  offset="0" style="stop-color:#18CFFC;stop-opacity:0"/>
	<stop  offset="1" style="stop-color:#65E1DC"/>
</linearGradient>
<circle class="st13" cx="438.7" cy="69.6" r="58.1"/>
<linearGradient id="SVGID_15_" gradientUnits="userSpaceOnUse" x1="439.1939" y1="418.5823" x2="534.551" y2="595.9343" gradientTransform="matrix(1.0039 0 0 -1.0039 0.1922 516.5609)">
	<stop  offset="0" style="stop-color:#0469BC;stop-opacity:0"/>
	<stop  offset="1" style="stop-color:#0469BC"/>
</linearGradient>
<path class="st14" d="M469.8,7.3c4.7,9.4,7.3,20,7.3,31.2c0,38.5-31.2,69.6-69.6,69.6c-11.2,0-21.8-2.6-31.2-7.3
	c11.4,22.8,35,38.5,62.3,38.5c38.5,0,69.6-31.2,69.6-69.6C508.3,42.4,492.7,18.8,469.8,7.3L469.8,7.3z"/>
<linearGradient id="SVGID_16_" gradientUnits="userSpaceOnUse" x1="1205.9176" y1="154.6517" x2="1295.7676" y2="64.8017" gradientTransform="matrix(0.9648 0.2791 0.2791 -0.9648 -863.6272 223.239)">
	<stop  offset="0" style="stop-color:#FFDA45"/>
	<stop  offset="1" style="stop-color:#FFA425"/>
</linearGradient>
<circle class="st15" cx="360.5" cy="442.3" r="69.6"/>
<linearGradient id="SVGID_17_" gradientUnits="userSpaceOnUse" x1="1240.1228" y1="116.8175" x2="1197.3187" y2="177.5016" gradientTransform="matrix(0.9648 0.2791 0.2791 -0.9648 -863.6272 223.239)">
	<stop  offset="0" style="stop-color:#FFDA45;stop-opacity:0"/>
	<stop  offset="1" style="stop-color:#FCEE21"/>
</linearGradient>
<circle class="st16" cx="360.5" cy="442.3" r="58.1"/>
<linearGradient id="SVGID_18_" gradientUnits="userSpaceOnUse" x1="1233.7097" y1="102.2891" x2="1329.0677" y2="279.6401" gradientTransform="matrix(0.9648 0.2791 0.2791 -0.9648 -863.6272 223.239)">
	<stop  offset="0" style="stop-color:#FFDA45;stop-opacity:0"/>
	<stop  offset="1" style="stop-color:#B53759"/>
</linearGradient>
<path class="st17" d="M407.7,391.1c1.9,10.3,1.5,21.2-1.6,32c-10.7,37-49.3,58.3-86.2,47.6c-10.8-3.1-20.2-8.6-27.9-15.7
	c4.7,25.1,23,46.7,49.2,54.3c37,10.7,75.6-10.6,86.2-47.6C434.9,435.5,426.4,408.5,407.7,391.1L407.7,391.1z"/>
</svg>
