<?xml version="1.0" encoding="utf-8"?>
<!-- Generator: Adobe Illustrator 23.1.1, SVG Export Plug-In . SVG Version: 6.00 Build 0)  -->
<svg version="1.1" id="Capa_1" xmlns="http://www.w3.org/2000/svg" xmlns:xlink="http://www.w3.org/1999/xlink" x="0px" y="0px"
	 viewBox="0 0 512 512" style="enable-background:new 0 0 512 512;" xml:space="preserve">
<style type="text/css">
	.st0{fill:#FFC000;}
	.st1{fill:#E28D00;}
	.st2{fill:#474747;}
	.st3{fill:url(#SVGID_1_);}
	.st4{fill:#CC7400;}
	.st5{fill:#ABF1FF;}
	.st6{fill:#FFFFFF;}
	.st7{fill:url(#SVGID_2_);}
	.st8{fill:url(#SVGID_3_);}
	.st9{fill:url(#SVGID_4_);}
	.st10{fill:url(#SVGID_5_);}
	.st11{fill:url(#SVGID_6_);}
	.st12{fill:url(#SVGID_7_);}
</style>
<g>
	<g>
		<g>
			<path class="st0" d="M506.1,434.1H5.4c-3,0-5.4-2.4-5.4-5.4V99.9c0-3,2.4-5.4,5.4-5.4h500.8c3,0,5.4,2.4,5.4,5.4v328.8
				C511.5,431.7,509.1,434.1,506.1,434.1z"/>
			<path class="st1" d="M6,423.7V104.9c0-2.4,2-4.4,4.4-4.4h490.8c2.4,0,4.4,2,4.4,4.4v318.8c0,2.4-2,4.4-4.4,4.4H10.4
				C7.9,428.1,6,426.1,6,423.7z"/>
			<path class="st2" d="M12,418.7V109.9c0-1.9,1.5-3.4,3.4-3.4h480.8c1.9,0,3.4,1.5,3.4,3.4v308.8c0,1.9-1.5,3.4-3.4,3.4H15.3
				C13.5,422.1,12,420.6,12,418.7z"/>
			<linearGradient id="SVGID_1_" gradientUnits="userSpaceOnUse" x1="23.9299" y1="264.3071" x2="487.5727" y2="264.3071">
				<stop  offset="0" style="stop-color:#46CC8D"/>
				<stop  offset="0.5484" style="stop-color:#0AB69F"/>
				<stop  offset="1" style="stop-color:#01998D"/>
			</linearGradient>
			<path class="st3" d="M23.9,408.8V119.9c0-0.8,0.6-1.4,1.4-1.4h460.9c0.8,0,1.4,0.6,1.4,1.4v288.9c0,0.8-0.6,1.4-1.4,1.4H25.3
				C24.5,410.1,23.9,409.5,23.9,408.8z"/>
		</g>
		<g>
			<rect x="76.3" y="368.6" class="st1" width="86" height="37"/>
			<rect x="76.3" y="396.7" class="st4" width="86" height="9"/>
			<rect x="76.3" y="368.6" class="st0" width="86" height="5.6"/>
		</g>
	</g>
	<g>
		<g>
			<rect x="338.6" y="391.1" class="st5" width="89" height="14.6"/>
			<rect x="338.6" y="394.6" class="st6" width="89" height="4.2"/>
		</g>
	</g>
</g>
<g>
	
		<radialGradient id="SVGID_2_" cx="-1245.0109" cy="-6803.8281" r="206.341" gradientTransform="matrix(1.0034 -3.339155e-02 -3.339155e-02 -1.0034 -428.9006 2394.3201)" gradientUnits="userSpaceOnUse">
		<stop  offset="0" style="stop-color:#FFC73A"/>
		<stop  offset="4.370849e-02" style="stop-color:#FFCF57"/>
		<stop  offset="0.1199" style="stop-color:#FFDC83"/>
		<stop  offset="0.1994" style="stop-color:#FFE7A9"/>
		<stop  offset="0.2815" style="stop-color:#FFF0C9"/>
		<stop  offset="0.3668" style="stop-color:#FFF6E1"/>
		<stop  offset="0.4569" style="stop-color:#FFFBF2"/>
		<stop  offset="0.5547" style="stop-color:#FFFEFC"/>
		<stop  offset="0.6749" style="stop-color:#FFFFFF"/>
	</radialGradient>
	<path class="st7" d="M353.1,221.7c-14.9,0.5-22.9,8.7-22.3,25.7l1.9,56.2c0.6,17,9.1,24.6,24.4,24.1c19.7-0.7,21-14,21.5-22.6
		c0.2-5,4.2-6.9,9.8-7.1c7.1-0.2,10.5,1.8,10.8,10.3c0.7,21.2-16.4,36.7-42.8,37.6c-23.4,0.8-43.1-10.4-44.1-41.6l-1.9-56.2
		c-1-31.3,18.1-43.7,41.4-44.5c26.4-0.9,44.3,13,45,33.5c0.3,8.7-2.9,10.7-9.9,11c-6.2,0.2-10.1-1.8-10.5-6.4
		C375.7,234.9,373,221.1,353.1,221.7z"/>
	<radialGradient id="SVGID_3_" cx="363.8645" cy="463.1286" r="206.341" gradientUnits="userSpaceOnUse">
		<stop  offset="0" style="stop-color:#FFC73A"/>
		<stop  offset="4.370849e-02" style="stop-color:#FFCF57"/>
		<stop  offset="0.1199" style="stop-color:#FFDC83"/>
		<stop  offset="0.1994" style="stop-color:#FFE7A9"/>
		<stop  offset="0.2815" style="stop-color:#FFF0C9"/>
		<stop  offset="0.3668" style="stop-color:#FFF6E1"/>
		<stop  offset="0.4569" style="stop-color:#FFFBF2"/>
		<stop  offset="0.5547" style="stop-color:#FFFEFC"/>
		<stop  offset="0.6749" style="stop-color:#FFFFFF"/>
	</radialGradient>
	<path class="st8" d="M197.8,221.3c-1.3-4.2,2.3-7.8,6.7-9.1l33.6-10.3c19.8-6,39.1-5.5,47.1,20.6c4.7,15.3,1.7,27.5-6.6,34.7
		c12.8,0.9,22.7,6.2,28.4,25l1.1,3.5c8.7,28.6-4.2,43.7-24.9,50l-37.5,11.4c-5.4,1.6-9.6-0.3-10.6-3.6L197.8,221.3z M231.7,263
		l22-6.7c12.6-3.8,16.7-12.2,12.8-24.7c-3.8-12.4-12.8-15.5-24.4-11.9l-21.6,6.6L231.7,263z M274.2,319.5
		c13.1-4,18.7-13.4,13.9-29.3l-0.9-3c-5-16.3-14.5-19.8-27.6-15.8l-23.1,7.1l14.7,48L274.2,319.5z"/>
	
		<radialGradient id="SVGID_4_" cx="-332.4422" cy="-4843.7837" r="206.341" gradientTransform="matrix(0.9602 -0.2932 -0.2932 -0.9602 127.5297 521.4191)" gradientUnits="userSpaceOnUse">
		<stop  offset="0" style="stop-color:#FFC73A"/>
		<stop  offset="4.370849e-02" style="stop-color:#FFCF57"/>
		<stop  offset="0.1199" style="stop-color:#FFDC83"/>
		<stop  offset="0.1994" style="stop-color:#FFE7A9"/>
		<stop  offset="0.2815" style="stop-color:#FFF0C9"/>
		<stop  offset="0.3668" style="stop-color:#FFF6E1"/>
		<stop  offset="0.4569" style="stop-color:#FFFBF2"/>
		<stop  offset="0.5547" style="stop-color:#FFFEFC"/>
		<stop  offset="0.6749" style="stop-color:#FFFFFF"/>
	</radialGradient>
	<path class="st9" d="M287.2,287.3l0.9,3c4.8,15.9-0.8,25.3-13.9,29.3l-23.1,7.1l-9-29.4l-19.4,5.9l12.4,40.5
		c1,3.3,5.2,5.3,10.6,3.6l37.5-11.4c20.7-6.3,33.7-21.4,24.9-50l-1.1-3.5c-0.5-1.6-1-3.1-1.5-4.5l-19.6,6
		C286.4,284.8,286.8,286,287.2,287.3z"/>
	
		<radialGradient id="SVGID_5_" cx="363.8604" cy="-628.5521" r="206.341" gradientTransform="matrix(1 0 0 -1 0 510.1109)" gradientUnits="userSpaceOnUse">
		<stop  offset="0" style="stop-color:#FFC73A"/>
		<stop  offset="4.370849e-02" style="stop-color:#FFCF57"/>
		<stop  offset="0.1199" style="stop-color:#FFDC83"/>
		<stop  offset="0.1994" style="stop-color:#FFE7A9"/>
		<stop  offset="0.2815" style="stop-color:#FFF0C9"/>
		<stop  offset="0.3668" style="stop-color:#FFF6E1"/>
		<stop  offset="0.4569" style="stop-color:#FFFBF2"/>
		<stop  offset="0.5547" style="stop-color:#FFFEFC"/>
		<stop  offset="0.6749" style="stop-color:#FFFFFF"/>
	</radialGradient>
	<path class="st10" d="M238.1,346.9c0.4,0.2,0.9,0.4,1.4,0.5c0.5,0.1,1,0.2,1.6,0.3c0.3,0,0.6,0,0.9,0c0.6,0,1.2,0,1.8-0.1
		s1.3-0.2,2-0.5l37.5-11.5c4.8-1.5,9.3-3.4,13.1-5.9c0.5-0.3,1-0.7,1.5-1c2.9-2.1,5.4-4.6,7.5-7.4c0.3-0.5,0.7-1,1-1.5
		c0.3-0.5,0.6-1,0.9-1.5c0.4-0.8,0.8-1.6,1.2-2.4c0-0.1,0.1-0.2,0.1-0.3l-18.9-19.2c0.1,0.6,0.2,1.2,0.2,1.8c0,0.1,0,0.3,0,0.4
		c0.5,7.5-2,13.1-7.1,16.9c-2.3,1.7-5.1,3-8.4,4l-23.1,7.1l-9-29.4l-5.7-18.6l23.1-7.1c1.5-0.4,2.9-0.8,4.3-1l-13.1-13.2l-19,5.8
		l-11.1-36.3l-14.8-15l-1.4,0.4c-4.4,1.4-8,4.9-6.7,9.1l37.3,122.3C235.5,345,236.6,346.2,238.1,346.9z"/>
	<radialGradient id="SVGID_6_" cx="363.8645" cy="463.1286" r="206.341" gradientUnits="userSpaceOnUse">
		<stop  offset="0" style="stop-color:#FFC73A"/>
		<stop  offset="4.370849e-02" style="stop-color:#FFCF57"/>
		<stop  offset="0.1199" style="stop-color:#FFDC83"/>
		<stop  offset="0.1994" style="stop-color:#FFE7A9"/>
		<stop  offset="0.2815" style="stop-color:#FFF0C9"/>
		<stop  offset="0.3668" style="stop-color:#FFF6E1"/>
		<stop  offset="0.4569" style="stop-color:#FFFBF2"/>
		<stop  offset="0.5547" style="stop-color:#FFFEFC"/>
		<stop  offset="0.6749" style="stop-color:#FFFFFF"/>
	</radialGradient>
	<path class="st11" d="M105.5,330c0.1-0.6,0.2-1.1,0.5-1.7l63-114.8c2.5-4.2,8.4-5.4,14.1-4.2c5.7,1.2,10.9,4.6,11.5,9.5l12.1,130.3
		c0.1,0.6,0.1,1.2,0,1.8c-1,4.7-8.7,6.9-14.4,5.7c-3.2-0.7-5.6-2.3-5.9-5.6l-2.2-28.5l-46.7-9.7l-13.3,25.3
		c-1.6,2.8-4.5,3.4-7.9,2.7C110.7,339.7,104.5,334.9,105.5,330z M182.9,305.6l-5.5-68.8l-32.3,61L182.9,305.6z"/>
	
		<radialGradient id="SVGID_7_" cx="292.2192" cy="2000.022" r="206.341" gradientTransform="matrix(0.9831 0.2035 0.2035 -0.9831 -15.0892 597.5225)" gradientUnits="userSpaceOnUse">
		<stop  offset="0" style="stop-color:#FFC73A"/>
		<stop  offset="4.370849e-02" style="stop-color:#FFCF57"/>
		<stop  offset="0.1199" style="stop-color:#FFDC83"/>
		<stop  offset="0.1994" style="stop-color:#FFE7A9"/>
		<stop  offset="0.2815" style="stop-color:#FFF0C9"/>
		<stop  offset="0.3668" style="stop-color:#FFF6E1"/>
		<stop  offset="0.4569" style="stop-color:#FFFBF2"/>
		<stop  offset="0.5547" style="stop-color:#FFFEFC"/>
		<stop  offset="0.6749" style="stop-color:#FFFFFF"/>
	</radialGradient>
	<path class="st12" d="M182.9,305.6l-37.8-7.8l0.4-0.8l-20-4.1L106,328.3c-0.3,0.5-0.4,1.1-0.5,1.7c-1,4.9,5.3,9.8,10.8,10.9
		c3.4,0.7,6.3,0.1,7.9-2.7l13.3-25.3l46.7,9.7l2.2,28.5c0.3,3.2,2.7,4.9,5.9,5.6c5.7,1.2,13.4-1,14.4-5.7c0.1-0.6,0-1.2,0-1.8
		l-3.7-40.3l-20.1-4.2L182.9,305.6z"/>
</g>
</svg>
