<?xml version="1.0" encoding="utf-8"?>
<!-- Generator: Adobe Illustrator 23.1.1, SVG Export Plug-In . SVG Version: 6.00 Build 0)  -->
<svg version="1.1" id="Capa_1" xmlns="http://www.w3.org/2000/svg" xmlns:xlink="http://www.w3.org/1999/xlink" x="0px" y="0px"
	 viewBox="0 0 512 512" style="enable-background:new 0 0 512 512;" xml:space="preserve">
<style type="text/css">
	.st0{opacity:0.4;}
	.st1{fill:#34414F;}
	.st2{fill:url(#SVGID_1_);}
	.st3{fill:url(#SVGID_2_);}
	.st4{fill:#F4F6F6;}
	.st5{opacity:0.3;fill:#C38A5B;}
	.st6{fill:#FFFFFF;}
	.st7{opacity:0.4;fill:#3A6D5E;}
</style>
<g id="katman_2">
</g>
<g class="st0">
	<path class="st1" d="M509.6,439.9c0,3.9-3.1,7-7,7H10.7c-3.9,0-7-3.1-7-7V104c0-3.9,3.1-7,7-7h491.9c3.9,0,7,3.1,7,7V439.9z"/>
</g>
<g>
	<linearGradient id="SVGID_1_" gradientUnits="userSpaceOnUse" x1="0.8029" y1="243.5021" x2="511.5618" y2="243.5021">
		<stop  offset="0" style="stop-color:#FFCF95"/>
		<stop  offset="0.427" style="stop-color:#FFC954"/>
		<stop  offset="1" style="stop-color:#FFC200"/>
	</linearGradient>
	<path class="st2" d="M511.6,413c0,3.9-3.2,7.1-7.1,7.1H7.9c-3.9,0-7.1-3.2-7.1-7.1V74c0-3.9,3.2-7.1,7.1-7.1h496.6
		c3.9,0,7.1,3.2,7.1,7.1V413z"/>
</g>
<g>
	<linearGradient id="SVGID_2_" gradientUnits="userSpaceOnUse" x1="24.9224" y1="243.5014" x2="487.4423" y2="243.5014">
		<stop  offset="0" style="stop-color:#46CC8D"/>
		<stop  offset="0.5484" style="stop-color:#0AB69F"/>
		<stop  offset="1" style="stop-color:#01998D"/>
	</linearGradient>
	<path class="st3" d="M487.4,391.8c0,2.4-1.9,4.3-4.3,4.3h-454c-2.4,0-4.3-1.9-4.3-4.3V95.2c0-2.4,1.9-4.3,4.3-4.3h454
		c2.4,0,4.3,1.9,4.3,4.3V391.8z"/>
</g>
<g>
	<path class="st4" d="M440.9,391.8c0-2.4-1.9-4.3-4.3-4.3h-35.5c-2.4,0-4.3,1.9-4.3,4.3v1.4c0,2.4,1.9,4.3,4.3,4.3h35.5
		c2.4,0,4.3-1.9,4.3-4.3V391.8z"/>
</g>
<path class="st5" d="M504.9,79.2H8.3c-3.9,0-7.1,3.2-7.1,7.1v4H512v-4C512,82.4,508.8,79.2,504.9,79.2z"/>
<path class="st5" d="M504.5,396.7H7.9c-3.9,0-7.1,3.2-7.1,7.1v4h510.8v-4C511.6,399.9,508.4,396.7,504.5,396.7z"/>
<g>
	<g>
		<path class="st6" d="M118.7,210.1c-21.6-18.5-33,7.3-36.2,26.2c-0.4,2.3-0.8,4.7-1.1,7.1c-1.8-0.6-3.5-1.4-5.2-2.5
			c-6.9-4.5-13.2,6.5-6.4,11c3.1,2.1,6.5,3.4,10,4.4c-1.6,16-1.7,32.7,0.8,47.9c1.3,8.1,13.6,4.6,12.2-3.4
			c-2-12.1-1.3-28.5-0.1-42.8c2.2,0.1,4.5,0.1,6.7,0.1c8.2,0,8.2-12.7,0-12.7c-1.8,0-3.7,0-5.5,0c0.9-7.8,2.5-15.5,5.3-22.8
			c2.4-6.4,5.3-7.9,10.6-3.4C115.9,224.4,124.9,215.4,118.7,210.1z"/>
		<path class="st6" d="M145.1,292.6c-17.4-19.6-12.7-47.8-2.2-69.5c3.5-7.3-7.4-13.8-11-6.4c-13.2,27.3-17.4,60.7,4.2,84.9
			C141.6,307.7,150.5,298.7,145.1,292.6z"/>
		<path class="st6" d="M192.4,236.6c-5.4,4-9.8,8.8-13.8,14c-2.5-4.5-4.9-9.1-7.2-13.8c-3.5-7.4-14.4-0.9-11,6.4
			c3.1,6.6,6.6,12.9,10.2,19.2c-4.2,6.9-8,14.1-12.3,20.9c-4.4,7,6.6,13.3,11,6.4c3-4.7,5.7-9.8,8.5-14.9c1.6,2.9,3.3,5.7,4.8,8.6
			c3.9,7.2,14.9,0.8,11-6.4c-2.7-4.9-5.5-9.8-8.3-14.6c3.8-5.6,8.1-10.8,13.5-14.8C205.3,242.8,199,231.7,192.4,236.6z"/>
		<path class="st6" d="M221.2,211.4c-4.5-6.8-15.5-0.5-11,6.4c18.6,28.5,10.7,57.1-7.4,83.5c-4.6,6.8,6.4,13.1,11,6.4
			C234.4,277.6,242.2,243.5,221.2,211.4z"/>
		<path class="st6" d="M283.4,237.9h-24.3c-8.2,0-8.2,12.7,0,12.7h24.3C291.6,250.5,291.6,237.9,283.4,237.9z"/>
		<path class="st6" d="M283.4,260.3c-7.6-1.2-15.2-1.3-22.8-1.3c-8.2,0-8.2,12.7,0,12.7c6.5,0,13.1-0.1,19.5,0.8
			c3.4,0.5,6.8-0.8,7.8-4.4C288.7,265.1,286.8,260.8,283.4,260.3z"/>
		<path class="st6" d="M332.6,242c8.5-4.1,16.8-10,13.6-19.8c-4-12.1-25.4-10-34.9-8.4c-8.1,1.3-4.6,13.6,3.4,12.2
			c6-1,14.5-1.5,20.1,1.3c-2.2-1.1-14.8,6.5-18.7,8.2c-4.8,2.2-3.4,8.4,0,11c5.6,4.2,28.4,12.4,20.7,21.9c-6.6,8.2-21.5,9.4-30.8,13
			c-7.5,3-4.3,15.2,3.4,12.2c13.4-5.3,33.8-7.3,40.3-22.3C355.9,256.8,343.9,248.8,332.6,242z"/>
		<path class="st6" d="M413.4,216.7c-8.5,9.1-16.6,18.8-24,28.9c-5.4-7.3-10.9-14.5-16.7-21.5c-5.2-6.3-14.2,2.7-9,9
			c6.3,7.6,12.3,15.5,18.1,23.5c-6.4,9.7-12.1,19.7-17,30.2c-3.4,7.4,7.5,13.8,11,6.4c4.1-8.8,8.9-17.4,14.1-25.6
			c6.9,9.5,13.9,18.9,21.4,28c5.2,6.3,14.2-2.7,9-9c-8.1-9.7-15.5-19.9-23-30.1c7.6-10.8,16.1-21.1,25.1-30.7
			C427.9,219.7,419,210.7,413.4,216.7z"/>
		<path class="st6" d="M467.3,210.2c-5.6-0.2-14,0.6-19.6-1.6c0.2-0.4,0.3-0.7,0.5-1.1c1.8-3.5,4.2-6.8,6.6-9.9
			c2.1-2.9,0.4-6.9-2.3-8.7c-6.1-4.1-12.6-4.9-19.7-3.8c-8.1,1.2-4.6,13.4,3.4,12.2c1.2-0.2,2.3-0.2,3.3-0.1
			c-4,6.1-7.3,13.4-2.3,19.4c6.2,7.5,21.7,6,30.1,6.3C475.4,223.2,475.4,210.5,467.3,210.2z"/>
	</g>
</g>
<polygon class="st7" points="78.1,396 238.5,396 345.4,91 185,91 "/>
</svg>
