<?xml version="1.0" encoding="utf-8"?>
<!-- Generator: Adobe Illustrator 23.1.1, SVG Export Plug-In . SVG Version: 6.00 Build 0)  -->
<svg version="1.1" id="katman_1" xmlns="http://www.w3.org/2000/svg" xmlns:xlink="http://www.w3.org/1999/xlink" x="0px" y="0px"
	 viewBox="0 0 512 512" style="enable-background:new 0 0 512 512;" xml:space="preserve">
<style type="text/css">
	.st0{fill:url(#SVGID_1_);}
	.st1{fill:url(#SVGID_2_);}
	.st2{fill:url(#SVGID_3_);}
	.st3{fill:url(#SVGID_4_);}
	.st4{fill:url(#SVGID_5_);}
	.st5{fill:url(#SVGID_6_);}
	.st6{fill:url(#SVGID_7_);}
	.st7{fill:url(#SVGID_8_);}
	.st8{fill:url(#SVGID_9_);}
	.st9{fill:url(#SVGID_10_);}
	.st10{fill:url(#SVGID_11_);}
	.st11{fill:url(#SVGID_12_);}
	.st12{fill:url(#SVGID_13_);}
	.st13{fill:url(#SVGID_14_);}
	.st14{fill:url(#SVGID_15_);}
	.st15{fill:url(#SVGID_16_);}
	.st16{fill:#287BA1;}
	.st17{fill:#D45E5E;}
	.st18{fill:#FF4040;}
	.st19{fill:#BA0909;}
	.st20{fill:#FFFFFF;}
</style>
<linearGradient id="SVGID_1_" gradientUnits="userSpaceOnUse" x1="110.7613" y1="408.8569" x2="537.2497" y2="-17.6313" gradientTransform="matrix(1 0 0 -1 0 511.8898)">
	<stop  offset="0" style="stop-color:#F9F7FC"/>
	<stop  offset="1" style="stop-color:#F0DDFC"/>
</linearGradient>
<path class="st0" d="M377.9,495.7h-317v-434c0-24.7,20-44.7,44.7-44.7h361.7c-24.7,0-44.7,20-44.7,44.7V451
	C422.6,475.7,402.5,495.7,377.9,495.7z"/>
<linearGradient id="SVGID_2_" gradientUnits="userSpaceOnUse" x1="476.4171" y1="350.2288" x2="460.1168" y2="479.0013" gradientTransform="matrix(1 0 0 -1 0 511.8898)">
	<stop  offset="0" style="stop-color:#F9F7FC"/>
	<stop  offset="1" style="stop-color:#F0DDFC"/>
</linearGradient>
<path class="st1" d="M422.6,120.1h79.9c5.2,0,9.5-4.3,9.5-9.5V61.7C512,37,492,17,467.3,17c-24.7,0-44.7,20-44.7,44.7L422.6,120.1
	L422.6,120.1z"/>
<linearGradient id="SVGID_3_" gradientUnits="userSpaceOnUse" x1="348.9546" y1="-86.6801" x2="202.2784" y2="59.9961" gradientTransform="matrix(1 0 0 -1 0 511.8898)">
	<stop  offset="0" style="stop-color:#F0DDFC;stop-opacity:0"/>
	<stop  offset="0.2889" style="stop-color:#C8B7E0;stop-opacity:0.2902"/>
	<stop  offset="0.5915" style="stop-color:#A595C8;stop-opacity:0.5922"/>
	<stop  offset="0.8395" style="stop-color:#8F81B8;stop-opacity:0.8392"/>
	<stop  offset="1" style="stop-color:#8779B3"/>
</linearGradient>
<path class="st2" d="M413.4,478.1l-81.3-81.3c-1.7-2.5-4.6-4.2-7.9-4.2H60.9v103.1h317C392.4,495.7,405.3,488.8,413.4,478.1z"/>
<linearGradient id="SVGID_4_" gradientUnits="userSpaceOnUse" x1="189.2168" y1="84.9905" x2="189.2168" y2="35.971" gradientTransform="matrix(1 0 0 -1 0 511.8898)">
	<stop  offset="0" style="stop-color:#F9F7FC"/>
	<stop  offset="1" style="stop-color:#F0DDFC"/>
</linearGradient>
<path class="st3" d="M378.4,495.7H44.7C20,495.7,0,475.7,0,451v-48.9c0-5.2,4.3-9.5,9.5-9.5h314.7c5.2,0,9.5,4.3,9.5,9.5V451
	C333.7,475.7,353.7,495.7,378.4,495.7z"/>
<linearGradient id="SVGID_5_" gradientUnits="userSpaceOnUse" x1="379.813" y1="16.9792" x2="382.0663" y2="14.7258" gradientTransform="matrix(1 0 0 -1 0 511.8898)">
	<stop  offset="0" style="stop-color:#F9F7FC"/>
	<stop  offset="1" style="stop-color:#F0DDFC"/>
</linearGradient>
<path class="st4" d="M382.6,495.5v0.2h-4.2C379.8,495.7,381.2,495.6,382.6,495.5z"/>
<linearGradient id="SVGID_6_" gradientUnits="userSpaceOnUse" x1="155.9941" y1="348.4302" x2="155.9941" y2="143.8962" gradientTransform="matrix(1 0 0 -1 0 511.8898)">
	<stop  offset="0" style="stop-color:#4F4A72"/>
	<stop  offset="1" style="stop-color:#3B395F"/>
</linearGradient>
<path class="st5" d="M218.3,220.1H93.7c-1.5,0-2.8-1.2-2.8-2.8v-7.5c0-1.5,1.3-2.8,2.8-2.8h124.7c1.5,0,2.8,1.3,2.8,2.8v7.5
	C221.1,218.8,219.9,220.1,218.3,220.1z"/>
<linearGradient id="SVGID_7_" gradientUnits="userSpaceOnUse" x1="258.3242" y1="348.4302" x2="258.3242" y2="143.8962" gradientTransform="matrix(1 0 0 -1 0 511.8898)">
	<stop  offset="0" style="stop-color:#4F4A72"/>
	<stop  offset="1" style="stop-color:#3B395F"/>
</linearGradient>
<path class="st6" d="M282.1,220.1h-47.5c-1.5,0-2.8-1.2-2.8-2.8v-7.5c0-1.5,1.3-2.8,2.8-2.8h47.5c1.5,0,2.8,1.3,2.8,2.8v7.5
	C284.9,218.8,283.6,220.1,282.1,220.1z"/>
<linearGradient id="SVGID_8_" gradientUnits="userSpaceOnUse" x1="344.6758" y1="348.4302" x2="344.6758" y2="143.8962" gradientTransform="matrix(1 0 0 -1 0 511.8898)">
	<stop  offset="0" style="stop-color:#4F4A72"/>
	<stop  offset="1" style="stop-color:#3B395F"/>
</linearGradient>
<path class="st7" d="M389.8,220.1h-90.2c-1.5,0-2.8-1.2-2.8-2.8v-7.5c0-1.5,1.3-2.8,2.8-2.8h90.2c1.5,0,2.8,1.3,2.8,2.8v7.5
	C392.6,218.8,391.3,220.1,389.8,220.1z"/>
<linearGradient id="SVGID_9_" gradientUnits="userSpaceOnUse" x1="101.988" y1="655.3392" x2="101.988" y2="451.6043" gradientTransform="matrix(-1.0039 0 0 1.0039 429.8392 -356.3585)">
	<stop  offset="0" style="stop-color:#4F4A72"/>
	<stop  offset="1" style="stop-color:#3B395F"/>
</linearGradient>
<path class="st8" d="M265.1,245h124.7c1.5,0,2.8,1.3,2.8,2.8v7.5c0,1.5-1.3,2.8-2.8,2.8H265.1c-1.5,0-2.8-1.3-2.8-2.8v-7.5
	C262.3,246.2,263.6,245,265.1,245z"/>
<linearGradient id="SVGID_10_" gradientUnits="userSpaceOnUse" x1="203.9183" y1="655.3392" x2="203.9183" y2="451.6043" gradientTransform="matrix(-1.0039 0 0 1.0039 429.8392 -356.3585)">
	<stop  offset="0" style="stop-color:#4F4A72"/>
	<stop  offset="1" style="stop-color:#3B395F"/>
</linearGradient>
<path class="st9" d="M201.4,245h47.5c1.5,0,2.8,1.3,2.8,2.8v7.5c0,1.5-1.3,2.8-2.8,2.8h-47.5c-1.5,0-2.8-1.3-2.8-2.8v-7.5
	C198.6,246.2,199.8,245,201.4,245z"/>
<linearGradient id="SVGID_11_" gradientUnits="userSpaceOnUse" x1="289.9326" y1="655.3392" x2="289.9326" y2="451.6043" gradientTransform="matrix(-1.0039 0 0 1.0039 429.8392 -356.3585)">
	<stop  offset="0" style="stop-color:#4F4A72"/>
	<stop  offset="1" style="stop-color:#3B395F"/>
</linearGradient>
<path class="st10" d="M93.7,245h90.2c1.5,0,2.8,1.3,2.8,2.8v7.5c0,1.5-1.3,2.8-2.8,2.8H93.7c-1.5,0-2.8-1.3-2.8-2.8v-7.5
	C90.9,246.2,92.1,245,93.7,245z"/>
<linearGradient id="SVGID_12_" gradientUnits="userSpaceOnUse" x1="155.9941" y1="272.4678" x2="155.9941" y2="67.9339" gradientTransform="matrix(1 0 0 -1 0 511.8898)">
	<stop  offset="0" style="stop-color:#4F4A72"/>
	<stop  offset="1" style="stop-color:#3B395F"/>
</linearGradient>
<path class="st11" d="M218.3,296H93.7c-1.5,0-2.8-1.3-2.8-2.8v-7.5c0-1.5,1.3-2.8,2.8-2.8h124.7c1.5,0,2.8,1.3,2.8,2.8v7.5
	C221.1,294.8,219.9,296,218.3,296z"/>
<linearGradient id="SVGID_13_" gradientUnits="userSpaceOnUse" x1="258.3242" y1="272.4678" x2="258.3242" y2="67.9339" gradientTransform="matrix(1 0 0 -1 0 511.8898)">
	<stop  offset="0" style="stop-color:#4F4A72"/>
	<stop  offset="1" style="stop-color:#3B395F"/>
</linearGradient>
<path class="st12" d="M282.1,296h-47.5c-1.5,0-2.8-1.3-2.8-2.8v-7.5c0-1.5,1.3-2.8,2.8-2.8h47.5c1.5,0,2.8,1.3,2.8,2.8v7.5
	C284.9,294.8,283.6,296,282.1,296z"/>
<linearGradient id="SVGID_14_" gradientUnits="userSpaceOnUse" x1="155.9941" y1="234.4865" x2="155.9941" y2="29.9527" gradientTransform="matrix(1 0 0 -1 0 511.8898)">
	<stop  offset="0" style="stop-color:#4F4A72"/>
	<stop  offset="1" style="stop-color:#3B395F"/>
</linearGradient>
<path class="st13" d="M218.3,334H93.7c-1.5,0-2.8-1.3-2.8-2.8v-7.5c0-1.5,1.3-2.8,2.8-2.8h124.7c1.5,0,2.8,1.3,2.8,2.8v7.5
	C221.1,332.7,219.9,334,218.3,334z"/>
<linearGradient id="SVGID_15_" gradientUnits="userSpaceOnUse" x1="191.1484" y1="196.5054" x2="191.1484" y2="-8.0285" gradientTransform="matrix(1 0 0 -1 0 511.8898)">
	<stop  offset="0" style="stop-color:#4F4A72"/>
	<stop  offset="1" style="stop-color:#3B395F"/>
</linearGradient>
<path class="st14" d="M288.6,372h-195c-1.5,0-2.8-1.3-2.8-2.8v-7.5c0-1.5,1.3-2.8,2.8-2.8h195c1.5,0,2.8,1.2,2.8,2.8v7.5
	C291.4,370.7,290.2,372,288.6,372z"/>
<linearGradient id="SVGID_16_" gradientUnits="userSpaceOnUse" x1="350.207" y1="196.5054" x2="350.207" y2="-8.0285" gradientTransform="matrix(1 0 0 -1 0 511.8898)">
	<stop  offset="0" style="stop-color:#4F4A72"/>
	<stop  offset="1" style="stop-color:#3B395F"/>
</linearGradient>
<path class="st15" d="M389.8,372h-79.2c-1.5,0-2.8-1.3-2.8-2.8v-7.5c0-1.5,1.3-2.8,2.8-2.8h79.2c1.5,0,2.8,1.2,2.8,2.8v7.5
	C392.6,370.7,391.3,372,389.8,372z"/>
<g>
	<path class="st16" d="M458.3,105.4c0,7.6-8.6,13.8-10.9,20.7c-2.3,7.1,0.9,17.2-3.5,23.1c-4.4,6-15,6-21.1,10.4
		c-6,4.3-9.3,14.4-16.5,16.7c-6.9,2.2-15.5-3.9-23.2-3.9s-16.3,6.1-23.2,3.9c-7.2-2.3-10.5-12.4-16.5-16.7
		c-6.1-4.4-16.7-4.4-21.1-10.4c-4.4-6-1.1-16-3.5-23.1c-2.3-6.9-10.9-13.1-10.9-20.7s8.6-13.8,10.9-20.7c2.3-7.1-0.9-17.2,3.5-23.1
		c4.4-6,15-6,21.1-10.4c6-4.3,9.3-14.4,16.5-16.7c6.9-2.2,15.5,3.9,23.2,3.9s16.3-6.1,23.2-3.9c7.2,2.3,10.5,12.4,16.5,16.7
		c6.1,4.4,16.7,4.4,21.1,10.4c4.4,6,1.1,16,3.5,23.1C449.7,91.5,458.3,97.7,458.3,105.4z"/>
	<polygon class="st17" points="349.3,102 349.3,263.8 378,238.2 406.7,263.8 406.7,102 	"/>
	<polygon class="st18" points="378,102 378,238.2 406.7,263.8 406.7,102 	"/>
	<path class="st19" d="M349.3,175.7c1.6,1.7,3.4,3,5.5,3.7c6.9,2.2,15.5-3.9,23.2-3.9s16.3,6.1,23.2,3.9c2.1-0.7,3.9-2.1,5.5-3.7
		v-73.8h-57.4L349.3,175.7L349.3,175.7z"/>
	<path class="st18" d="M453.2,102c0,7.6-8.6,13.8-10.9,20.7c-2.3,7.1,0.9,17.2-3.5,23.1c-4.4,6-15,6-21.1,10.4
		c-6,4.3-9.3,14.4-16.5,16.7c-6.9,2.2-15.5-3.9-23.2-3.9s-16.3,6.1-23.2,3.9c-7.2-2.3-10.5-12.4-16.5-16.7
		c-6.1-4.4-16.7-4.4-21.1-10.4c-4.4-6-1.1-16-3.5-23.1c-2.3-6.9-10.9-13.1-10.9-20.7s8.6-13.8,10.9-20.7c2.3-7.1-0.9-17.2,3.5-23.1
		c4.4-6,15-6,21.1-10.4c6-4.3,9.3-14.4,16.5-16.7c6.9-2.2,15.5,3.9,23.2,3.9s16.3-6.1,23.2-3.9c7.2,2.3,10.5,12.4,16.5,16.7
		c6.1,4.4,16.7,4.4,21.1,10.4c4.4,6,1.1,16,3.5,23.1C444.6,88.1,453.2,94.3,453.2,102z"/>
	<ellipse class="st20" cx="378" cy="102" rx="56" ry="55.6"/>
	<ellipse class="st19" cx="378" cy="102" rx="48.5" ry="48.1"/>
	<ellipse class="st20" cx="378" cy="102" rx="34.9" ry="34.6"/>
	<path class="st18" d="M400.1,102c0,12.1-9.9,21.9-22.1,21.9s-22.1-9.8-22.1-21.9s9.9-21.9,22.1-21.9S400.1,89.9,400.1,102z"/>
</g>
</svg>
