<?xml version="1.0" encoding="utf-8"?>
<!-- Generator: Adobe Illustrator 23.1.1, SVG Export Plug-In . SVG Version: 6.00 Build 0)  -->
<svg version="1.1" id="Capa_1" xmlns="http://www.w3.org/2000/svg" xmlns:xlink="http://www.w3.org/1999/xlink" x="0px" y="0px"
	 viewBox="0 0 512 512" style="enable-background:new 0 0 512 512;" xml:space="preserve">
<style type="text/css">
	.st0{fill:url(#SVGID_1_);}
	.st1{fill:url(#SVGID_2_);}
	.st2{fill:url(#SVGID_3_);}
	.st3{fill:url(#SVGID_4_);}
	.st4{fill:url(#SVGID_5_);}
	.st5{fill:url(#SVGID_6_);}
	.st6{fill:url(#SVGID_7_);}
	.st7{fill:url(#SVGID_8_);}
	.st8{fill:url(#SVGID_9_);}
	.st9{fill:url(#SVGID_10_);}
	.st10{fill:url(#SVGID_11_);}
	.st11{fill:url(#SVGID_12_);}
	.st12{fill:url(#SVGID_13_);}
</style>
<linearGradient id="SVGID_1_" gradientUnits="userSpaceOnUse" x1="164.441" y1="63.861" x2="181.1609" y2="-48.7203" gradientTransform="matrix(1 0 0 -1 0 512)">
	<stop  offset="0" style="stop-color:#ACC130"/>
	<stop  offset="0.3485" style="stop-color:#A9BD31"/>
	<stop  offset="0.6956" style="stop-color:#A2B135"/>
	<stop  offset="1" style="stop-color:#97A03B"/>
</linearGradient>
<path class="st0" d="M327.8,512.8H24.2c-9,0-16.4-7.2-16.4-16.2c0-0.1,0-0.1,0-0.2c0-22.3,8.7-42.6,22.9-57.7
	c5.4-5.5,11.4-10.4,18-14.5c14.6-9.1,31.8-14.3,50.3-14.3c27.2,0,51.8,11.4,69.2,29.7c4.4,4.6,10.8,6.5,16.9,4.8
	c4.1-1.1,8.4-1.7,12.9-1.7c14.1,0,26.8,5.9,35.8,15.3c4.7,5,11.9,6.7,18.4,4.3c7-2.5,14.5-3.9,22.4-3.9c28,0,51.9,17.6,61.3,42.2
	C338.3,506.6,334,512.8,327.8,512.8z"/>
<linearGradient id="SVGID_2_" gradientUnits="userSpaceOnUse" x1="331.9879" y1="63.8607" x2="348.7078" y2="-48.7206" gradientTransform="matrix(1 0 0 -1 0 512)">
	<stop  offset="0" style="stop-color:#ACC130"/>
	<stop  offset="0.3485" style="stop-color:#A9BD31"/>
	<stop  offset="0.6956" style="stop-color:#A2B135"/>
	<stop  offset="1" style="stop-color:#97A03B"/>
</linearGradient>
<path class="st1" d="M495.3,512.8H191.8c-9,0-16.4-7.2-16.4-16.2c0-0.1,0-0.1,0-0.2c0-22.3,8.7-42.6,22.9-57.7
	c5.4-5.5,11.4-10.4,18-14.5c14.6-9.1,31.8-14.3,50.3-14.3c27.2,0,51.8,11.4,69.2,29.7c4.4,4.6,10.8,6.5,16.9,4.8
	c4.1-1.1,8.4-1.7,12.9-1.7c14.1,0,26.8,5.9,35.8,15.3c4.7,5,11.9,6.7,18.4,4.3c7-2.5,14.5-3.9,22.4-3.9c28,0,51.9,17.6,61.3,42.2
	C505.8,506.6,501.5,512.8,495.3,512.8z"/>
<linearGradient id="SVGID_3_" gradientUnits="userSpaceOnUse" x1="364.6889" y1="-62.5188" x2="257.3017" y2="44.8684" gradientTransform="matrix(1 0 0 -1 0 512)">
	<stop  offset="0" style="stop-color:#97A03B;stop-opacity:0"/>
	<stop  offset="0.3281" style="stop-color:#7E8545;stop-opacity:0.3294"/>
	<stop  offset="0.7568" style="stop-color:#626751;stop-opacity:0.7569"/>
	<stop  offset="1" style="stop-color:#575C55"/>
</linearGradient>
<path class="st2" d="M335.8,439.7c-17.4-18.3-42-29.7-69.2-29.7c-18.5,0-35.7,5.2-50.3,14.3c-6.6,4.1-12.6,8.9-18,14.5
	c-14.2,15-22.9,35.3-22.9,57.7v0.2c0,9,7.4,16.2,16.4,16.2h229.3l-68.3-68.3C346.7,446.2,340.2,444.3,335.8,439.7z"/>
<linearGradient id="SVGID_4_" gradientUnits="userSpaceOnUse" x1="202.9023" y1="202.0006" x2="401.2968" y2="202.0006" gradientTransform="matrix(1 0 0 -1 0 512)">
	<stop  offset="0" style="stop-color:#FF4B3E"/>
	<stop  offset="0.1888" style="stop-color:#FB4A3C"/>
	<stop  offset="0.3876" style="stop-color:#EE4635"/>
	<stop  offset="0.5911" style="stop-color:#D9402A"/>
	<stop  offset="0.7963" style="stop-color:#BC381A"/>
	<stop  offset="1" style="stop-color:#972E07"/>
</linearGradient>
<path class="st3" d="M355.7,487.9H156.3l17.5-279.8c3.4-42.9,39.2-75.9,82.2-75.9c43,0,78.8,33,82.2,75.9L355.7,487.9z"/>
<linearGradient id="SVGID_5_" gradientUnits="userSpaceOnUse" x1="322.8529" y1="173.5801" x2="182.3687" y2="366.512" gradientTransform="matrix(1 0 0 -1 0 512)">
	<stop  offset="0" style="stop-color:#972E07;stop-opacity:0"/>
	<stop  offset="1" style="stop-color:#582707"/>
</linearGradient>
<path class="st4" d="M168.3,298.3l187.2,187.2l-17.3-277.5c-3.4-42.9-39.2-75.9-82.2-75.9s-78.8,33-82.2,75.9l-5.6,89.9L168.3,298.3
	z"/>
<linearGradient id="SVGID_6_" gradientUnits="userSpaceOnUse" x1="228.8927" y1="344.2382" x2="316.6673" y2="256.4636" gradientTransform="matrix(1 0 0 -1 0 512)">
	<stop  offset="0" style="stop-color:#FFE548"/>
	<stop  offset="0.2472" style="stop-color:#FFE042"/>
	<stop  offset="0.5621" style="stop-color:#FFD133"/>
	<stop  offset="0.9123" style="stop-color:#FFB919"/>
	<stop  offset="1" style="stop-color:#FFB211"/>
</linearGradient>
<path class="st5" d="M256,132.1c-43,0-78.8,33-82.2,75.9l-0.1,1.4h164.7l-0.1-1.4C334.8,165.2,299,132.1,256,132.1z"/>
<linearGradient id="SVGID_7_" gradientUnits="userSpaceOnUse" x1="255.9987" y1="-61.2263" x2="255.9987" y2="158.4983" gradientTransform="matrix(1 0 0 -1 0 512)">
	<stop  offset="0" style="stop-color:#972E07;stop-opacity:0"/>
	<stop  offset="1" style="stop-color:#582707"/>
</linearGradient>
<path class="st6" d="M297.1,487.9h-82.2v-82.2c0-22.7,18.4-41.1,41.1-41.1s41.1,18.4,41.1,41.1V487.9z"/>
<linearGradient id="SVGID_8_" gradientUnits="userSpaceOnUse" x1="254.7515" y1="49.336" x2="257.1513" y2="-13.0602" gradientTransform="matrix(1 0 0 -1 0 512)">
	<stop  offset="0" style="stop-color:#F2E9DC"/>
	<stop  offset="0.2282" style="stop-color:#F0E4D7"/>
	<stop  offset="0.5158" style="stop-color:#EAD7C7"/>
	<stop  offset="0.8338" style="stop-color:#E0C2AD"/>
	<stop  offset="1" style="stop-color:#DAB49D"/>
</linearGradient>
<path class="st7" d="M349.9,512.8H162.1c-9.8,0-17.7-7.9-17.7-17.7c0-9.8,7.9-17.7,17.7-17.7h187.7c9.8,0,17.7,7.9,17.7,17.7
	C367.6,504.9,359.6,512.8,349.9,512.8z"/>
<linearGradient id="SVGID_9_" gradientUnits="userSpaceOnUse" x1="202.3348" y1="407.5948" x2="309.6665" y2="407.5948" gradientTransform="matrix(1 0 0 -1 0 512)">
	<stop  offset="0" style="stop-color:#F2E9DC"/>
	<stop  offset="0.2282" style="stop-color:#F0E4D7"/>
	<stop  offset="0.5158" style="stop-color:#EAD7C7"/>
	<stop  offset="0.8338" style="stop-color:#E0C2AD"/>
	<stop  offset="1" style="stop-color:#DAB49D"/>
</linearGradient>
<path class="st8" d="M265.7,208h-19.5c-10.3,0-19.1-7.6-20.5-17.8L202.5,22.6c-0.9-6.7,3.1-13.1,9.5-15.1c28.6-9,59.3-9,88,0
	c6.4,2,10.5,8.4,9.5,15.1l-23.3,167.5C284.8,200.4,276.1,208,265.7,208z"/>
<linearGradient id="SVGID_10_" gradientUnits="userSpaceOnUse" x1="370.8186" y1="-59.8189" x2="477.7275" y2="-59.8189" gradientTransform="matrix(-0.448 0.8984 0.8984 0.448 597.735 -99.7545)">
	<stop  offset="0" style="stop-color:#F2E9DC"/>
	<stop  offset="0.2282" style="stop-color:#F0E4D7"/>
	<stop  offset="0.5158" style="stop-color:#EAD7C7"/>
	<stop  offset="0.8338" style="stop-color:#E0C2AD"/>
	<stop  offset="1" style="stop-color:#DAB49D"/>
</linearGradient>
<path class="st9" d="M256.9,217.1l8.7-17.4c4.6-9.2,15.3-13.7,25.1-10.4L451,243.2c6.4,2.1,10.3,8.6,9.2,15.3
	c-4.8,29.6-18.5,57.1-39.3,78.7c-4.7,4.9-12.2,5.6-17.8,1.8l-139.5-95.6C255.2,237.6,252.3,226.3,256.9,217.1z"/>
<linearGradient id="SVGID_11_" gradientUnits="userSpaceOnUse" x1="99.96" y1="483.2983" x2="206.8701" y2="483.2983" gradientTransform="matrix(0.448 0.8984 -0.8984 0.448 523.5654 -99.7545)">
	<stop  offset="0" style="stop-color:#F2E9DC"/>
	<stop  offset="0.2282" style="stop-color:#F0E4D7"/>
	<stop  offset="0.5158" style="stop-color:#EAD7C7"/>
	<stop  offset="0.8338" style="stop-color:#E0C2AD"/>
	<stop  offset="1" style="stop-color:#DAB49D"/>
</linearGradient>
<path class="st10" d="M255.1,217.1l-8.7-17.4c-4.6-9.2-15.3-13.7-25.1-10.4L61,243.2c-6.4,2.1-10.3,8.6-9.2,15.3
	c4.8,29.6,18.5,57.1,39.3,78.7c4.7,4.9,12.2,5.6,17.7,1.8l139.5-95.6C256.8,237.6,259.7,226.3,255.1,217.1z"/>
<linearGradient id="SVGID_12_" gradientUnits="userSpaceOnUse" x1="338.7932" y1="237.8705" x2="257.7885" y2="318.8752" gradientTransform="matrix(1 0 0 -1 0 512)">
	<stop  offset="0" style="stop-color:#DAB49D;stop-opacity:0"/>
	<stop  offset="0.4385" style="stop-color:#CE9E7A;stop-opacity:0.4392"/>
	<stop  offset="1" style="stop-color:#C08552"/>
</linearGradient>
<path class="st11" d="M303,193.5l-12.4-4.2c-9.8-3.3-20.5,1.1-25.1,10.4l-8.7,17.4c-4.6,9.2-1.7,20.4,6.8,26.3l80.5,55.2l21.1-42.9
	L303,193.5z"/>
<radialGradient id="SVGID_13_" cx="244.9674" cy="329.6209" r="85.3192" gradientTransform="matrix(1 0 0 -1 0 512)" gradientUnits="userSpaceOnUse">
	<stop  offset="0" style="stop-color:#FFB211"/>
	<stop  offset="0.2038" style="stop-color:#FFAE13"/>
	<stop  offset="0.3994" style="stop-color:#FFA318"/>
	<stop  offset="0.5916" style="stop-color:#FF8F20"/>
	<stop  offset="0.7818" style="stop-color:#FF742C"/>
	<stop  offset="0.9689" style="stop-color:#FF523B"/>
	<stop  offset="1" style="stop-color:#FF4B3E"/>
</radialGradient>
<path class="st12" d="M304.7,208.3c0,26.9-21.8,48.7-48.7,48.7c-26.9,0-48.7-21.8-48.7-48.7s21.8-48.7,48.7-48.7
	C282.9,159.6,304.7,181.4,304.7,208.3z"/>
</svg>
