<?xml version="1.0" encoding="utf-8"?>
<!-- Generator: Adobe Illustrator 23.1.1, SVG Export Plug-In . SVG Version: 6.00 Build 0)  -->
<svg version="1.1" id="Capa_1" xmlns="http://www.w3.org/2000/svg" xmlns:xlink="http://www.w3.org/1999/xlink" x="0px" y="0px"
	 viewBox="0 0 512 512" style="enable-background:new 0 0 512 512;" xml:space="preserve">
<style type="text/css">
	.st0{fill:url(#SVGID_1_);}
	.st1{fill:url(#SVGID_2_);}
	.st2{fill:url(#SVGID_3_);}
	.st3{fill:url(#SVGID_4_);}
	.st4{fill:url(#SVGID_5_);}
	.st5{fill:url(#SVGID_6_);}
	.st6{fill:url(#SVGID_7_);}
	.st7{fill:url(#SVGID_8_);}
	.st8{fill:url(#SVGID_9_);}
	.st9{fill:url(#SVGID_10_);}
	.st10{fill:url(#SVGID_11_);}
	.st11{fill:url(#SVGID_12_);}
	.st12{fill:url(#SVGID_13_);}
	.st13{fill:url(#SVGID_14_);}
	.st14{fill:url(#SVGID_15_);}
	.st15{fill:url(#SVGID_16_);}
	.st16{fill:url(#SVGID_17_);}
</style>
<g>
	<g>
		<g>
			
				<linearGradient id="SVGID_1_" gradientUnits="userSpaceOnUse" x1="298.1529" y1="158.5029" x2="426.4509" y2="30.2039" gradientTransform="matrix(1.0039 0 0 -1.0039 0.1608 514.5443)">
				<stop  offset="0" style="stop-color:#FFCE47"/>
				<stop  offset="1" style="stop-color:#FF9356"/>
			</linearGradient>
			<path class="st0" d="M431.6,210l-154.4,88.5c-13.1,7.5-29.3,7.5-42.4,0L80.4,210c-4.9,8.4-7.6,18.1-7.6,28.1v145
				c0,10,2.7,19.7,7.6,28.1c4.9,8.4,11.9,15.5,20.6,20.5l127.1,72.8c8.6,5,18.3,7.4,27.9,7.4c9.6,0,19.3-2.5,27.9-7.4L411,431.7
				c8.7-5,15.7-12.1,20.6-20.5c4.9-8.4,7.6-18.1,7.6-28.1v-145C439.2,228.1,436.5,218.4,431.6,210L431.6,210z"/>
			
				<linearGradient id="SVGID_2_" gradientUnits="userSpaceOnUse" x1="121.3803" y1="200.9493" x2="270.7273" y2="51.6023" gradientTransform="matrix(1.0039 0 0 -1.0039 0.1608 514.5443)">
				<stop  offset="0" style="stop-color:#FFCE47"/>
				<stop  offset="1" style="stop-color:#FF9356"/>
			</linearGradient>
			<path class="st1" d="M234.8,298.4L80.4,210c-4.9,8.4-7.6,18.1-7.6,28.1v145c0,10,2.7,19.7,7.6,28.1c4.9,8.4,11.9,15.5,20.6,20.5
				l127.1,72.8c8.6,5,18.3,7.4,27.9,7.4V304.1C248.7,304.1,241.3,302.2,234.8,298.4z"/>
			
				<linearGradient id="SVGID_3_" gradientUnits="userSpaceOnUse" x1="254.8393" y1="331.2173" x2="254.8393" y2="268.2893" gradientTransform="matrix(1.0039 0 0 -1.0039 0.1608 514.5443)">
				<stop  offset="0" style="stop-color:#FF9356"/>
				<stop  offset="1" style="stop-color:#FF755C"/>
			</linearGradient>
			<path class="st2" d="M431.6,210L256,310.6L80.4,210c9.1-5.7,147.7-93.3,147.7-93.3c17.3-9.9,38.5-9.9,55.8,0
				C283.9,116.6,422.9,204.5,431.6,210L431.6,210z"/>
			
				<linearGradient id="SVGID_4_" gradientUnits="userSpaceOnUse" x1="254.8393" y1="334.4173" x2="254.8393" y2="261.8903" gradientTransform="matrix(1.0039 0 0 -1.0039 0.1608 514.5443)">
				<stop  offset="0" style="stop-color:#843561;stop-opacity:0"/>
				<stop  offset="1" style="stop-color:#3A2F4D"/>
			</linearGradient>
			<path class="st3" d="M431.6,210L256,310.6L80.4,210c8.6-5.4,147.7-93.3,147.7-93.3c17.3-9.9,38.5-9.9,55.8,0
				C283.9,116.6,422.8,204.5,431.6,210L431.6,210z"/>
		</g>
		
			<linearGradient id="SVGID_5_" gradientUnits="userSpaceOnUse" x1="323.5718" y1="69.7191" x2="251.5828" y2="242.4951" gradientTransform="matrix(1.0039 0 0 -1.0039 0.1608 514.5443)">
			<stop  offset="0" style="stop-color:#FF9356;stop-opacity:0"/>
			<stop  offset="1" style="stop-color:#FF755C"/>
		</linearGradient>
		<path class="st4" d="M439.2,238.1v145c0,10-2.7,19.7-7.6,28.1c-4.9,8.4-11.9,15.5-20.6,20.5l-127.1,72.8c-8.7,5-18.3,7.4-27.9,7.4
			c-0.7,0-1.5,0-2.2-0.1l-181-181v-92.8c0-10,2.7-19.7,7.6-28.1L256,310.6L431.6,210C436.5,218.4,439.2,228.1,439.2,238.1
			L439.2,238.1z"/>
		
			<linearGradient id="SVGID_6_" gradientUnits="userSpaceOnUse" x1="89.5005" y1="253.8985" x2="215.3935" y2="128.0044" gradientTransform="matrix(1.0039 0 0 -1.0039 0.1608 514.5443)">
			<stop  offset="0" style="stop-color:#FFCE47"/>
			<stop  offset="1" style="stop-color:#FF9356"/>
		</linearGradient>
		<path class="st5" d="M256,310.6l-69.8,69.8c-5.8,5.8-14.8,7-22,2.9L11.8,296c-5.6-3.2-6.6-10.9-2.1-15.4L80.4,210L256,310.6z"/>
		
			<linearGradient id="SVGID_7_" gradientUnits="userSpaceOnUse" x1="332.8855" y1="269.0424" x2="422.4775" y2="166.6514" gradientTransform="matrix(1.0039 0 0 -1.0039 0.1608 514.5443)">
			<stop  offset="0" style="stop-color:#FFCE47"/>
			<stop  offset="1" style="stop-color:#FF9356"/>
		</linearGradient>
		<path class="st6" d="M256,310.6l69.8,69.8c5.8,5.8,14.8,7,22,2.9L500.2,296c5.6-3.2,6.6-10.9,2.1-15.4L431.6,210L256,310.6z"/>
	</g>
	
		<linearGradient id="SVGID_8_" gradientUnits="userSpaceOnUse" x1="95.9768" y1="413.6983" x2="95.9768" y2="321.2193" gradientTransform="matrix(1.0039 0 0 -1.0039 0.1608 514.5443)">
		<stop  offset="0" style="stop-color:#FFCE47"/>
		<stop  offset="1" style="stop-color:#FF9356"/>
	</linearGradient>
	<path class="st7" d="M135.6,85.6L94.3,0H61C40.7,0,29,23,40.9,39.4l26.9,37C93,111.2,106.6,153,106.6,196v29l50.3,28.8v-69.2
		C156.9,149,149.4,114.4,135.6,85.6L135.6,85.6z"/>
	
		<linearGradient id="SVGID_9_" gradientUnits="userSpaceOnUse" x1="413.7024" y1="432.1863" x2="413.7024" y2="377.4353" gradientTransform="matrix(1.0039 0 0 -1.0039 0.1608 514.5443)">
		<stop  offset="0" style="stop-color:#FF755C"/>
		<stop  offset="1" style="stop-color:#FF4181"/>
	</linearGradient>
	<path class="st8" d="M451,0h-33.3l-41.3,85.6c-13.9,28.8-21.3,63.4-21.3,99v69.2l50.3-28.8v-29c0-43,13.6-84.8,38.8-119.6l26.9-37
		C483,23,471.3,0,451,0L451,0z"/>
	
		<linearGradient id="SVGID_10_" gradientUnits="userSpaceOnUse" x1="159.3483" y1="425.0753" x2="159.3483" y2="300.6093" gradientTransform="matrix(1.0039 0 0 -1.0039 0.1608 514.5443)">
		<stop  offset="0" style="stop-color:#E4E08E"/>
		<stop  offset="1" style="stop-color:#6FA953"/>
	</linearGradient>
	<path class="st9" d="M226,184.6c0-35.6-2.3-70.2-6.5-99L207,0H94.3l41.3,85.6c13.9,28.8,21.3,63.4,21.3,99v69.2l69.1,39.6V184.6z"
		/>
	
		<linearGradient id="SVGID_11_" gradientUnits="userSpaceOnUse" x1="350.3298" y1="393.7893" x2="350.3298" y2="280.2313" gradientTransform="matrix(1.0039 0 0 -1.0039 0.1608 514.5443)">
		<stop  offset="0" style="stop-color:#FF4181"/>
		<stop  offset="1" style="stop-color:#843561"/>
	</linearGradient>
	<path class="st10" d="M376.4,85.6L417.7,0H305l-12.5,85.6c-4.2,28.8-6.5,63.4-6.5,99v108.8l69.1-39.6v-69.2
		C355.1,149,362.6,114.4,376.4,85.6L376.4,85.6z"/>
	
		<linearGradient id="SVGID_12_" gradientUnits="userSpaceOnUse" x1="254.8393" y1="447.8293" x2="254.8393" y2="323.3953" gradientTransform="matrix(1.0039 0 0 -1.0039 0.1608 514.5443)">
		<stop  offset="0" style="stop-color:#7ACBFF"/>
		<stop  offset="1" style="stop-color:#45A2E0"/>
	</linearGradient>
	<path class="st11" d="M286,184.6c0-35.6,2.3-70.2,6.5-99L305,0h-98l12.5,85.6c4.2,28.8,6.5,63.4,6.5,99v108.8l30,17.2l30-17.2
		L286,184.6z"/>
	
		<linearGradient id="SVGID_13_" gradientUnits="userSpaceOnUse" x1="128.0658" y1="333.3503" x2="128.0658" y2="286.9053" gradientTransform="matrix(1.0039 0 0 -1.0039 0.1608 514.5443)">
		<stop  offset="0" style="stop-color:#FF9356;stop-opacity:0"/>
		<stop  offset="1" style="stop-color:#FF755C"/>
	</linearGradient>
	<path class="st12" d="M106.6,196v29l50.3,28.8v-69.2c0-12.8-1-25.6-2.9-37.9h-53.5C104.6,162.7,106.6,179.3,106.6,196L106.6,196z"
		/>
	
		<linearGradient id="SVGID_14_" gradientUnits="userSpaceOnUse" x1="189.0828" y1="339.2163" x2="189.0828" y2="245.8783" gradientTransform="matrix(1.0039 0 0 -1.0039 0.1608 514.5443)">
		<stop  offset="0" style="stop-color:#43765A;stop-opacity:0"/>
		<stop  offset="1" style="stop-color:#43765A"/>
	</linearGradient>
	<path class="st13" d="M156.9,184.6v69.2l69.1,39.6V184.6c0-12.8-0.3-25.6-0.9-37.9H154C155.9,159.1,156.9,171.8,156.9,184.6
		L156.9,184.6z"/>
	
		<linearGradient id="SVGID_15_" gradientUnits="userSpaceOnUse" x1="254.8393" y1="335.4833" x2="254.8393" y2="202.0803" gradientTransform="matrix(1.0039 0 0 -1.0039 0.1608 514.5443)">
		<stop  offset="0" style="stop-color:#174461;stop-opacity:0"/>
		<stop  offset="1" style="stop-color:#174461"/>
	</linearGradient>
	<path class="st14" d="M225.1,146.7c0.6,12.4,0.9,25.1,0.9,37.9v108.8l30,17.2l30-17.2V184.6c0-12.8,0.3-25.6,0.9-37.9L225.1,146.7z
		"/>
	
		<linearGradient id="SVGID_16_" gradientUnits="userSpaceOnUse" x1="320.5958" y1="313.5873" x2="320.5958" y2="267.7523" gradientTransform="matrix(1.0039 0 0 -1.0039 0.1608 514.5443)">
		<stop  offset="0" style="stop-color:#843561;stop-opacity:0"/>
		<stop  offset="1" style="stop-color:#3A2F4D"/>
	</linearGradient>
	<path class="st15" d="M286.9,146.7c-0.6,12.4-0.9,25.1-0.9,37.9v108.8l69.1-39.6v-69.2c0-12.8,1-25.6,2.9-37.9L286.9,146.7z"/>
	
		<linearGradient id="SVGID_17_" gradientUnits="userSpaceOnUse" x1="381.6128" y1="338.1503" x2="381.6128" y2="259.1783" gradientTransform="matrix(1.0039 0 0 -1.0039 0.1608 514.5443)">
		<stop  offset="0" style="stop-color:#843561;stop-opacity:0"/>
		<stop  offset="1" style="stop-color:#3A2F4D"/>
	</linearGradient>
	<path class="st16" d="M358,146.7c-1.9,12.4-2.9,25.1-2.9,37.9v69.2l50.3-28.8v-29c0-16.7,2.1-33.3,6.1-49.3L358,146.7z"/>
</g>
</svg>
