<?xml version="1.0" encoding="utf-8"?>
<!-- Generator: Adobe Illustrator 23.1.1, SVG Export Plug-In . SVG Version: 6.00 Build 0)  -->
<svg version="1.1" id="Capa_1" xmlns="http://www.w3.org/2000/svg" xmlns:xlink="http://www.w3.org/1999/xlink" x="0px" y="0px"
	 viewBox="0 0 512 512" style="enable-background:new 0 0 512 512;" xml:space="preserve">
<style type="text/css">
	.st0{fill:url(#SVGID_1_);}
	.st1{fill:url(#SVGID_2_);}
	.st2{fill:url(#SVGID_3_);}
	.st3{fill:#474747;}
</style>
<linearGradient id="SVGID_1_" gradientUnits="userSpaceOnUse" x1="1.7155" y1="256.0223" x2="511.6143" y2="256.0223">
	<stop  offset="0" style="stop-color:#FF9102"/>
	<stop  offset="1" style="stop-color:#FFC200"/>
</linearGradient>
<path class="st0" d="M1.7,423.3L89.4,511L511.6,88.7L424,1.1L1.7,423.3z M82.7,455.8c-13.6,13.6-39.7-12.4-26.1-26.1
	C70.3,416.1,96.3,442.1,82.7,455.8z"/>
<linearGradient id="SVGID_2_" gradientUnits="userSpaceOnUse" x1="45.5336" y1="277.931" x2="511.6143" y2="277.931">
	<stop  offset="0" style="stop-color:#FF9102"/>
	<stop  offset="1" style="stop-color:#FFC200"/>
</linearGradient>
<path class="st1" d="M80,432.7c6.4,6.5,9.5,16.3,2.7,23.1c-6.8,6.8-16.6,3.7-23.1-2.7l-14.1,14.1L89.4,511L511.6,88.7l-43.8-43.8
	L80,432.7z"/>
<linearGradient id="SVGID_3_" gradientUnits="userSpaceOnUse" x1="28.1547" y1="256.0224" x2="485.1751" y2="256.0224">
	<stop  offset="0" style="stop-color:#FF9102"/>
	<stop  offset="1" style="stop-color:#FFC200"/>
</linearGradient>
<path class="st2" d="M28.2,449.8l34.8,34.8L485.2,62.3l-34.8-34.8L28.2,449.8z M82.7,455.8c-13.6,13.6-39.7-12.4-26.1-26.1
	C70.3,416.1,96.3,442.1,82.7,455.8z"/>
<g>
	
		<rect x="26.6" y="406" transform="matrix(0.7071 -0.7071 0.7071 0.7071 -296.3221 147.1959)" class="st3" width="5.9" height="50.6"/>
	
		<rect x="66.8" y="365.8" transform="matrix(0.7071 -0.7071 0.7071 0.7071 -256.0824 163.8622)" class="st3" width="5.9" height="50.6"/>
	
		<rect x="107.1" y="325.5" transform="matrix(0.7071 -0.7071 0.7071 0.7071 -215.8443 180.5309)" class="st3" width="5.9" height="50.6"/>
	
		<rect x="147.3" y="285.3" transform="matrix(0.707 -0.7072 0.7072 0.707 -175.6187 197.2358)" class="st3" width="5.9" height="50.6"/>
	
		<rect x="187.5" y="245.1" transform="matrix(0.7071 -0.7071 0.7071 0.7071 -135.3669 213.8657)" class="st3" width="5.9" height="50.6"/>
	
		<rect x="227.8" y="204.8" transform="matrix(0.7072 -0.707 0.707 0.7072 -95.1283 230.499)" class="st3" width="5.9" height="50.6"/>
	
		<rect x="268" y="164.6" transform="matrix(0.7071 -0.7071 0.7071 0.7071 -54.8895 247.2005)" class="st3" width="5.9" height="50.6"/>
	
		<rect x="308.3" y="124.3" transform="matrix(0.7071 -0.7071 0.7071 0.7071 -14.6501 263.8696)" class="st3" width="5.9" height="50.6"/>
	
		<rect x="348.5" y="84.1" transform="matrix(0.7071 -0.7071 0.7071 0.7071 25.5882 280.5355)" class="st3" width="5.9" height="50.6"/>
	
		<rect x="388.7" y="43.9" transform="matrix(0.7071 -0.7071 0.7071 0.7071 65.8268 297.2029)" class="st3" width="5.9" height="50.6"/>
	
		<rect x="429" y="3.6" transform="matrix(0.7071 -0.7071 0.7071 0.7071 106.0624 313.8667)" class="st3" width="5.9" height="50.6"/>
</g>
</svg>
