<?xml version="1.0" encoding="utf-8"?>
<!-- Generator: Adobe Illustrator 23.1.1, SVG Export Plug-In . SVG Version: 6.00 Build 0)  -->
<svg version="1.1" id="Capa_1" xmlns="http://www.w3.org/2000/svg" xmlns:xlink="http://www.w3.org/1999/xlink" x="0px" y="0px"
	 viewBox="0 0 512 512" style="enable-background:new 0 0 512 512;" xml:space="preserve">
<style type="text/css">
	.st0{fill:url(#SVGID_1_);}
	.st1{fill:url(#SVGID_2_);}
	.st2{fill:url(#SVGID_3_);}
	.st3{fill:url(#SVGID_4_);}
	.st4{fill:url(#SVGID_5_);}
	.st5{fill:url(#SVGID_6_);}
	.st6{fill:url(#SVGID_7_);}
	.st7{fill:url(#SVGID_8_);}
	.st8{fill:url(#SVGID_9_);}
	.st9{fill:url(#SVGID_10_);}
	.st10{fill:url(#SVGID_11_);}
	.st11{fill:url(#SVGID_12_);}
	.st12{fill:url(#SVGID_13_);}
	.st13{fill:url(#SVGID_14_);}
	.st14{fill:url(#SVGID_15_);}
	.st15{fill:url(#SVGID_16_);}
	.st16{fill:url(#SVGID_17_);}
	.st17{fill:url(#SVGID_18_);}
	.st18{fill:url(#SVGID_19_);}
	.st19{fill:url(#SVGID_20_);}
	.st20{fill:url(#SVGID_21_);}
	.st21{fill:url(#SVGID_22_);}
	.st22{fill:url(#SVGID_23_);}
	.st23{fill:#C7E9FF;}
	.st24{fill:url(#SVGID_24_);}
</style>
<g>
	<g>
		
			<linearGradient id="SVGID_1_" gradientUnits="userSpaceOnUse" x1="123.6253" y1="391.2163" x2="514.0283" y2="0.8133" gradientTransform="matrix(1.0039 0 0 -1.0039 0.1608 514.5443)">
			<stop  offset="0" style="stop-color:#FFCE47"/>
			<stop  offset="1" style="stop-color:#FF9356"/>
		</linearGradient>
		<path class="st0" d="M492.7,423.4H19.3C8.7,423.4,0,414.8,0,404.1V103c0-10.7,8.7-19.3,19.3-19.3h473.3c10.7,0,19.3,8.7,19.3,19.3
			v301.1C512,414.8,503.3,423.4,492.7,423.4z"/>
		
			<linearGradient id="SVGID_2_" gradientUnits="userSpaceOnUse" x1="3240.7209" y1="1798.1145" x2="3605.0129" y2="1433.8235" gradientTransform="matrix(-1.0039 0 0 1.0039 3632.3491 -1428.7242)">
			<stop  offset="0" style="stop-color:#FFCE47"/>
			<stop  offset="1" style="stop-color:#FF9356"/>
		</linearGradient>
		<path class="st1" d="M32.8,97.3h446.4c9.9,0,18,8.1,18,18v276.4c0,9.9-8.1,18-18,18H32.8c-9.9,0-18-8.1-18-18V115.3
			C14.8,105.4,22.9,97.3,32.8,97.3L32.8,97.3z"/>
		
			<linearGradient id="SVGID_3_" gradientUnits="userSpaceOnUse" x1="254.8398" y1="174.7043" x2="254.8398" y2="76.7023" gradientTransform="matrix(1.0039 0 0 -1.0039 0.1608 514.5443)">
			<stop  offset="0" style="stop-color:#FF9356;stop-opacity:0"/>
			<stop  offset="1" style="stop-color:#FF4181"/>
		</linearGradient>
		<path class="st2" d="M0,306.4v97.7c0,10.7,8.7,19.3,19.3,19.3h473.3c10.7,0,19.3-8.7,19.3-19.3v-97.7H0z"/>
		
			<linearGradient id="SVGID_4_" gradientUnits="userSpaceOnUse" x1="182.1077" y1="332.7357" x2="394.3548" y2="120.4877" gradientTransform="matrix(1.0039 0 0 -1.0039 0.1608 514.5443)">
			<stop  offset="0" style="stop-color:#2F73A0"/>
			<stop  offset="1" style="stop-color:#174461"/>
		</linearGradient>
		<path class="st3" d="M463.1,393.7H48.9c-9.1,0-16.4-7.4-16.4-16.4V129.7c0-9.1,7.4-16.4,16.4-16.4h414.3c9.1,0,16.4,7.4,16.4,16.4
			v247.6C479.6,386.4,472.2,393.7,463.1,393.7z"/>
	</g>
	
		<linearGradient id="SVGID_5_" gradientUnits="userSpaceOnUse" x1="274.8388" y1="165.3497" x2="178.5999" y2="313.5727" gradientTransform="matrix(1.0039 0 0 -1.0039 0.1608 514.5443)">
		<stop  offset="0" style="stop-color:#174461;stop-opacity:0"/>
		<stop  offset="1" style="stop-color:#174461"/>
	</linearGradient>
	<path class="st4" d="M503.1,420.4c-64.4-64.6-249.9-250.6-250.6-251.2c-24.3-21.5-55.6-35.3-90.1-37.4c-5-0.3-9.2,3.6-9.2,8.6v5.5
		c-25,3.1-47.3,14.6-64.2,31.5c-20,20-32.4,47.6-32.4,78.1s12.4,58.1,32.4,78.1l89.9,89.8h313.8
		C496.5,423.4,500.1,422.3,503.1,420.4z"/>
	<g>
		<g>
			
				<linearGradient id="SVGID_6_" gradientUnits="userSpaceOnUse" x1="154.3453" y1="372.2053" x2="227.0993" y2="299.4513" gradientTransform="matrix(1.0039 0 0 -1.0039 0.1608 514.5443)">
				<stop  offset="0" style="stop-color:#FFF5D9"/>
				<stop  offset="1" style="stop-color:#FFCE47"/>
			</linearGradient>
			<path class="st5" d="M245.2,177.4l-43.4,43.4c-8.9-8.9-21.2-14.4-34.7-14.4V145C197.6,145,225.2,157.4,245.2,177.4L245.2,177.4z"
				/>
			
				<linearGradient id="SVGID_7_" gradientUnits="userSpaceOnUse" x1="70.2358" y1="299.0188" x2="102.8008" y2="266.4538" gradientTransform="matrix(1.0039 0 0 -1.0039 0.1608 514.5443)">
				<stop  offset="0" style="stop-color:#6FA953"/>
				<stop  offset="1" style="stop-color:#43765A"/>
			</linearGradient>
			<path class="st6" d="M132.3,220.8c-8.9,8.9-14.4,21.2-14.4,34.7H56.6c0-30.5,12.4-58.1,32.4-78.1L132.3,220.8z"/>
			
				<linearGradient id="SVGID_8_" gradientUnits="userSpaceOnUse" x1="123.3454" y1="355.9564" x2="166.1414" y2="313.1594" gradientTransform="matrix(1.0039 0 0 -1.0039 0.1608 514.5443)">
				<stop  offset="0" style="stop-color:#E4E08E"/>
				<stop  offset="1" style="stop-color:#6FA953"/>
			</linearGradient>
			<path class="st7" d="M167.1,145v61.4c-13.6,0-25.8,5.5-34.7,14.4L89,177.4C108.9,157.4,136.6,145,167.1,145L167.1,145z"/>
			
				<linearGradient id="SVGID_9_" gradientUnits="userSpaceOnUse" x1="201.3973" y1="325.1534" x2="270.8573" y2="255.6933" gradientTransform="matrix(1.0039 0 0 -1.0039 0.1608 514.5443)">
				<stop  offset="0" style="stop-color:#FFCE47"/>
				<stop  offset="1" style="stop-color:#FF9356"/>
			</linearGradient>
			<path class="st8" d="M277.5,255.5h-61.4c0-13.6-5.5-25.8-14.4-34.7l43.4-43.4C265.2,197.4,277.5,225,277.5,255.5z"/>
			
				<linearGradient id="SVGID_10_" gradientUnits="userSpaceOnUse" x1="216.8286" y1="262.4736" x2="257.0956" y2="222.2056" gradientTransform="matrix(1.0039 0 0 -1.0039 0.1608 514.5443)">
				<stop  offset="0" style="stop-color:#FF9356"/>
				<stop  offset="1" style="stop-color:#FF755C"/>
			</linearGradient>
			<path class="st9" d="M277.5,255.5c0,30.5-12.4,58.1-32.4,78.1l-43.4-43.4c8.9-8.9,14.4-21.2,14.4-34.7H277.5z"/>
			
				<linearGradient id="SVGID_11_" gradientUnits="userSpaceOnUse" x1="64.4343" y1="257.5713" x2="111.8163" y2="210.1893" gradientTransform="matrix(1.0039 0 0 -1.0039 0.1608 514.5443)">
				<stop  offset="0" style="stop-color:#7ACBFF"/>
				<stop  offset="1" style="stop-color:#45A2E0"/>
			</linearGradient>
			<path class="st10" d="M132.3,290.2l-43.4,43.4c-20-20-32.4-47.6-32.4-78.1H118C118,269.1,123.5,281.3,132.3,290.2z"/>
			
				<linearGradient id="SVGID_12_" gradientUnits="userSpaceOnUse" x1="166.1793" y1="203.0753" x2="205.9293" y2="163.3253" gradientTransform="matrix(1.0039 0 0 -1.0039 0.1608 514.5443)">
				<stop  offset="0" style="stop-color:#FF755C"/>
				<stop  offset="1" style="stop-color:#FF4181"/>
			</linearGradient>
			<path class="st11" d="M245.2,333.6c-20,20-47.6,32.4-78.1,32.4v-61.4c13.6,0,25.8-5.5,34.7-14.4L245.2,333.6z"/>
			
				<linearGradient id="SVGID_13_" gradientUnits="userSpaceOnUse" x1="98.3273" y1="223.6783" x2="194.4463" y2="127.5593" gradientTransform="matrix(1.0039 0 0 -1.0039 0.1608 514.5443)">
				<stop  offset="0" style="stop-color:#FF4181"/>
				<stop  offset="1" style="stop-color:#843561"/>
			</linearGradient>
			<path class="st12" d="M167.1,304.6V366c-30.5,0-58.1-12.4-78.1-32.4l43.4-43.4C141.2,299.1,153.5,304.6,167.1,304.6L167.1,304.6z
				"/>
		</g>
		<g>
			
				<linearGradient id="SVGID_14_" gradientUnits="userSpaceOnUse" x1="160.1745" y1="347.5905" x2="215.3635" y2="292.4025" gradientTransform="matrix(1.0039 0 0 -1.0039 0.1608 514.5443)">
				<stop  offset="0" style="stop-color:#FFF5D9"/>
				<stop  offset="1" style="stop-color:#FFCE47"/>
			</linearGradient>
			<path class="st13" d="M226.3,196.3l-24.5,24.5c-8.9-8.9-21.2-14.4-34.7-14.4v-34.7C190.2,171.7,211.2,181.1,226.3,196.3
				L226.3,196.3z"/>
			
				<linearGradient id="SVGID_15_" gradientUnits="userSpaceOnUse" x1="121.7276" y1="260.8126" x2="66.2306" y2="316.3096" gradientTransform="matrix(1.0039 0 0 -1.0039 0.1608 514.5443)">
				<stop  offset="0" style="stop-color:#6FA953"/>
				<stop  offset="1" style="stop-color:#43765A"/>
			</linearGradient>
			<path class="st14" d="M132.3,220.8c-8.9,8.9-14.4,21.2-14.4,34.7H83.3c0-23.1,9.4-44.1,24.5-59.3L132.3,220.8z"/>
			
				<linearGradient id="SVGID_16_" gradientUnits="userSpaceOnUse" x1="160.5417" y1="305.4757" x2="111.1517" y2="354.8647" gradientTransform="matrix(1.0039 0 0 -1.0039 0.1608 514.5443)">
				<stop  offset="0" style="stop-color:#E4E08E"/>
				<stop  offset="1" style="stop-color:#6FA953"/>
			</linearGradient>
			<path class="st15" d="M167.1,171.7v34.7c-13.6,0-25.8,5.5-34.7,14.4l-24.5-24.5C123,181.1,143.9,171.7,167.1,171.7L167.1,171.7z"
				/>
			
				<linearGradient id="SVGID_17_" gradientUnits="userSpaceOnUse" x1="249.2073" y1="258.5583" x2="197.0683" y2="310.6973" gradientTransform="matrix(1.0039 0 0 -1.0039 0.1608 514.5443)">
				<stop  offset="0" style="stop-color:#FFCE47"/>
				<stop  offset="1" style="stop-color:#FF9356"/>
			</linearGradient>
			<path class="st16" d="M250.9,255.5h-34.7c0-13.6-5.5-25.8-14.4-34.7l24.5-24.5C241.5,211.4,250.9,232.4,250.9,255.5z"/>
			
				<linearGradient id="SVGID_18_" gradientUnits="userSpaceOnUse" x1="245.6137" y1="220.4037" x2="210.7797" y2="255.2367" gradientTransform="matrix(1.0039 0 0 -1.0039 0.1608 514.5443)">
				<stop  offset="0" style="stop-color:#FF9356"/>
				<stop  offset="1" style="stop-color:#FF755C"/>
			</linearGradient>
			<path class="st17" d="M250.9,255.5c0,23.1-9.4,44.1-24.5,59.3l-24.5-24.5c8.9-8.9,14.4-21.2,14.4-34.7H250.9z"/>
			
				<linearGradient id="SVGID_19_" gradientUnits="userSpaceOnUse" x1="135.4133" y1="205.3773" x2="71.1003" y2="269.6903" gradientTransform="matrix(1.0039 0 0 -1.0039 0.1608 514.5443)">
				<stop  offset="0" style="stop-color:#7ACBFF"/>
				<stop  offset="1" style="stop-color:#45A2E0"/>
			</linearGradient>
			<path class="st18" d="M132.3,290.2l-24.5,24.5c-15.2-15.2-24.5-36.1-24.5-59.3H118C118,269.1,123.5,281.3,132.3,290.2z"/>
			
				<linearGradient id="SVGID_20_" gradientUnits="userSpaceOnUse" x1="205.7355" y1="176.8035" x2="158.8605" y2="223.6795" gradientTransform="matrix(1.0039 0 0 -1.0039 0.1608 514.5443)">
				<stop  offset="0" style="stop-color:#FF755C"/>
				<stop  offset="1" style="stop-color:#FF4181"/>
			</linearGradient>
			<path class="st19" d="M226.3,314.8c-15.2,15.2-36.1,24.5-59.3,24.5v-34.7c13.6,0,25.8-5.5,34.7-14.4L226.3,314.8z"/>
			
				<linearGradient id="SVGID_21_" gradientUnits="userSpaceOnUse" x1="167.3153" y1="173.4753" x2="110.1073" y2="230.6833" gradientTransform="matrix(1.0039 0 0 -1.0039 0.1608 514.5443)">
				<stop  offset="0" style="stop-color:#FF4181"/>
				<stop  offset="1" style="stop-color:#843561"/>
			</linearGradient>
			<path class="st20" d="M167.1,304.6v34.7c-23.1,0-44.1-9.4-59.3-24.5l24.5-24.5C141.2,299.1,153.5,304.6,167.1,304.6L167.1,304.6z
				"/>
		</g>
		
			<linearGradient id="SVGID_22_" gradientUnits="userSpaceOnUse" x1="238.1293" y1="288.4213" x2="218.3693" y2="308.1813" gradientTransform="matrix(1.0039 0 0 -1.0039 0.1608 514.5443)">
			<stop  offset="0" style="stop-color:#FF9356;stop-opacity:0"/>
			<stop  offset="1" style="stop-color:#FF755C"/>
		</linearGradient>
		<path class="st21" d="M277.5,255.5h-61.4c0-13.6-5.5-25.8-14.4-34.7l43.4-43.4C265.2,197.4,277.5,225,277.5,255.5z"/>
		
			<linearGradient id="SVGID_23_" gradientUnits="userSpaceOnUse" x1="154.6308" y1="370.8128" x2="220.8818" y2="304.5618" gradientTransform="matrix(1.0039 0 0 -1.0039 0.1608 514.5443)">
			<stop  offset="0" style="stop-color:#FFF5D9"/>
			<stop  offset="1" style="stop-color:#FFCE47"/>
		</linearGradient>
		<path class="st22" d="M252.8,181.7L206,228.5c-3.1,3.1-8,3.3-11.5,0.6c-9.5-7.5-21.1-12.5-33.8-14c-4.3-0.5-7.6-4.2-7.6-8.5v-66.2
			c0-5,4.2-8.9,9.2-8.6c34.5,2.1,65.8,15.8,90.1,37.4C256.2,172.5,256.3,178.2,252.8,181.7L252.8,181.7z"/>
	</g>
	<g>
		<g>
			<g>
				<path class="st23" d="M343.9,200.4h-47.7c-3.5,0-6.3-2.8-6.3-6.3v-12.7c0-3.5,2.8-6.3,6.3-6.3h47.7c3.5,0,6.3,2.8,6.3,6.3v12.7
					C350.2,197.6,347.4,200.4,343.9,200.4z"/>
				<path class="st23" d="M454.1,200.4h-83.3c-3.5,0-6.3-2.8-6.3-6.3v-12.7c0-3.5,2.8-6.3,6.3-6.3h83.3c3.5,0,6.3,2.8,6.3,6.3v12.7
					C460.4,197.6,457.6,200.4,454.1,200.4L454.1,200.4z"/>
			</g>
			<g>
				<path class="st23" d="M406.4,238.5h47.7c3.5,0,6.3-2.8,6.3-6.3v-12.7c0-3.5-2.8-6.3-6.3-6.3h-47.7c-3.5,0-6.3,2.8-6.3,6.3v12.7
					C400,235.7,402.9,238.5,406.4,238.5L406.4,238.5z"/>
				<path class="st23" d="M296.2,238.5h83.3c3.5,0,6.3-2.8,6.3-6.3v-12.7c0-3.5-2.8-6.3-6.3-6.3h-83.3c-3.5,0-6.3,2.8-6.3,6.3v12.7
					C289.9,235.7,292.7,238.5,296.2,238.5z"/>
			</g>
			<g>
				<path class="st23" d="M343.9,276.7h-47.7c-3.5,0-6.3-2.8-6.3-6.3v-12.7c0-3.5,2.8-6.3,6.3-6.3h47.7c3.5,0,6.3,2.8,6.3,6.3v12.7
					C350.2,273.8,347.4,276.7,343.9,276.7z"/>
			</g>
		</g>
	</g>
	
		<linearGradient id="SVGID_24_" gradientUnits="userSpaceOnUse" x1="255.8933" y1="121.3153" x2="255.8933" y2="91.5123" gradientTransform="matrix(1.0039 0 0 -1.0039 0.1608 514.5443)">
		<stop  offset="0" style="stop-color:#FFCE47"/>
		<stop  offset="1" style="stop-color:#FF9356"/>
	</linearGradient>
	<path class="st24" d="M434.6,428.4H79.5c-13.5,0-24.5-11-24.5-24.5v-2.8c0-4.1,3.3-7.4,7.4-7.4h389.4c4.1,0,7.4,3.3,7.4,7.4v2.8
		C459.1,417.4,448.1,428.4,434.6,428.4z"/>
</g>
</svg>
