<?xml version="1.0" encoding="utf-8"?>
<!-- Generator: Adobe Illustrator 23.1.1, SVG Export Plug-In . SVG Version: 6.00 Build 0)  -->
<svg version="1.1" id="Capa_1" xmlns="http://www.w3.org/2000/svg" xmlns:xlink="http://www.w3.org/1999/xlink" x="0px" y="0px"
	 viewBox="0 0 512 512" style="enable-background:new 0 0 512 512;" xml:space="preserve">
<style type="text/css">
	.st0{fill:url(#SVGID_1_);}
	.st1{fill:url(#SVGID_2_);}
	.st2{fill:url(#SVGID_3_);}
	.st3{fill:url(#SVGID_4_);}
	.st4{fill:#91DEB6;}
</style>
<g>
	<linearGradient id="SVGID_1_" gradientUnits="userSpaceOnUse" x1="761.1812" y1="245.4651" x2="-419.4024" y2="270.3184">
		<stop  offset="0" style="stop-color:#FFF9DF"/>
		<stop  offset="0.3025" style="stop-color:#FFE0A5"/>
		<stop  offset="0.8357" style="stop-color:#FEB137"/>
	</linearGradient>
	<path class="st0" d="M441.4,329.7l68.2-68.2c3-3,3-7.9,0-10.9l-68.2-68.2c-1.4-1.4-2.3-3.4-2.3-5.5V80.6c0-4.3-3.5-7.7-7.7-7.7H335
		c-2,0-4-0.8-5.5-2.3L261.4,2.4c-3-3-7.9-3-10.9,0l-68.2,68.2c-1.4,1.4-3.4,2.3-5.5,2.3H80.4c-4.3,0-7.7,3.5-7.7,7.7V177
		c0,2-0.8,4-2.3,5.5L2.3,250.6c-3,3-3,7.9,0,10.9l68.2,68.2c1.4,1.4,2.3,3.4,2.3,5.5v96.4c0,4.3,3.5,7.7,7.7,7.7h96.4
		c2,0,4,0.8,5.5,2.3l68.2,68.2c3,3,7.9,3,10.9,0l68.2-68.2c1.4-1.4,3.4-2.3,5.5-2.3h96.4c4.3,0,7.7-3.5,7.7-7.7v-96.4
		C439.1,333.1,439.9,331.2,441.4,329.7z"/>
	<linearGradient id="SVGID_2_" gradientUnits="userSpaceOnUse" x1="103.0263" y1="256.1" x2="588.4905" y2="256.1">
		<stop  offset="0" style="stop-color:#FFF9DF"/>
		<stop  offset="1.564538e-02" style="stop-color:#FFF4D2"/>
		<stop  offset="6.699997e-02" style="stop-color:#FFE4AE"/>
		<stop  offset="0.1247" style="stop-color:#FFD68E"/>
		<stop  offset="0.1885" style="stop-color:#FECA72"/>
		<stop  offset="0.2606" style="stop-color:#FEC15C"/>
		<stop  offset="0.3448" style="stop-color:#FEBA4B"/>
		<stop  offset="0.4488" style="stop-color:#FEB540"/>
		<stop  offset="0.5948" style="stop-color:#FEB239"/>
		<stop  offset="1" style="stop-color:#FEB137"/>
	</linearGradient>
	<path class="st1" d="M509.6,261.6l-68.2,68.2c-1.5,1.4-2.3,3.4-2.3,5.5v96.4c0,4.3-3.4,7.7-7.7,7.7h-20.7c4.3,0,7.7-3.4,7.7-7.7
		V330.5c0-2,0.8-4,2.3-5.5l65.2-63.5c3-3,3-7.9,0-10.9L420.7,188c-1.5-1.4-2.3-3.4-2.3-5.5v-102c0-4.3-3.4-7.7-7.7-7.7h20.7
		c4.3,0,7.7,3.4,7.7,7.7V177c0,2,0.8,4,2.3,5.5l68.2,68.2C512.6,253.7,512.6,258.5,509.6,261.6z"/>
	<linearGradient id="SVGID_3_" gradientUnits="userSpaceOnUse" x1="-167.1719" y1="256.1" x2="621.2113" y2="256.1">
		<stop  offset="0" style="stop-color:#B0E7C9"/>
		<stop  offset="0" style="stop-color:#46CC8D"/>
		<stop  offset="0.2532" style="stop-color:#3CC890"/>
		<stop  offset="0.6783" style="stop-color:#22BF98"/>
		<stop  offset="1" style="stop-color:#0AB69F"/>
	</linearGradient>
	<path class="st2" d="M397.8,313.5l55.1-55.1c1.3-1.3,1.3-3.4,0-4.7l-55.1-55.1c-0.6-0.6-1-1.5-1-2.3v-77.9c0-1.8-1.5-3.3-3.3-3.3
		h-77.9c-0.9,0-1.7-0.3-2.3-1L258.2,59c-1.3-1.3-3.4-1.3-4.7,0l-55.1,55.1c-0.6,0.6-1.5,1-2.3,1h-77.9c-1.8,0-3.3,1.5-3.3,3.3v77.9
		c0,0.9-0.3,1.7-1,2.3L59,253.8c-1.3,1.3-1.3,3.4,0,4.7l55.1,55.1c0.6,0.6,1,1.5,1,2.3v77.9c0,1.8,1.5,3.3,3.3,3.3h77.9
		c0.9,0,1.7,0.3,2.3,1l55.1,55.1c1.3,1.3,3.4,1.3,4.7,0l55.1-55.1c0.6-0.6,1.5-1,2.3-1h77.9c1.8,0,3.3-1.5,3.3-3.3v-77.9
		C396.8,314.9,397.1,314.1,397.8,313.5L397.8,313.5z"/>
	<linearGradient id="SVGID_4_" gradientUnits="userSpaceOnUse" x1="-6.0957" y1="256.1" x2="968.3016" y2="256.1">
		<stop  offset="0" style="stop-color:#B0E7C9"/>
		<stop  offset="0" style="stop-color:#46CC8D"/>
		<stop  offset="0.4984" style="stop-color:#44CB8E"/>
		<stop  offset="0.6778" style="stop-color:#3DC990"/>
		<stop  offset="0.8058" style="stop-color:#32C493"/>
		<stop  offset="0.9085" style="stop-color:#21BE98"/>
		<stop  offset="0.9961" style="stop-color:#0BB69F"/>
		<stop  offset="1" style="stop-color:#0AB69F"/>
	</linearGradient>
	<circle class="st3" cx="255.9" cy="256.1" r="151.3"/>
	<g>
		<path class="st4" d="M337.6,203.5c-4.3,0-7.7,3.5-7.7,7.7v117.2c0,4.3,3.5,7.7,7.7,7.7c4.3,0,7.7-3.5,7.7-7.7V211.3
			C345.3,207,341.8,203.5,337.6,203.5L337.6,203.5z"/>
		<path class="st4" d="M301.1,203.5c-4.3,0-7.7,3.5-7.7,7.7V305c0,8.7-7.1,15.7-15.7,15.7c-8.7,0-15.7-7.1-15.7-15.7v-35.2
			c0-4.3-3.5-7.7-7.7-7.7c-4.3,0-7.7,3.5-7.7,7.7V305c0,8.7-7.1,15.7-15.7,15.7s-15.7-7.1-15.7-15.7v-45.1c0-8-3.5-15.1-9.7-19.5
			c-6.5-4.6-15.1-5.7-23.1-3c-6.8,2.3-12,7.6-14.4,14.5s-1.5,14.3,2.3,20.3c6.9,10.7,20.3,12.1,29.5,11.6V305
			c0,17.2,14,31.2,31.2,31.2c9.3,0,17.7-4.1,23.4-10.7c5.7,6.5,14.1,10.7,23.4,10.7c17.2,0,31.2-14,31.2-31.2v-93.8
			C308.9,207,305.4,203.5,301.1,203.5L301.1,203.5z M199.7,268.3c-5.8,0.4-13.6-0.1-16.5-4.5c-1.3-2-1.5-4.5-0.7-6.9
			c3.1-9,17.2-6.6,17.2,3V268.3z"/>
		<path class="st4" d="M224.9,217.6c2.9,2.3,6.4,3.5,9.9,3.5c2.3,0,4.7-0.5,7-1.5c1.8-0.8,3.4-1.8,4.9-3c5.2,3.7,12.6,5.2,19.6,3.9
			c8.1-1.6,12.1-6.2,14.1-9.8c3.6-6.5,3.5-15.7-0.1-25c-1.6-4-6-5.9-10-4.4c-4,1.6-5.9,6-4.4,10c1.9,4.8,2.3,9.6,1,11.9
			c-0.3,0.5-0.8,1.5-3.5,2c-2.9,0.6-6.5-0.1-8-1.5c-0.5-0.4-0.7-0.8-0.6-1.8c0.4-4.2-2.8-8-7-8.3c-4.3-0.4-8,2.8-8.3,7l0,0
			c-0.2,1.8-1.9,4.1-3.7,4.9c-0.8,0.3-0.9,0.2-1.2,0c-2.1-1.6-1.7-4.5,0.3-11.7c0.5-1.7,1-3.5,1.3-5.2c0.9-4.2-1.8-8.3-6-9.1
			c-4.2-0.9-8.3,1.8-9.1,6c-0.3,1.2-0.7,2.7-1.1,4.2C217.8,197,214.4,209.3,224.9,217.6L224.9,217.6z"/>
		<path class="st4" d="M244,170c6.2-0.2,14.4-5.8,17.8-8.7c3.2-2.8,3.5-7.7,0.7-10.9s-7.7-3.5-10.9-0.7c-2.8,2.4-6.1,4.2-9.7,5.2
			c-4.1,1.1-6.5,5.4-5.4,9.5C237.7,168.7,240.6,170.1,244,170L244,170z"/>
	</g>
	<path class="st4" d="M407.2,256.1c0,83.6-67.8,151.3-151.3,151.3c-27.3,0-53-7.2-75.1-19.9c17.9,7.5,37.5,11.6,58.1,11.6
		c83.6,0,151.3-67.8,151.3-151.3c0-56.2-30.7-105.3-76.2-131.4C368.8,139.1,407.2,193.1,407.2,256.1z"/>
</g>
</svg>
