<?xml version="1.0" encoding="utf-8"?>
<!-- Generator: Adobe Illustrator 23.1.1, SVG Export Plug-In . SVG Version: 6.00 Build 0)  -->
<svg version="1.1" id="Capa_1" xmlns="http://www.w3.org/2000/svg" xmlns:xlink="http://www.w3.org/1999/xlink" x="0px" y="0px"
	 viewBox="0 0 512 512" style="enable-background:new 0 0 512 512;" xml:space="preserve">
<style type="text/css">
	.st0{fill:url(#SVGID_1_);}
	.st1{fill:#FF3E3A;}
	.st2{fill:url(#SVGID_2_);}
	.st3{fill:url(#SVGID_3_);}
	.st4{fill:url(#SVGID_4_);}
</style>
<radialGradient id="SVGID_1_" cx="-163.7165" cy="262.0451" r="305.9149" gradientUnits="userSpaceOnUse">
	<stop  offset="0" style="stop-color:#FFA425"/>
	<stop  offset="0.3166" style="stop-color:#FFA727"/>
	<stop  offset="0.3788" style="stop-color:#FFB22D"/>
	<stop  offset="0.7925" style="stop-color:#FFC438"/>
	<stop  offset="1" style="stop-color:#FFDA45"/>
</radialGradient>
<path class="st0" d="M17.5,0C9,0,2.1,6.9,2.1,15.5v481.1c0,8.5,6.9,15.5,15.5,15.5S33,505.1,33,496.5V15.5C33,6.9,26,0,17.5,0z"/>
<path class="st1" d="M502.2,131.3h-19.1L359.5,271.5l123.6,140.1h19.1c5.6,0,9.3-5.7,7.1-10.8l-57-129.3l57-129.3
	C511.5,137.1,507.8,131.3,502.2,131.3z"/>
<radialGradient id="SVGID_2_" cx="366.7434" cy="271.4527" r="331.5767" fx="36.0282" fy="247.5677" gradientUnits="userSpaceOnUse">
	<stop  offset="5.226458e-02" style="stop-color:#FF3E3A"/>
	<stop  offset="0.2921" style="stop-color:#FF5136"/>
	<stop  offset="0.5019" style="stop-color:#FF5D34"/>
	<stop  offset="0.5285" style="stop-color:#FF5535"/>
	<stop  offset="0.597" style="stop-color:#FF4838"/>
	<stop  offset="0.6843" style="stop-color:#FF403A"/>
	<stop  offset="0.8521" style="stop-color:#FF3E3A"/>
</radialGradient>
<path class="st2" d="M483.2,131.3H250.3v280.2h232.8l-61.8-140.1L483.2,131.3z"/>
<radialGradient id="SVGID_3_" cx="178.5271" cy="207.7507" r="421.0673" fx="599.5719" fy="203.3924" gradientUnits="userSpaceOnUse">
	<stop  offset="5.226458e-02" style="stop-color:#FF3E3A"/>
	<stop  offset="0.2844" style="stop-color:#FF4139"/>
	<stop  offset="0.4526" style="stop-color:#FF4A38"/>
	<stop  offset="0.6003" style="stop-color:#FF5A35"/>
	<stop  offset="0.6218" style="stop-color:#FF5D34"/>
</radialGradient>
<path class="st3" d="M250.3,38.6h-30.9H33c82.4,77.4,82.4,202.8,0,280.2h171l61.8,30.9l30.9,15.5V85
	C296.7,59.5,275.8,38.6,250.3,38.6z"/>
<radialGradient id="SVGID_4_" cx="250.333" cy="365.1992" r="288.9008" fx="-37.8929" fy="384.9353" gradientUnits="userSpaceOnUse">
	<stop  offset="0.4919" style="stop-color:#FF3E3A"/>
	<stop  offset="0.6532" style="stop-color:#FF4139"/>
	<stop  offset="0.7702" style="stop-color:#FF4A38"/>
	<stop  offset="0.8729" style="stop-color:#FF5A35"/>
	<stop  offset="0.8878" style="stop-color:#FF5D34"/>
</radialGradient>
<path class="st4" d="M265.8,321.5c-4.8-1.7-10-2.6-15.5-2.6H204v46.4c0,25.6,20.8,46.4,46.4,46.4l0,0v0c25.6,0,46.4-20.8,46.4-46.4
	C296.7,345,283.8,327.9,265.8,321.5z"/>
</svg>
