<?xml version="1.0" encoding="utf-8"?>
<!-- Generator: Adobe Illustrator 23.1.1, SVG Export Plug-In . SVG Version: 6.00 Build 0)  -->
<svg version="1.1" id="Capa_1" xmlns="http://www.w3.org/2000/svg" xmlns:xlink="http://www.w3.org/1999/xlink" x="0px" y="0px"
	 viewBox="0 0 512 512" style="enable-background:new 0 0 512 512;" xml:space="preserve">
<style type="text/css">
	.st0{fill:url(#SVGID_1_);}
	.st1{fill:url(#SVGID_2_);}
	.st2{fill:url(#SVGID_3_);}
	.st3{fill:url(#SVGID_4_);}
	.st4{fill:url(#SVGID_5_);}
	.st5{fill:url(#SVGID_6_);}
	.st6{fill:url(#SVGID_7_);}
	.st7{fill:url(#SVGID_8_);}
	.st8{fill:url(#SVGID_9_);}
	.st9{fill:url(#SVGID_10_);}
	.st10{fill:url(#SVGID_11_);}
</style>
<g>
	<g>
		<g>
			<g>
				
					<linearGradient id="SVGID_1_" gradientUnits="userSpaceOnUse" x1="-9.012" y1="255.2599" x2="500.0794" y2="255.2599" gradientTransform="matrix(1.0039 0 0 -1.0039 0.1647 512.761)">
					<stop  offset="0" style="stop-color:#01D0FB"/>
					<stop  offset="0.6075" style="stop-color:#26A6FE"/>
					<stop  offset="1" style="stop-color:#0182FC"/>
				</linearGradient>
				<path class="st0" d="M508,256.5c0,140.6-110,254.5-250.5,254.5c-42,0-81.6-10.2-116.5-28.2c-37-19.1-64.7-51.9-88.3-85.8
					c-17.7-25.4-35-49.3-42.5-80.3C5.5,297.4,3,277.2,3,256.5C3,115.9,116.9,2,257.5,2C366.5,2.7,508,115.9,508,256.5z"/>
			</g>
		</g>
		
			<linearGradient id="SVGID_2_" gradientUnits="userSpaceOnUse" x1="115.2317" y1="255.26" x2="505.406" y2="255.26" gradientTransform="matrix(1.0039 0 0 -1.0039 0.1647 512.761)">
			<stop  offset="0" style="stop-color:#01BFFA"/>
			<stop  offset="0.2539" style="stop-color:#1F9EFC"/>
			<stop  offset="0.5724" style="stop-color:#407AFD"/>
			<stop  offset="0.8326" style="stop-color:#5464FF"/>
			<stop  offset="1" style="stop-color:#5B5CFF"/>
		</linearGradient>
		<path class="st1" d="M257.5,2c-6.7,0-13.4,0.3-20,0.8c100.9,7.8,185.3,74.5,218.9,165.7c0,0.1-0.1,0.1-0.1,0.2
			c-26,50-70.3,107.5-124.7,161.9s-111.9,98.7-161.9,124.7c-18.7,9.7-33.4,15.4-44.7,18.5c21.7,13.3,45.5,23.3,70.8,29.7
			c54.6-28.6,116.5-76.2,174.5-134.2c39.6-39.6,74.4-81.1,101.6-120.9c0.1,2.7,0.1,5.4,0.1,8.1c0,133.8-103.3,243.5-234.5,253.7
			c6.6,0.5,13.2,0.8,20,0.8c65.3,0,124.9-24.6,170-65.1c16.5-14.8,29.7-33.3,41.9-51.9c13.8-21.2,26-43.2,33.1-68.1
			c6.2-22.1,9.6-45.3,9.6-69.4c0-63.9-23.5-122.2-62.4-166.9c-20.4-23.5-48.1-40.2-75.7-54.9C338.3,15.7,300.6,2,257.5,2L257.5,2z"
			/>
		
			<linearGradient id="SVGID_3_" gradientUnits="userSpaceOnUse" x1="1.1978" y1="160.0571" x2="295.1095" y2="160.0571" gradientTransform="matrix(1.0039 0 0 -1.0039 0.1647 512.761)">
			<stop  offset="0" style="stop-color:#B0E7C9"/>
			<stop  offset="0.593" style="stop-color:#46CC8D"/>
			<stop  offset="1" style="stop-color:#0AB69F"/>
		</linearGradient>
		<path class="st2" d="M160.1,260.2l-16.7-16.7c-30.9-30.9-81-30.9-111.9,0C12,263,3.9,291.3,10.5,318.1
			c16.2,65.1,57.4,120.2,112.8,154.7c28.8,17.9,66.1,13.8,90.1-10.2c12.4-12.4,29.3-19.4,46.9-19.4c21.8,0,39.4-17.7,39.4-39.4
			c0-35.3-28.6-63.9-63.9-63.9h-15.5c-25.7,0-46.6-20.9-46.6-46.6C173.7,280.8,168.8,268.9,160.1,260.2L160.1,260.2z"/>
		
			<linearGradient id="SVGID_4_" gradientUnits="userSpaceOnUse" x1="110.1914" y1="85.6715" x2="282.8398" y2="85.6715" gradientTransform="matrix(1.0039 0 0 -1.0039 0.1647 512.761)">
			<stop  offset="0" style="stop-color:#46CC8D"/>
			<stop  offset="0.5484" style="stop-color:#0AB69F"/>
			<stop  offset="1" style="stop-color:#01998D"/>
		</linearGradient>
		<path class="st3" d="M213.5,462.5c12.4-12.4,29.3-19.4,46.9-19.4c21.8,0,39.4-17.7,39.4-39.4c0-12.5-3.6-24.2-9.8-34
			c-41.3,36.5-82.9,66.2-120.3,85.6c-18.6,9.7-33.3,15.3-44.7,18.5C153.6,490.5,189.9,486.1,213.5,462.5L213.5,462.5z"/>
		
			<linearGradient id="SVGID_5_" gradientUnits="userSpaceOnUse" x1="182.7637" y1="392.9484" x2="476.0769" y2="392.9484" gradientTransform="matrix(1.0039 0 0 -1.0039 0.1647 512.761)">
			<stop  offset="0" style="stop-color:#B0E7C9"/>
			<stop  offset="0.593" style="stop-color:#46CC8D"/>
			<stop  offset="1" style="stop-color:#0AB69F"/>
		</linearGradient>
		<path class="st4" d="M417.9,234.5c53.4,0,87.2-57.7,60.7-104.1C434.8,53.7,352.2,2,257.5,2c-0.8,0-1.6,0-2.4,0
			c-29.1,0.3-52.5,23.9-52.5,52.9c0,14,5.6,27.5,15.5,37.4l47.3,47.3c12.9,12.9,33.8,12.9,46.7,0s33.8-12.9,46.7,0
			c19.1,19.1,29.8,44.9,29.8,71.9c0,12.7,10.3,23.1,23.1,23.1L417.9,234.5L417.9,234.5z"/>
		
			<linearGradient id="SVGID_6_" gradientUnits="userSpaceOnUse" x1="226.4879" y1="392.9484" x2="477.4746" y2="392.9484" gradientTransform="matrix(1.0039 0 0 -1.0039 0.1647 512.761)">
			<stop  offset="0" style="stop-color:#46CC8D"/>
			<stop  offset="0.5484" style="stop-color:#0AB69F"/>
			<stop  offset="1" style="stop-color:#01998D"/>
		</linearGradient>
		<path class="st5" d="M243.8,3.3c98.1,10,179.7,75.8,212.6,165.1c0,0.1-0.1,0.1-0.1,0.2c-10.9,20.9-25,43.1-41.6,65.9h3.2
			c53.4,0,87.2-57.7,60.7-104.1C434.8,53.7,352.2,2,257.5,2c-1,0-1.9,0-2.9,0C250.9,2.1,247.3,2.6,243.8,3.3L243.8,3.3z"/>
		
			<linearGradient id="SVGID_7_" gradientUnits="userSpaceOnUse" x1="303.1054" y1="282.8404" x2="390.2845" y2="282.8404" gradientTransform="matrix(1.0039 0 0 -1.0039 0.1647 512.761)">
			<stop  offset="0" style="stop-color:#46CC8D"/>
			<stop  offset="0.5484" style="stop-color:#0AB69F"/>
			<stop  offset="1" style="stop-color:#01998D"/>
		</linearGradient>
		<circle class="st6" cx="330.9" cy="228.8" r="38.9"/>
		
			<linearGradient id="SVGID_8_" gradientUnits="userSpaceOnUse" x1="36.625" y1="339.6515" x2="122.7027" y2="339.6515" gradientTransform="matrix(1.0039 0 0 -1.0039 0.1647 512.761)">
			<stop  offset="0" style="stop-color:#B0E7C9"/>
			<stop  offset="0.593" style="stop-color:#46CC8D"/>
			<stop  offset="1" style="stop-color:#0AB69F"/>
		</linearGradient>
		<circle class="st7" cx="77.9" cy="171.8" r="32.1"/>
		
			<linearGradient id="SVGID_9_" gradientUnits="userSpaceOnUse" x1="339.8379" y1="124.1411" x2="477.2052" y2="124.1411" gradientTransform="matrix(1.0039 0 0 -1.0039 0.1647 512.761)">
			<stop  offset="0" style="stop-color:#B0E7C9"/>
			<stop  offset="0.593" style="stop-color:#46CC8D"/>
			<stop  offset="1" style="stop-color:#0AB69F"/>
		</linearGradient>
		<path class="st8" d="M502.4,325.9h-27.2c-29.8,0-58.4,11.8-79.4,32.9L368.5,386c-10.8,10.8-3.1,29.2,12.1,29.2
			c9.7,0,17.6,7.9,17.6,17.6c0,15.2,18,23.3,29.2,13.1C462.8,414.2,489.2,372.8,502.4,325.9z"/>
		
			<linearGradient id="SVGID_10_" gradientUnits="userSpaceOnUse" x1="380.1771" y1="124.1408" x2="483.012" y2="124.1408" gradientTransform="matrix(1.0039 0 0 -1.0039 0.1647 512.761)">
			<stop  offset="0" style="stop-color:#46CC8D"/>
			<stop  offset="0.5484" style="stop-color:#0AB69F"/>
			<stop  offset="1" style="stop-color:#01998D"/>
		</linearGradient>
		<path class="st9" d="M475.2,325.9c-4.3,0-8.7,0.3-12.9,0.8c-11.9,41.7-34.2,78.9-63.8,108.9c2,13.3,18.5,19.9,29,10.4
			c35.3-31.7,61.7-73.1,75-120L475.2,325.9L475.2,325.9z"/>
	</g>
	
		<linearGradient id="SVGID_11_" gradientUnits="userSpaceOnUse" x1="-3.1416" y1="255.2565" x2="489.2174" y2="255.2565" gradientTransform="matrix(1.0039 0 0 -1.0039 0.1647 512.761)">
		<stop  offset="0" style="stop-color:#FFF9DF"/>
		<stop  offset="0.593" style="stop-color:#FFE177"/>
		<stop  offset="1" style="stop-color:#FEB137"/>
	</linearGradient>
	<path class="st10" d="M487.8,26.2c-17.4-17.4-52.4-30.5-121.2,0.3c21,10,40.4,22.7,57.8,37.8c5.8-1.2,10.5-1.7,14.2-1.7
		c3.1,0,5.5,0.3,7.2,0.8c1.7,0.4,2.8,1,3.3,1.5c1.6,1.6,3.8,9,0.6,24.7c-2.5,12.1-8.3,29.1-20.3,52.1c-26,50-70.3,107.5-124.7,161.9
		c-54.4,54.4-111.9,98.7-161.9,124.7c-23,12-40,17.8-52.1,20.3c-15.6,3.2-23.1,1-24.7-0.6c-1.6-1.6-3.8-9-0.6-24.7
		c-15.1-17.3-27.9-36.8-37.8-57.8c-30.8,68.7-17.7,103.7-0.3,121.2c9.8,9.8,25.2,18.2,49,18.2c18.5,0,42.1-5.1,72.1-18.5
		c6.3-2.8,12.8-6,19.7-9.5c54.8-28.5,117.1-76.3,175.3-134.6c58.3-58.3,106.1-120.5,134.6-175.3c3.6-6.8,6.7-13.4,9.5-19.6
		c13.5-30.1,18.5-53.7,18.5-72.2C506,51.4,497.6,36,487.8,26.2L487.8,26.2z"/>
</g>
</svg>
